; GCODE Generated by cam.openbuilds.com on 2021-11-22 
G21 ; mm-mode
G54; Work Coordinates
G21; mm-mode
G90; Absolute Positioning
M3 S1000; Spindle On

; Operation 0: CNC: Vector (no offset)
; Endmill Diameter: 0

G0 Z10; move to z-safe height
G0 F1000 X115.6469 Y245.3537

G0 Z0
G1 F50 Z-0.5000
G1 F100 X115.6469 Y245.3537 Z-0.5000 S1000
G1 F100 X115.6951 Y244.3735 Z-0.5000 S1000
G1 F100 X115.8391 Y243.4028 Z-0.5000 S1000
G1 F100 X116.0775 Y242.4508 Z-0.5000 S1000
G1 F100 X116.4081 Y241.5268 Z-0.5000 S1000
G1 F100 X116.8277 Y240.6397 Z-0.5000 S1000
G1 F100 X117.3322 Y239.7979 Z-0.5000 S1000
G1 F100 X117.9168 Y239.0097 Z-0.5000 S1000
G1 F100 X118.5759 Y238.2826 Z-0.5000 S1000
G1 F100 X119.3030 Y237.6235 Z-0.5000 S1000
G1 F100 X120.0912 Y237.0389 Z-0.5000 S1000
G1 F100 X120.9330 Y236.5344 Z-0.5000 S1000
G1 F100 X121.8201 Y236.1148 Z-0.5000 S1000
G1 F100 X122.7441 Y235.7842 Z-0.5000 S1000
G1 F100 X123.6961 Y235.5458 Z-0.5000 S1000
G1 F100 X124.6668 Y235.4018 Z-0.5000 S1000
G1 F100 X125.6470 Y235.3536 Z-0.5000 S1000
G1 F100 X125.6470 Y235.3536 Z-0.5000 S1000
G1 F100 X125.6470 Y235.3536 Z-0.5000 S1000
G1 F100 X126.6271 Y235.4018 Z-0.5000 S1000
G1 F100 X127.5979 Y235.5458 Z-0.5000 S1000
G1 F100 X128.5498 Y235.7842 Z-0.5000 S1000
G1 F100 X129.4738 Y236.1148 Z-0.5000 S1000
G1 F100 X130.3610 Y236.5344 Z-0.5000 S1000
G1 F100 X131.2027 Y237.0389 Z-0.5000 S1000
G1 F100 X131.9909 Y237.6235 Z-0.5000 S1000
G1 F100 X132.7181 Y238.2826 Z-0.5000 S1000
G1 F100 X133.3771 Y239.0097 Z-0.5000 S1000
G1 F100 X133.9617 Y239.7979 Z-0.5000 S1000
G1 F100 X134.4662 Y240.6397 Z-0.5000 S1000
G1 F100 X134.8858 Y241.5268 Z-0.5000 S1000
G1 F100 X135.2164 Y242.4508 Z-0.5000 S1000
G1 F100 X135.4549 Y243.4028 Z-0.5000 S1000
G1 F100 X135.5989 Y244.3735 Z-0.5000 S1000
G1 F100 X135.6470 Y245.3537 Z-0.5000 S1000
G1 F100 X135.6470 Y245.3537 Z-0.5000 S1000
G1 F100 X135.6470 Y245.3537 Z-0.5000 S1000
G1 F100 X135.5989 Y246.3338 Z-0.5000 S1000
G1 F100 X135.4549 Y247.3046 Z-0.5000 S1000
G1 F100 X135.2164 Y248.2565 Z-0.5000 S1000
G1 F100 X134.8858 Y249.1805 Z-0.5000 S1000
G1 F100 X134.4662 Y250.0677 Z-0.5000 S1000
G1 F100 X133.9617 Y250.9094 Z-0.5000 S1000
G1 F100 X133.3771 Y251.6976 Z-0.5000 S1000
G1 F100 X132.7181 Y252.4248 Z-0.5000 S1000
G1 F100 X131.9909 Y253.0838 Z-0.5000 S1000
G1 F100 X131.2027 Y253.6684 Z-0.5000 S1000
G1 F100 X130.3610 Y254.1729 Z-0.5000 S1000
G1 F100 X129.4738 Y254.5925 Z-0.5000 S1000
G1 F100 X128.5498 Y254.9231 Z-0.5000 S1000
G1 F100 X127.5979 Y255.1616 Z-0.5000 S1000
G1 F100 X126.6271 Y255.3056 Z-0.5000 S1000
G1 F100 X125.6470 Y255.3537 Z-0.5000 S1000
G1 F100 X125.6470 Y255.3537 Z-0.5000 S1000
G1 F100 X125.6470 Y255.3537 Z-0.5000 S1000
G1 F100 X124.6668 Y255.3056 Z-0.5000 S1000
G1 F100 X123.6961 Y255.1616 Z-0.5000 S1000
G1 F100 X122.7441 Y254.9231 Z-0.5000 S1000
G1 F100 X121.8201 Y254.5925 Z-0.5000 S1000
G1 F100 X120.9330 Y254.1729 Z-0.5000 S1000
G1 F100 X120.0912 Y253.6684 Z-0.5000 S1000
G1 F100 X119.3030 Y253.0838 Z-0.5000 S1000
G1 F100 X118.5759 Y252.4248 Z-0.5000 S1000
G1 F100 X117.9168 Y251.6976 Z-0.5000 S1000
G1 F100 X117.3322 Y250.9094 Z-0.5000 S1000
G1 F100 X116.8277 Y250.0677 Z-0.5000 S1000
G1 F100 X116.4081 Y249.1805 Z-0.5000 S1000
G1 F100 X116.0775 Y248.2565 Z-0.5000 S1000
G1 F100 X115.8391 Y247.3046 Z-0.5000 S1000
G1 F100 X115.6951 Y246.3338 Z-0.5000 S1000
G1 F100 X115.6469 Y245.3537 Z-0.5000 S1000
G1 F100 X115.6469 Y245.3537 Z-0.5000 S1000
G1 F100 X115.6469 Y245.3537 Z-0.5000 S1000

G0 Z10; move to z-safe height
G0 X0.0000 Y42.3529

G0 Z0
G1 F50 Z-0.5000
G1 F100 X0.0000 Y42.3529 Z-0.5000 S1000
G1 F100 X0.0482 Y41.3728 Z-0.5000 S1000
G1 F100 X0.1922 Y40.4020 Z-0.5000 S1000
G1 F100 X0.4306 Y39.4501 Z-0.5000 S1000
G1 F100 X0.7612 Y38.5261 Z-0.5000 S1000
G1 F100 X1.1808 Y37.6389 Z-0.5000 S1000
G1 F100 X1.6853 Y36.7972 Z-0.5000 S1000
G1 F100 X2.2699 Y36.0090 Z-0.5000 S1000
G1 F100 X2.9289 Y35.2818 Z-0.5000 S1000
G1 F100 X3.6561 Y34.6228 Z-0.5000 S1000
G1 F100 X4.4443 Y34.0382 Z-0.5000 S1000
G1 F100 X5.2861 Y33.5337 Z-0.5000 S1000
G1 F100 X6.1732 Y33.1141 Z-0.5000 S1000
G1 F100 X7.0972 Y32.7835 Z-0.5000 S1000
G1 F100 X8.0491 Y32.5450 Z-0.5000 S1000
G1 F100 X9.0199 Y32.4011 Z-0.5000 S1000
G1 F100 X10.0000 Y32.3529 Z-0.5000 S1000
G1 F100 X10.0000 Y32.3529 Z-0.5000 S1000
G1 F100 X10.0000 Y32.3529 Z-0.5000 S1000
G1 F100 X10.9802 Y32.4011 Z-0.5000 S1000
G1 F100 X11.9510 Y32.5450 Z-0.5000 S1000
G1 F100 X12.9029 Y32.7835 Z-0.5000 S1000
G1 F100 X13.8269 Y33.1141 Z-0.5000 S1000
G1 F100 X14.7140 Y33.5337 Z-0.5000 S1000
G1 F100 X15.5558 Y34.0382 Z-0.5000 S1000
G1 F100 X16.3440 Y34.6228 Z-0.5000 S1000
G1 F100 X17.0711 Y35.2818 Z-0.5000 S1000
G1 F100 X17.7302 Y36.0090 Z-0.5000 S1000
G1 F100 X18.3148 Y36.7972 Z-0.5000 S1000
G1 F100 X18.8193 Y37.6389 Z-0.5000 S1000
G1 F100 X19.2389 Y38.5261 Z-0.5000 S1000
G1 F100 X19.5695 Y39.4501 Z-0.5000 S1000
G1 F100 X19.8079 Y40.4020 Z-0.5000 S1000
G1 F100 X19.9519 Y41.3728 Z-0.5000 S1000
G1 F100 X20.0001 Y42.3529 Z-0.5000 S1000
G1 F100 X20.0001 Y42.3529 Z-0.5000 S1000
G1 F100 X20.0001 Y42.3529 Z-0.5000 S1000
G1 F100 X19.9519 Y43.3331 Z-0.5000 S1000
G1 F100 X19.8079 Y44.3038 Z-0.5000 S1000
G1 F100 X19.5695 Y45.2558 Z-0.5000 S1000
G1 F100 X19.2389 Y46.1798 Z-0.5000 S1000
G1 F100 X18.8193 Y47.0669 Z-0.5000 S1000
G1 F100 X18.3148 Y47.9087 Z-0.5000 S1000
G1 F100 X17.7302 Y48.6969 Z-0.5000 S1000
G1 F100 X17.0711 Y49.4240 Z-0.5000 S1000
G1 F100 X16.3440 Y50.0831 Z-0.5000 S1000
G1 F100 X15.5558 Y50.6677 Z-0.5000 S1000
G1 F100 X14.7140 Y51.1722 Z-0.5000 S1000
G1 F100 X13.8269 Y51.5918 Z-0.5000 S1000
G1 F100 X12.9029 Y51.9224 Z-0.5000 S1000
G1 F100 X11.9510 Y52.1608 Z-0.5000 S1000
G1 F100 X10.9802 Y52.3048 Z-0.5000 S1000
G1 F100 X10.0000 Y52.3530 Z-0.5000 S1000
G1 F100 X10.0000 Y52.3530 Z-0.5000 S1000
G1 F100 X10.0000 Y52.3530 Z-0.5000 S1000
G1 F100 X9.0199 Y52.3048 Z-0.5000 S1000
G1 F100 X8.0491 Y52.1608 Z-0.5000 S1000
G1 F100 X7.0972 Y51.9224 Z-0.5000 S1000
G1 F100 X6.1732 Y51.5918 Z-0.5000 S1000
G1 F100 X5.2861 Y51.1722 Z-0.5000 S1000
G1 F100 X4.4443 Y50.6677 Z-0.5000 S1000
G1 F100 X3.6561 Y50.0831 Z-0.5000 S1000
G1 F100 X2.9289 Y49.4240 Z-0.5000 S1000
G1 F100 X2.2699 Y48.6969 Z-0.5000 S1000
G1 F100 X1.6853 Y47.9087 Z-0.5000 S1000
G1 F100 X1.1808 Y47.0669 Z-0.5000 S1000
G1 F100 X0.7612 Y46.1798 Z-0.5000 S1000
G1 F100 X0.4306 Y45.2558 Z-0.5000 S1000
G1 F100 X0.1922 Y44.3038 Z-0.5000 S1000
G1 F100 X0.0482 Y43.3331 Z-0.5000 S1000
G1 F100 X0.0000 Y42.3529 Z-0.5000 S1000
G1 F100 X0.0000 Y42.3529 Z-0.5000 S1000
G1 F100 X0.0000 Y42.3529 Z-0.5000 S1000

G0 Z10; move to z-safe height
G0 X115.6469 Y42.3529

G0 Z0
G1 F50 Z-0.5000
G1 F100 X115.6469 Y42.3529 Z-0.5000 S1000
G1 F100 X115.6951 Y41.3728 Z-0.5000 S1000
G1 F100 X115.8391 Y40.4020 Z-0.5000 S1000
G1 F100 X116.0775 Y39.4501 Z-0.5000 S1000
G1 F100 X116.4081 Y38.5261 Z-0.5000 S1000
G1 F100 X116.8277 Y37.6389 Z-0.5000 S1000
G1 F100 X117.3322 Y36.7972 Z-0.5000 S1000
G1 F100 X117.9168 Y36.0090 Z-0.5000 S1000
G1 F100 X118.5759 Y35.2818 Z-0.5000 S1000
G1 F100 X119.3030 Y34.6228 Z-0.5000 S1000
G1 F100 X120.0912 Y34.0382 Z-0.5000 S1000
G1 F100 X120.9330 Y33.5337 Z-0.5000 S1000
G1 F100 X121.8201 Y33.1141 Z-0.5000 S1000
G1 F100 X122.7441 Y32.7835 Z-0.5000 S1000
G1 F100 X123.6961 Y32.5450 Z-0.5000 S1000
G1 F100 X124.6668 Y32.4011 Z-0.5000 S1000
G1 F100 X125.6470 Y32.3529 Z-0.5000 S1000
G1 F100 X125.6470 Y32.3529 Z-0.5000 S1000
G1 F100 X125.6470 Y32.3529 Z-0.5000 S1000
G1 F100 X126.6271 Y32.4011 Z-0.5000 S1000
G1 F100 X127.5979 Y32.5450 Z-0.5000 S1000
G1 F100 X128.5498 Y32.7835 Z-0.5000 S1000
G1 F100 X129.4738 Y33.1141 Z-0.5000 S1000
G1 F100 X130.3610 Y33.5337 Z-0.5000 S1000
G1 F100 X131.2027 Y34.0382 Z-0.5000 S1000
G1 F100 X131.9909 Y34.6228 Z-0.5000 S1000
G1 F100 X132.7181 Y35.2818 Z-0.5000 S1000
G1 F100 X133.3771 Y36.0090 Z-0.5000 S1000
G1 F100 X133.9617 Y36.7972 Z-0.5000 S1000
G1 F100 X134.4662 Y37.6389 Z-0.5000 S1000
G1 F100 X134.8858 Y38.5261 Z-0.5000 S1000
G1 F100 X135.2164 Y39.4501 Z-0.5000 S1000
G1 F100 X135.4549 Y40.4020 Z-0.5000 S1000
G1 F100 X135.5989 Y41.3728 Z-0.5000 S1000
G1 F100 X135.6470 Y42.3529 Z-0.5000 S1000
G1 F100 X135.6470 Y42.3529 Z-0.5000 S1000
G1 F100 X135.6470 Y42.3529 Z-0.5000 S1000
G1 F100 X135.5989 Y43.3331 Z-0.5000 S1000
G1 F100 X135.4549 Y44.3038 Z-0.5000 S1000
G1 F100 X135.2164 Y45.2558 Z-0.5000 S1000
G1 F100 X134.8858 Y46.1798 Z-0.5000 S1000
G1 F100 X134.4662 Y47.0669 Z-0.5000 S1000
G1 F100 X133.9617 Y47.9087 Z-0.5000 S1000
G1 F100 X133.3771 Y48.6969 Z-0.5000 S1000
G1 F100 X132.7181 Y49.4240 Z-0.5000 S1000
G1 F100 X131.9909 Y50.0831 Z-0.5000 S1000
G1 F100 X131.2027 Y50.6677 Z-0.5000 S1000
G1 F100 X130.3610 Y51.1722 Z-0.5000 S1000
G1 F100 X129.4738 Y51.5918 Z-0.5000 S1000
G1 F100 X128.5498 Y51.9224 Z-0.5000 S1000
G1 F100 X127.5979 Y52.1608 Z-0.5000 S1000
G1 F100 X126.6271 Y52.3048 Z-0.5000 S1000
G1 F100 X125.6470 Y52.3530 Z-0.5000 S1000
G1 F100 X125.6470 Y52.3530 Z-0.5000 S1000
G1 F100 X125.6470 Y52.3530 Z-0.5000 S1000
G1 F100 X124.6668 Y52.3048 Z-0.5000 S1000
G1 F100 X123.6961 Y52.1608 Z-0.5000 S1000
G1 F100 X122.7441 Y51.9224 Z-0.5000 S1000
G1 F100 X121.8201 Y51.5918 Z-0.5000 S1000
G1 F100 X120.9330 Y51.1722 Z-0.5000 S1000
G1 F100 X120.0912 Y50.6677 Z-0.5000 S1000
G1 F100 X119.3030 Y50.0831 Z-0.5000 S1000
G1 F100 X118.5759 Y49.4240 Z-0.5000 S1000
G1 F100 X117.9168 Y48.6969 Z-0.5000 S1000
G1 F100 X117.3322 Y47.9087 Z-0.5000 S1000
G1 F100 X116.8277 Y47.0669 Z-0.5000 S1000
G1 F100 X116.4081 Y46.1798 Z-0.5000 S1000
G1 F100 X116.0775 Y45.2558 Z-0.5000 S1000
G1 F100 X115.8391 Y44.3038 Z-0.5000 S1000
G1 F100 X115.6951 Y43.3331 Z-0.5000 S1000
G1 F100 X115.6469 Y42.3529 Z-0.5000 S1000
G1 F100 X115.6469 Y42.3529 Z-0.5000 S1000
G1 F100 X115.6469 Y42.3529 Z-0.5000 S1000

G0 Z10; move to z-safe height
G0 X0.0000 Y245.3537

G0 Z0
G1 F50 Z-0.5000
G1 F100 X0.0000 Y245.3537 Z-0.5000 S1000
G1 F100 X0.0482 Y244.3735 Z-0.5000 S1000
G1 F100 X0.1922 Y243.4028 Z-0.5000 S1000
G1 F100 X0.4306 Y242.4508 Z-0.5000 S1000
G1 F100 X0.7612 Y241.5268 Z-0.5000 S1000
G1 F100 X1.1808 Y240.6397 Z-0.5000 S1000
G1 F100 X1.6853 Y239.7979 Z-0.5000 S1000
G1 F100 X2.2699 Y239.0097 Z-0.5000 S1000
G1 F100 X2.9289 Y238.2826 Z-0.5000 S1000
G1 F100 X3.6561 Y237.6235 Z-0.5000 S1000
G1 F100 X4.4443 Y237.0389 Z-0.5000 S1000
G1 F100 X5.2861 Y236.5344 Z-0.5000 S1000
G1 F100 X6.1732 Y236.1148 Z-0.5000 S1000
G1 F100 X7.0972 Y235.7842 Z-0.5000 S1000
G1 F100 X8.0491 Y235.5458 Z-0.5000 S1000
G1 F100 X9.0199 Y235.4018 Z-0.5000 S1000
G1 F100 X10.0000 Y235.3536 Z-0.5000 S1000
G1 F100 X10.0000 Y235.3536 Z-0.5000 S1000
G1 F100 X10.0000 Y235.3536 Z-0.5000 S1000
G1 F100 X10.9802 Y235.4018 Z-0.5000 S1000
G1 F100 X11.9510 Y235.5458 Z-0.5000 S1000
G1 F100 X12.9029 Y235.7842 Z-0.5000 S1000
G1 F100 X13.8269 Y236.1148 Z-0.5000 S1000
G1 F100 X14.7140 Y236.5344 Z-0.5000 S1000
G1 F100 X15.5558 Y237.0389 Z-0.5000 S1000
G1 F100 X16.3440 Y237.6235 Z-0.5000 S1000
G1 F100 X17.0711 Y238.2826 Z-0.5000 S1000
G1 F100 X17.7302 Y239.0097 Z-0.5000 S1000
G1 F100 X18.3148 Y239.7979 Z-0.5000 S1000
G1 F100 X18.8193 Y240.6397 Z-0.5000 S1000
G1 F100 X19.2389 Y241.5268 Z-0.5000 S1000
G1 F100 X19.5695 Y242.4508 Z-0.5000 S1000
G1 F100 X19.8079 Y243.4028 Z-0.5000 S1000
G1 F100 X19.9519 Y244.3735 Z-0.5000 S1000
G1 F100 X20.0001 Y245.3537 Z-0.5000 S1000
G1 F100 X20.0001 Y245.3537 Z-0.5000 S1000
G1 F100 X20.0001 Y245.3537 Z-0.5000 S1000
G1 F100 X19.9519 Y246.3338 Z-0.5000 S1000
G1 F100 X19.8079 Y247.3046 Z-0.5000 S1000
G1 F100 X19.5695 Y248.2565 Z-0.5000 S1000
G1 F100 X19.2389 Y249.1805 Z-0.5000 S1000
G1 F100 X18.8193 Y250.0677 Z-0.5000 S1000
G1 F100 X18.3148 Y250.9094 Z-0.5000 S1000
G1 F100 X17.7302 Y251.6976 Z-0.5000 S1000
G1 F100 X17.0711 Y252.4248 Z-0.5000 S1000
G1 F100 X16.3440 Y253.0838 Z-0.5000 S1000
G1 F100 X15.5558 Y253.6684 Z-0.5000 S1000
G1 F100 X14.7140 Y254.1729 Z-0.5000 S1000
G1 F100 X13.8269 Y254.5925 Z-0.5000 S1000
G1 F100 X12.9029 Y254.9231 Z-0.5000 S1000
G1 F100 X11.9510 Y255.1616 Z-0.5000 S1000
G1 F100 X10.9802 Y255.3056 Z-0.5000 S1000
G1 F100 X10.0000 Y255.3537 Z-0.5000 S1000
G1 F100 X10.0000 Y255.3537 Z-0.5000 S1000
G1 F100 X10.0000 Y255.3537 Z-0.5000 S1000
G1 F100 X9.0199 Y255.3056 Z-0.5000 S1000
G1 F100 X8.0491 Y255.1616 Z-0.5000 S1000
G1 F100 X7.0972 Y254.9231 Z-0.5000 S1000
G1 F100 X6.1732 Y254.5925 Z-0.5000 S1000
G1 F100 X5.2861 Y254.1729 Z-0.5000 S1000
G1 F100 X4.4443 Y253.6684 Z-0.5000 S1000
G1 F100 X3.6561 Y253.0838 Z-0.5000 S1000
G1 F100 X2.9289 Y252.4248 Z-0.5000 S1000
G1 F100 X2.2699 Y251.6976 Z-0.5000 S1000
G1 F100 X1.6853 Y250.9094 Z-0.5000 S1000
G1 F100 X1.1808 Y250.0677 Z-0.5000 S1000
G1 F100 X0.7612 Y249.1805 Z-0.5000 S1000
G1 F100 X0.4306 Y248.2565 Z-0.5000 S1000
G1 F100 X0.1922 Y247.3046 Z-0.5000 S1000
G1 F100 X0.0482 Y246.3338 Z-0.5000 S1000
G1 F100 X0.0000 Y245.3537 Z-0.5000 S1000
G1 F100 X0.0000 Y245.3537 Z-0.5000 S1000
G1 F100 X0.0000 Y245.3537 Z-0.5000 S1000

G0 Z10; move to z-safe height
G0 X72.8235 Y102.2047

G0 Z0
G1 F50 Z-0.5000
G1 F100 X72.8235 Y102.2047 Z-0.5000 S1000
G1 F100 X72.5616 Y102.1713 Z-0.5000 S1000
G1 F100 X72.2995 Y102.1396 Z-0.5000 S1000
G1 F100 X72.0373 Y102.1095 Z-0.5000 S1000
G1 F100 X71.7748 Y102.0810 Z-0.5000 S1000
G1 F100 X71.5122 Y102.0542 Z-0.5000 S1000
G1 F100 X71.2495 Y102.0291 Z-0.5000 S1000
G1 F100 X70.9865 Y102.0056 Z-0.5000 S1000
G1 F100 X70.7235 Y101.9837 Z-0.5000 S1000
G1 F100 X70.4603 Y101.9635 Z-0.5000 S1000
G1 F100 X70.1969 Y101.9450 Z-0.5000 S1000
G1 F100 X69.9335 Y101.9281 Z-0.5000 S1000
G1 F100 X69.6700 Y101.9129 Z-0.5000 S1000
G1 F100 X69.4063 Y101.8994 Z-0.5000 S1000
G1 F100 X69.1426 Y101.8874 Z-0.5000 S1000
G1 F100 X68.8788 Y101.8772 Z-0.5000 S1000
G1 F100 X68.6150 Y101.8686 Z-0.5000 S1000
G1 F100 X68.3511 Y101.8617 Z-0.5000 S1000
G1 F100 X68.0872 Y101.8564 Z-0.5000 S1000
G1 F100 X67.8232 Y101.8528 Z-0.5000 S1000
G1 F100 X67.8232 Y101.8528 Z-0.5000 S1000
G1 F100 X67.8232 Y101.8528 Z-0.5000 S1000
G1 F100 X67.5594 Y101.8553 Z-0.5000 S1000
G1 F100 X67.2955 Y101.8596 Z-0.5000 S1000
G1 F100 X67.0316 Y101.8654 Z-0.5000 S1000
G1 F100 X66.7679 Y101.8730 Z-0.5000 S1000
G1 F100 X66.5041 Y101.8822 Z-0.5000 S1000
G1 F100 X66.2404 Y101.8930 Z-0.5000 S1000
G1 F100 X65.9768 Y101.9055 Z-0.5000 S1000
G1 F100 X65.7133 Y101.9197 Z-0.5000 S1000
G1 F100 X65.4499 Y101.9355 Z-0.5000 S1000
G1 F100 X65.1865 Y101.9530 Z-0.5000 S1000
G1 F100 X64.9233 Y101.9721 Z-0.5000 S1000
G1 F100 X64.6602 Y101.9929 Z-0.5000 S1000
G1 F100 X64.3973 Y102.0153 Z-0.5000 S1000
G1 F100 X64.1345 Y102.0394 Z-0.5000 S1000
G1 F100 X63.8719 Y102.0651 Z-0.5000 S1000
G1 F100 X63.6094 Y102.0925 Z-0.5000 S1000
G1 F100 X63.3471 Y102.1215 Z-0.5000 S1000
G1 F100 X63.0850 Y102.1522 Z-0.5000 S1000
G1 F100 X62.8230 Y102.1845 Z-0.5000 S1000
G1 F100 X62.8230 Y102.1845 Z-0.5000 S1000
G1 F100 X62.8230 Y1.5886 Z-0.5000 S1000
G1 F100 X62.8230 Y1.5886 Z-0.5000 S1000
G1 F100 X62.8267 Y1.3149 Z-0.5000 S1000
G1 F100 X62.8380 Y1.0415 Z-0.5000 S1000
G1 F100 X62.8583 Y0.7686 Z-0.5000 S1000
G1 F100 X62.8905 Y0.4968 Z-0.5000 S1000
G1 F100 X62.9424 Y0.2282 Z-0.5000 S1000
G1 F100 X63.0706 Y0.0001 Z-0.5000 S1000
G1 F100 X72.5759 Y0.0001 Z-0.5000 S1000
G1 F100 X72.5759 Y0.0001 Z-0.5000 S1000
G1 F100 X72.7041 Y0.2282 Z-0.5000 S1000
G1 F100 X72.7560 Y0.4968 Z-0.5000 S1000
G1 F100 X72.7882 Y0.7686 Z-0.5000 S1000
G1 F100 X72.8085 Y1.0415 Z-0.5000 S1000
G1 F100 X72.8198 Y1.3149 Z-0.5000 S1000
G1 F100 X72.8235 Y1.5886 Z-0.5000 S1000
G1 F100 X72.8235 Y102.2047 Z-0.5000 S1000
G1 F100 X72.8235 Y102.2047 Z-0.5000 S1000

G0 Z10; move to z-safe height
G0 X63.0706 Y323.0000

G0 Z0
G1 F50 Z-0.5000
G1 F100 X63.0706 Y323.0000 Z-0.5000 S1000
G1 F100 X62.9424 Y322.7719 Z-0.5000 S1000
G1 F100 X62.8905 Y322.5033 Z-0.5000 S1000
G1 F100 X62.8583 Y322.2315 Z-0.5000 S1000
G1 F100 X62.8380 Y321.9586 Z-0.5000 S1000
G1 F100 X62.8267 Y321.6851 Z-0.5000 S1000
G1 F100 X62.8230 Y321.4115 Z-0.5000 S1000
G1 F100 X62.8230 Y185.5014 Z-0.5000 S1000
G1 F100 X62.8230 Y185.5014 Z-0.5000 S1000
G1 F100 X63.0849 Y185.5348 Z-0.5000 S1000
G1 F100 X63.3470 Y185.5665 Z-0.5000 S1000
G1 F100 X63.6092 Y185.5966 Z-0.5000 S1000
G1 F100 X63.8717 Y185.6250 Z-0.5000 S1000
G1 F100 X64.1343 Y185.6518 Z-0.5000 S1000
G1 F100 X64.3970 Y185.6769 Z-0.5000 S1000
G1 F100 X64.6600 Y185.7003 Z-0.5000 S1000
G1 F100 X64.9230 Y185.7222 Z-0.5000 S1000
G1 F100 X65.1862 Y185.7423 Z-0.5000 S1000
G1 F100 X65.4496 Y185.7608 Z-0.5000 S1000
G1 F100 X65.7130 Y185.7777 Z-0.5000 S1000
G1 F100 X65.9765 Y185.7929 Z-0.5000 S1000
G1 F100 X66.2402 Y185.8064 Z-0.5000 S1000
G1 F100 X66.5039 Y185.8183 Z-0.5000 S1000
G1 F100 X66.7677 Y185.8285 Z-0.5000 S1000
G1 F100 X67.0315 Y185.8371 Z-0.5000 S1000
G1 F100 X67.2954 Y185.8440 Z-0.5000 S1000
G1 F100 X67.5593 Y185.8492 Z-0.5000 S1000
G1 F100 X67.8232 Y185.8528 Z-0.5000 S1000
G1 F100 X67.8232 Y185.8528 Z-0.5000 S1000
G1 F100 X67.8232 Y185.8528 Z-0.5000 S1000
G1 F100 X68.0871 Y185.8503 Z-0.5000 S1000
G1 F100 X68.3510 Y185.8460 Z-0.5000 S1000
G1 F100 X68.6148 Y185.8402 Z-0.5000 S1000
G1 F100 X68.8786 Y185.8326 Z-0.5000 S1000
G1 F100 X69.1424 Y185.8234 Z-0.5000 S1000
G1 F100 X69.4061 Y185.8126 Z-0.5000 S1000
G1 F100 X69.6697 Y185.8001 Z-0.5000 S1000
G1 F100 X69.9332 Y185.7859 Z-0.5000 S1000
G1 F100 X70.1966 Y185.7701 Z-0.5000 S1000
G1 F100 X70.4600 Y185.7526 Z-0.5000 S1000
G1 F100 X70.7232 Y185.7335 Z-0.5000 S1000
G1 F100 X70.9863 Y185.7127 Z-0.5000 S1000
G1 F100 X71.2492 Y185.6903 Z-0.5000 S1000
G1 F100 X71.5120 Y185.6662 Z-0.5000 S1000
G1 F100 X71.7746 Y185.6405 Z-0.5000 S1000
G1 F100 X72.0371 Y185.6131 Z-0.5000 S1000
G1 F100 X72.2994 Y185.5841 Z-0.5000 S1000
G1 F100 X72.5615 Y185.5534 Z-0.5000 S1000
G1 F100 X72.8235 Y185.5211 Z-0.5000 S1000
G1 F100 X72.8235 Y185.5211 Z-0.5000 S1000
G1 F100 X72.8235 Y321.4115 Z-0.5000 S1000
G1 F100 X72.8235 Y321.4115 Z-0.5000 S1000
G1 F100 X72.8198 Y321.6851 Z-0.5000 S1000
G1 F100 X72.8085 Y321.9586 Z-0.5000 S1000
G1 F100 X72.7882 Y322.2315 Z-0.5000 S1000
G1 F100 X72.7560 Y322.5033 Z-0.5000 S1000
G1 F100 X72.7041 Y322.7719 Z-0.5000 S1000
G1 F100 X72.5759 Y323.0000 Z-0.5000 S1000
G1 F100 X63.0706 Y323.0000 Z-0.5000 S1000
G1 F100 X63.0706 Y323.0000 Z-0.5000 S1000

G0 Z10; move to z-safe height
G0 X93.9901 Y111.0052

G0 Z0
G1 F50 Z-0.5000
G1 F100 X93.9901 Y111.0052 Z-0.5000 S1000
G1 F100 X93.7823 Y110.8417 Z-0.5000 S1000
G1 F100 X93.5734 Y110.6796 Z-0.5000 S1000
G1 F100 X93.3635 Y110.5187 Z-0.5000 S1000
G1 F100 X93.1526 Y110.3592 Z-0.5000 S1000
G1 F100 X92.9407 Y110.2010 Z-0.5000 S1000
G1 F100 X92.7278 Y110.0441 Z-0.5000 S1000
G1 F100 X92.5139 Y109.8886 Z-0.5000 S1000
G1 F100 X92.2991 Y109.7345 Z-0.5000 S1000
G1 F100 X92.0833 Y109.5817 Z-0.5000 S1000
G1 F100 X91.8665 Y109.4302 Z-0.5000 S1000
G1 F100 X91.6488 Y109.2802 Z-0.5000 S1000
G1 F100 X91.4301 Y109.1315 Z-0.5000 S1000
G1 F100 X91.2105 Y108.9841 Z-0.5000 S1000
G1 F100 X90.9900 Y108.8382 Z-0.5000 S1000
G1 F100 X90.7686 Y108.6937 Z-0.5000 S1000
G1 F100 X90.5462 Y108.5505 Z-0.5000 S1000
G1 F100 X90.3230 Y108.4088 Z-0.5000 S1000
G1 F100 X90.0989 Y108.2685 Z-0.5000 S1000
G1 F100 X89.8738 Y108.1295 Z-0.5000 S1000
G1 F100 X89.6480 Y107.9920 Z-0.5000 S1000
G1 F100 X89.4212 Y107.8560 Z-0.5000 S1000
G1 F100 X89.1937 Y107.7213 Z-0.5000 S1000
G1 F100 X88.9652 Y107.5881 Z-0.5000 S1000
G1 F100 X88.7360 Y107.4563 Z-0.5000 S1000
G1 F100 X88.5059 Y107.3260 Z-0.5000 S1000
G1 F100 X88.2750 Y107.1971 Z-0.5000 S1000
G1 F100 X88.0432 Y107.0697 Z-0.5000 S1000
G1 F100 X87.8107 Y106.9438 Z-0.5000 S1000
G1 F100 X87.5774 Y106.8193 Z-0.5000 S1000
G1 F100 X87.3434 Y106.6963 Z-0.5000 S1000
G1 F100 X87.1085 Y106.5747 Z-0.5000 S1000
G1 F100 X86.8729 Y106.4547 Z-0.5000 S1000
G1 F100 X86.6365 Y106.3361 Z-0.5000 S1000
G1 F100 X86.3994 Y106.2190 Z-0.5000 S1000
G1 F100 X86.1616 Y106.1034 Z-0.5000 S1000
G1 F100 X85.9231 Y105.9893 Z-0.5000 S1000
G1 F100 X85.6838 Y105.8767 Z-0.5000 S1000
G1 F100 X85.4438 Y105.7657 Z-0.5000 S1000
G1 F100 X85.2031 Y105.6561 Z-0.5000 S1000
G1 F100 X84.9618 Y105.5481 Z-0.5000 S1000
G1 F100 X84.7198 Y105.4415 Z-0.5000 S1000
G1 F100 X84.4771 Y105.3365 Z-0.5000 S1000
G1 F100 X84.2337 Y105.2331 Z-0.5000 S1000
G1 F100 X83.9897 Y105.1311 Z-0.5000 S1000
G1 F100 X83.9897 Y1.5886 Z-0.5000 S1000
G1 F100 X83.9897 Y1.5886 Z-0.5000 S1000
G1 F100 X83.9933 Y1.3149 Z-0.5000 S1000
G1 F100 X84.0047 Y1.0415 Z-0.5000 S1000
G1 F100 X84.0250 Y0.7686 Z-0.5000 S1000
G1 F100 X84.0571 Y0.4968 Z-0.5000 S1000
G1 F100 X84.1090 Y0.2282 Z-0.5000 S1000
G1 F100 X84.2372 Y0.0001 Z-0.5000 S1000
G1 F100 X99.0343 Y0.0001 Z-0.5000 S1000
G1 F100 X99.0343 Y0.0001 Z-0.5000 S1000
G1 F100 X99.1713 Y0.2248 Z-0.5000 S1000
G1 F100 X99.2302 Y0.4930 Z-0.5000 S1000
G1 F100 X99.2650 Y0.7654 Z-0.5000 S1000
G1 F100 X99.2837 Y1.0394 Z-0.5000 S1000
G1 F100 X99.2890 Y1.3140 Z-0.5000 S1000
G1 F100 X99.2818 Y1.5886 Z-0.5000 S1000
G1 F100 X93.9901 Y111.0052 Z-0.5000 S1000
G1 F100 X93.9901 Y111.0052 Z-0.5000 S1000

G0 Z10; move to z-safe height
G0 X41.6564 Y111.0527

G0 Z0
G1 F50 Z-0.5000
G1 F100 X36.3647 Y1.5886 Z-0.5000 S1000
G1 F100 X36.3647 Y1.5886 Z-0.5000 S1000
G1 F100 X36.3575 Y1.3140 Z-0.5000 S1000
G1 F100 X36.3628 Y1.0394 Z-0.5000 S1000
G1 F100 X36.3815 Y0.7654 Z-0.5000 S1000
G1 F100 X36.4163 Y0.4930 Z-0.5000 S1000
G1 F100 X36.4752 Y0.2249 Z-0.5000 S1000
G1 F100 X36.6122 Y0.0001 Z-0.5000 S1000
G1 F100 X51.4093 Y0.0001 Z-0.5000 S1000
G1 F100 X51.4093 Y0.0001 Z-0.5000 S1000
G1 F100 X51.5375 Y0.2282 Z-0.5000 S1000
G1 F100 X51.5894 Y0.4968 Z-0.5000 S1000
G1 F100 X51.6215 Y0.7686 Z-0.5000 S1000
G1 F100 X51.6418 Y1.0415 Z-0.5000 S1000
G1 F100 X51.6532 Y1.3149 Z-0.5000 S1000
G1 F100 X51.6568 Y1.5886 Z-0.5000 S1000
G1 F100 X51.6568 Y105.0991 Z-0.5000 S1000
G1 F100 X51.6568 Y105.0991 Z-0.5000 S1000
G1 F100 X51.4125 Y105.2027 Z-0.5000 S1000
G1 F100 X51.1689 Y105.3079 Z-0.5000 S1000
G1 F100 X50.9259 Y105.4146 Z-0.5000 S1000
G1 F100 X50.6836 Y105.5228 Z-0.5000 S1000
G1 F100 X50.4420 Y105.6325 Z-0.5000 S1000
G1 F100 X50.2011 Y105.7438 Z-0.5000 S1000
G1 F100 X49.9609 Y105.8566 Z-0.5000 S1000
G1 F100 X49.7214 Y105.9710 Z-0.5000 S1000
G1 F100 X49.4827 Y106.0868 Z-0.5000 S1000
G1 F100 X49.2447 Y106.2041 Z-0.5000 S1000
G1 F100 X49.0074 Y106.3229 Z-0.5000 S1000
G1 F100 X48.7709 Y106.4433 Z-0.5000 S1000
G1 F100 X48.5351 Y106.5651 Z-0.5000 S1000
G1 F100 X48.3001 Y106.6884 Z-0.5000 S1000
G1 F100 X48.0660 Y106.8132 Z-0.5000 S1000
G1 F100 X47.8326 Y106.9395 Z-0.5000 S1000
G1 F100 X47.6000 Y107.0672 Z-0.5000 S1000
G1 F100 X47.3682 Y107.1964 Z-0.5000 S1000
G1 F100 X47.1372 Y107.3271 Z-0.5000 S1000
G1 F100 X46.9071 Y107.4592 Z-0.5000 S1000
G1 F100 X46.6778 Y107.5928 Z-0.5000 S1000
G1 F100 X46.4494 Y107.7278 Z-0.5000 S1000
G1 F100 X46.2218 Y107.8643 Z-0.5000 S1000
G1 F100 X45.9951 Y108.0022 Z-0.5000 S1000
G1 F100 X45.7692 Y108.1415 Z-0.5000 S1000
G1 F100 X45.5443 Y108.2823 Z-0.5000 S1000
G1 F100 X45.3202 Y108.4245 Z-0.5000 S1000
G1 F100 X45.0970 Y108.5680 Z-0.5000 S1000
G1 F100 X44.8748 Y108.7130 Z-0.5000 S1000
G1 F100 X44.6534 Y108.8594 Z-0.5000 S1000
G1 F100 X44.4330 Y109.0072 Z-0.5000 S1000
G1 F100 X44.2136 Y109.1564 Z-0.5000 S1000
G1 F100 X43.9951 Y109.3070 Z-0.5000 S1000
G1 F100 X43.7775 Y109.4589 Z-0.5000 S1000
G1 F100 X43.5609 Y109.6122 Z-0.5000 S1000
G1 F100 X43.3453 Y109.7669 Z-0.5000 S1000
G1 F100 X43.1307 Y109.9229 Z-0.5000 S1000
G1 F100 X42.9170 Y110.0803 Z-0.5000 S1000
G1 F100 X42.7044 Y110.2391 Z-0.5000 S1000
G1 F100 X42.4927 Y110.3991 Z-0.5000 S1000
G1 F100 X42.2821 Y110.5606 Z-0.5000 S1000
G1 F100 X42.0725 Y110.7233 Z-0.5000 S1000
G1 F100 X41.8639 Y110.8874 Z-0.5000 S1000
G1 F100 X41.6564 Y111.0527 Z-0.5000 S1000
G1 F100 X41.6564 Y111.0527 Z-0.5000 S1000
G1 F100 X41.6564 Y111.0527 Z-0.5000 S1000

G0 Z10; move to z-safe height
G0 X36.6122 Y323.0000

G0 Z0
G1 F50 Z-0.5000
G1 F100 X36.6122 Y323.0000 Z-0.5000 S1000
G1 F100 X36.4773 Y322.7744 Z-0.5000 S1000
G1 F100 X36.4202 Y322.5062 Z-0.5000 S1000
G1 F100 X36.3860 Y322.2339 Z-0.5000 S1000
G1 F100 X36.3669 Y321.9602 Z-0.5000 S1000
G1 F100 X36.3602 Y321.6859 Z-0.5000 S1000
G1 F100 X36.3647 Y321.4115 Z-0.5000 S1000
G1 F100 X41.6564 Y176.7004 Z-0.5000 S1000
G1 F100 X41.6564 Y176.7004 Z-0.5000 S1000
G1 F100 X41.8642 Y176.8639 Z-0.5000 S1000
G1 F100 X42.0731 Y177.0261 Z-0.5000 S1000
G1 F100 X42.2830 Y177.1869 Z-0.5000 S1000
G1 F100 X42.4939 Y177.3465 Z-0.5000 S1000
G1 F100 X42.7058 Y177.5047 Z-0.5000 S1000
G1 F100 X42.9187 Y177.6615 Z-0.5000 S1000
G1 F100 X43.1325 Y177.8170 Z-0.5000 S1000
G1 F100 X43.3474 Y177.9712 Z-0.5000 S1000
G1 F100 X43.5632 Y178.1240 Z-0.5000 S1000
G1 F100 X43.7800 Y178.2755 Z-0.5000 S1000
G1 F100 X43.9977 Y178.4256 Z-0.5000 S1000
G1 F100 X44.2164 Y178.5743 Z-0.5000 S1000
G1 F100 X44.4360 Y178.7216 Z-0.5000 S1000
G1 F100 X44.6565 Y178.8675 Z-0.5000 S1000
G1 F100 X44.8779 Y179.0121 Z-0.5000 S1000
G1 F100 X45.1003 Y179.1553 Z-0.5000 S1000
G1 F100 X45.3235 Y179.2970 Z-0.5000 S1000
G1 F100 X45.5476 Y179.4374 Z-0.5000 S1000
G1 F100 X45.7726 Y179.5763 Z-0.5000 S1000
G1 F100 X45.9985 Y179.7138 Z-0.5000 S1000
G1 F100 X46.2252 Y179.8499 Z-0.5000 S1000
G1 F100 X46.4528 Y179.9846 Z-0.5000 S1000
G1 F100 X46.6813 Y180.1178 Z-0.5000 S1000
G1 F100 X46.9105 Y180.2496 Z-0.5000 S1000
G1 F100 X47.1406 Y180.3799 Z-0.5000 S1000
G1 F100 X47.3715 Y180.5088 Z-0.5000 S1000
G1 F100 X47.6032 Y180.6362 Z-0.5000 S1000
G1 F100 X47.8357 Y180.7622 Z-0.5000 S1000
G1 F100 X48.0690 Y180.8867 Z-0.5000 S1000
G1 F100 X48.3031 Y181.0097 Z-0.5000 S1000
G1 F100 X48.5380 Y181.1313 Z-0.5000 S1000
G1 F100 X48.7736 Y181.2513 Z-0.5000 S1000
G1 F100 X49.0099 Y181.3699 Z-0.5000 S1000
G1 F100 X49.2470 Y181.4870 Z-0.5000 S1000
G1 F100 X49.4849 Y181.6026 Z-0.5000 S1000
G1 F100 X49.7234 Y181.7167 Z-0.5000 S1000
G1 F100 X49.9627 Y181.8293 Z-0.5000 S1000
G1 F100 X50.2027 Y181.9404 Z-0.5000 S1000
G1 F100 X50.4434 Y182.0500 Z-0.5000 S1000
G1 F100 X50.6847 Y182.1580 Z-0.5000 S1000
G1 F100 X50.9267 Y182.2646 Z-0.5000 S1000
G1 F100 X51.1694 Y182.3696 Z-0.5000 S1000
G1 F100 X51.4128 Y182.4730 Z-0.5000 S1000
G1 F100 X51.6568 Y182.5750 Z-0.5000 S1000
G1 F100 X51.6568 Y321.4115 Z-0.5000 S1000
G1 F100 X51.6568 Y321.4115 Z-0.5000 S1000
G1 F100 X51.6532 Y321.6851 Z-0.5000 S1000
G1 F100 X51.6418 Y321.9586 Z-0.5000 S1000
G1 F100 X51.6215 Y322.2315 Z-0.5000 S1000
G1 F100 X51.5894 Y322.5033 Z-0.5000 S1000
G1 F100 X51.5375 Y322.7719 Z-0.5000 S1000
G1 F100 X51.4093 Y323.0000 Z-0.5000 S1000
G1 F100 X36.6122 Y323.0000 Z-0.5000 S1000
G1 F100 X36.6122 Y323.0000 Z-0.5000 S1000

G0 Z10; move to z-safe height
G0 X84.2372 Y323.0000

G0 Z0
G1 F50 Z-0.5000
G1 F100 X84.2372 Y323.0000 Z-0.5000 S1000
G1 F100 X84.1090 Y322.7719 Z-0.5000 S1000
G1 F100 X84.0571 Y322.5033 Z-0.5000 S1000
G1 F100 X84.0250 Y322.2315 Z-0.5000 S1000
G1 F100 X84.0047 Y321.9586 Z-0.5000 S1000
G1 F100 X83.9933 Y321.6851 Z-0.5000 S1000
G1 F100 X83.9897 Y321.4115 Z-0.5000 S1000
G1 F100 X83.9897 Y182.6065 Z-0.5000 S1000
G1 F100 X83.9897 Y182.6065 Z-0.5000 S1000
G1 F100 X84.2340 Y182.5029 Z-0.5000 S1000
G1 F100 X84.4776 Y182.3978 Z-0.5000 S1000
G1 F100 X84.7206 Y182.2911 Z-0.5000 S1000
G1 F100 X84.9629 Y182.1828 Z-0.5000 S1000
G1 F100 X85.2045 Y182.0731 Z-0.5000 S1000
G1 F100 X85.4454 Y181.9618 Z-0.5000 S1000
G1 F100 X85.6856 Y181.8490 Z-0.5000 S1000
G1 F100 X85.9251 Y181.7347 Z-0.5000 S1000
G1 F100 X86.1638 Y181.6189 Z-0.5000 S1000
G1 F100 X86.4018 Y181.5016 Z-0.5000 S1000
G1 F100 X86.6391 Y181.3828 Z-0.5000 S1000
G1 F100 X86.8756 Y181.2625 Z-0.5000 S1000
G1 F100 X87.1114 Y181.1406 Z-0.5000 S1000
G1 F100 X87.3463 Y181.0173 Z-0.5000 S1000
G1 F100 X87.5805 Y180.8926 Z-0.5000 S1000
G1 F100 X87.8139 Y180.7663 Z-0.5000 S1000
G1 F100 X88.0465 Y180.6386 Z-0.5000 S1000
G1 F100 X88.2783 Y180.5094 Z-0.5000 S1000
G1 F100 X88.5093 Y180.3787 Z-0.5000 S1000
G1 F100 X88.7394 Y180.2466 Z-0.5000 S1000
G1 F100 X88.9687 Y180.1130 Z-0.5000 S1000
G1 F100 X89.1971 Y179.9780 Z-0.5000 S1000
G1 F100 X89.4247 Y179.8416 Z-0.5000 S1000
G1 F100 X89.6514 Y179.7037 Z-0.5000 S1000
G1 F100 X89.8773 Y179.5643 Z-0.5000 S1000
G1 F100 X90.1022 Y179.4236 Z-0.5000 S1000
G1 F100 X90.3263 Y179.2814 Z-0.5000 S1000
G1 F100 X90.5494 Y179.1379 Z-0.5000 S1000
G1 F100 X90.7717 Y178.9929 Z-0.5000 S1000
G1 F100 X90.9930 Y178.8465 Z-0.5000 S1000
G1 F100 X91.2134 Y178.6987 Z-0.5000 S1000
G1 F100 X91.4329 Y178.5496 Z-0.5000 S1000
G1 F100 X91.6514 Y178.3990 Z-0.5000 S1000
G1 F100 X91.8690 Y178.2471 Z-0.5000 S1000
G1 F100 X92.0856 Y178.0938 Z-0.5000 S1000
G1 F100 X92.3012 Y177.9391 Z-0.5000 S1000
G1 F100 X92.5158 Y177.7831 Z-0.5000 S1000
G1 F100 X92.7295 Y177.6257 Z-0.5000 S1000
G1 F100 X92.9421 Y177.4670 Z-0.5000 S1000
G1 F100 X93.1538 Y177.3069 Z-0.5000 S1000
G1 F100 X93.3644 Y177.1455 Z-0.5000 S1000
G1 F100 X93.5740 Y176.9828 Z-0.5000 S1000
G1 F100 X93.7826 Y176.8187 Z-0.5000 S1000
G1 F100 X93.9901 Y176.6534 Z-0.5000 S1000
G1 F100 X99.2818 Y321.4115 Z-0.5000 S1000
G1 F100 X99.2818 Y321.4115 Z-0.5000 S1000
G1 F100 X99.2863 Y321.6859 Z-0.5000 S1000
G1 F100 X99.2796 Y321.9602 Z-0.5000 S1000
G1 F100 X99.2605 Y322.2339 Z-0.5000 S1000
G1 F100 X99.2263 Y322.5062 Z-0.5000 S1000
G1 F100 X99.1692 Y322.7744 Z-0.5000 S1000
G1 F100 X99.0343 Y323.0000 Z-0.5000 S1000
G1 F100 X84.2372 Y323.0000 Z-0.5000 S1000
G1 F100 X84.2372 Y323.0000 Z-0.5000 S1000

G0 Z10; move to z-safe height
G0 X166.0979 Y177.4321

G0 Z0
G1 F50 Z-0.5000
G1 F100 X166.0979 Y177.4321 Z-0.5000 S1000
G1 F100 X167.0974 Y177.4180 Z-0.5000 S1000
G1 F100 X168.0959 Y177.3755 Z-0.5000 S1000
G1 F100 X169.0926 Y177.3045 Z-0.5000 S1000
G1 F100 X170.0869 Y177.2050 Z-0.5000 S1000
G1 F100 X171.0780 Y177.0767 Z-0.5000 S1000
G1 F100 X172.0650 Y176.9199 Z-0.5000 S1000
G1 F100 X173.0470 Y176.7344 Z-0.5000 S1000
G1 F100 X174.0232 Y176.5204 Z-0.5000 S1000
G1 F100 X174.9926 Y176.2781 Z-0.5000 S1000
G1 F100 X175.9546 Y176.0074 Z-0.5000 S1000
G1 F100 X176.9083 Y175.7088 Z-0.5000 S1000
G1 F100 X177.8528 Y175.3823 Z-0.5000 S1000
G1 F100 X178.7874 Y175.0282 Z-0.5000 S1000
G1 F100 X179.7111 Y174.6470 Z-0.5000 S1000
G1 F100 X180.6233 Y174.2388 Z-0.5000 S1000
G1 F100 X181.5231 Y173.8041 Z-0.5000 S1000
G1 F100 X182.4098 Y173.3432 Z-0.5000 S1000
G1 F100 X183.2827 Y172.8566 Z-0.5000 S1000
G1 F100 X184.1410 Y172.3447 Z-0.5000 S1000
G1 F100 X184.9839 Y171.8080 Z-0.5000 S1000
G1 F100 X185.8109 Y171.2468 Z-0.5000 S1000
G1 F100 X186.6211 Y170.6618 Z-0.5000 S1000
G1 F100 X187.4139 Y170.0535 Z-0.5000 S1000
G1 F100 X188.1887 Y169.4223 Z-0.5000 S1000
G1 F100 X188.9448 Y168.7688 Z-0.5000 S1000
G1 F100 X189.6816 Y168.0937 Z-0.5000 S1000
G1 F100 X190.3984 Y167.3973 Z-0.5000 S1000
G1 F100 X191.0947 Y166.6805 Z-0.5000 S1000
G1 F100 X191.7698 Y165.9436 Z-0.5000 S1000
G1 F100 X192.4232 Y165.1875 Z-0.5000 S1000
G1 F100 X193.0543 Y164.4127 Z-0.5000 S1000
G1 F100 X193.6626 Y163.6198 Z-0.5000 S1000
G1 F100 X194.2475 Y162.8095 Z-0.5000 S1000
G1 F100 X194.8085 Y161.9825 Z-0.5000 S1000
G1 F100 X195.3452 Y161.1395 Z-0.5000 S1000
G1 F100 X195.8571 Y160.2812 Z-0.5000 S1000
G1 F100 X196.3436 Y159.4083 Z-0.5000 S1000
G1 F100 X196.8044 Y158.5215 Z-0.5000 S1000
G1 F100 X197.2391 Y157.6217 Z-0.5000 S1000
G1 F100 X197.6472 Y156.7095 Z-0.5000 S1000
G1 F100 X198.0284 Y155.7857 Z-0.5000 S1000
G1 F100 X198.3824 Y154.8511 Z-0.5000 S1000
G1 F100 X198.7088 Y153.9066 Z-0.5000 S1000
G1 F100 X199.0075 Y152.9528 Z-0.5000 S1000
G1 F100 X199.2780 Y151.9909 Z-0.5000 S1000
G1 F100 X199.5204 Y151.0214 Z-0.5000 S1000
G1 F100 X199.7343 Y150.0453 Z-0.5000 S1000
G1 F100 X199.9198 Y149.0633 Z-0.5000 S1000
G1 F100 X200.0766 Y148.0762 Z-0.5000 S1000
G1 F100 X200.2048 Y147.0851 Z-0.5000 S1000
G1 F100 X200.3043 Y146.0909 Z-0.5000 S1000
G1 F100 X200.3753 Y145.0941 Z-0.5000 S1000
G1 F100 X200.4178 Y144.0956 Z-0.5000 S1000
G1 F100 X200.4319 Y143.0962 Z-0.5000 S1000
G1 F100 X200.4319 Y143.0962 Z-0.5000 S1000
G1 F100 X200.4178 Y142.0968 Z-0.5000 S1000
G1 F100 X200.3753 Y141.0983 Z-0.5000 S1000
G1 F100 X200.3043 Y140.1015 Z-0.5000 S1000
G1 F100 X200.2048 Y139.1073 Z-0.5000 S1000
G1 F100 X200.0766 Y138.1162 Z-0.5000 S1000
G1 F100 X199.9198 Y137.1292 Z-0.5000 S1000
G1 F100 X199.7343 Y136.1472 Z-0.5000 S1000
G1 F100 X199.5204 Y135.1711 Z-0.5000 S1000
G1 F100 X199.2781 Y134.2017 Z-0.5000 S1000
G1 F100 X199.0075 Y133.2397 Z-0.5000 S1000
G1 F100 X198.7088 Y132.2860 Z-0.5000 S1000
G1 F100 X198.3824 Y131.3415 Z-0.5000 S1000
G1 F100 X198.0284 Y130.4070 Z-0.5000 S1000
G1 F100 X197.6472 Y129.4832 Z-0.5000 S1000
G1 F100 X197.2391 Y128.5710 Z-0.5000 S1000
G1 F100 X196.8044 Y127.6712 Z-0.5000 S1000
G1 F100 X196.3436 Y126.7845 Z-0.5000 S1000
G1 F100 X195.8571 Y125.9116 Z-0.5000 S1000
G1 F100 X195.3452 Y125.0533 Z-0.5000 S1000
G1 F100 X194.8085 Y124.2104 Z-0.5000 S1000
G1 F100 X194.2474 Y123.3834 Z-0.5000 S1000
G1 F100 X193.6625 Y122.5732 Z-0.5000 S1000
G1 F100 X193.0542 Y121.7803 Z-0.5000 S1000
G1 F100 X192.4231 Y121.0055 Z-0.5000 S1000
G1 F100 X191.7697 Y120.2494 Z-0.5000 S1000
G1 F100 X191.0945 Y119.5127 Z-0.5000 S1000
G1 F100 X190.3983 Y118.7958 Z-0.5000 S1000
G1 F100 X189.6814 Y118.0996 Z-0.5000 S1000
G1 F100 X188.9447 Y117.4244 Z-0.5000 S1000
G1 F100 X188.1886 Y116.7710 Z-0.5000 S1000
G1 F100 X187.4138 Y116.1399 Z-0.5000 S1000
G1 F100 X186.6209 Y115.5316 Z-0.5000 S1000
G1 F100 X185.8107 Y114.9467 Z-0.5000 S1000
G1 F100 X184.9837 Y114.3856 Z-0.5000 S1000
G1 F100 X184.1407 Y113.8489 Z-0.5000 S1000
G1 F100 X183.2825 Y113.3370 Z-0.5000 S1000
G1 F100 X182.4096 Y112.8505 Z-0.5000 S1000
G1 F100 X181.5229 Y112.3897 Z-0.5000 S1000
G1 F100 X180.6231 Y111.9550 Z-0.5000 S1000
G1 F100 X179.7109 Y111.5469 Z-0.5000 S1000
G1 F100 X178.7871 Y111.1657 Z-0.5000 S1000
G1 F100 X177.8526 Y110.8117 Z-0.5000 S1000
G1 F100 X176.9081 Y110.4853 Z-0.5000 S1000
G1 F100 X175.9544 Y110.1866 Z-0.5000 S1000
G1 F100 X174.9924 Y109.9160 Z-0.5000 S1000
G1 F100 X174.0230 Y109.6737 Z-0.5000 S1000
G1 F100 X173.0469 Y109.4597 Z-0.5000 S1000
G1 F100 X172.0649 Y109.2743 Z-0.5000 S1000
G1 F100 X171.0779 Y109.1175 Z-0.5000 S1000
G1 F100 X170.0868 Y108.9893 Z-0.5000 S1000
G1 F100 X169.0926 Y108.8898 Z-0.5000 S1000
G1 F100 X168.0958 Y108.8188 Z-0.5000 S1000
G1 F100 X167.0973 Y108.7763 Z-0.5000 S1000
G1 F100 X166.0979 Y108.7622 Z-0.5000 S1000
G1 F100 X166.0979 Y108.7622 Z-0.5000 S1000
G1 F100 X165.0985 Y108.7763 Z-0.5000 S1000
G1 F100 X164.1000 Y108.8188 Z-0.5000 S1000
G1 F100 X163.1032 Y108.8898 Z-0.5000 S1000
G1 F100 X162.1089 Y108.9893 Z-0.5000 S1000
G1 F100 X161.1179 Y109.1175 Z-0.5000 S1000
G1 F100 X160.1308 Y109.2743 Z-0.5000 S1000
G1 F100 X159.1488 Y109.4598 Z-0.5000 S1000
G1 F100 X158.1726 Y109.6737 Z-0.5000 S1000
G1 F100 X157.2032 Y109.9161 Z-0.5000 S1000
G1 F100 X156.2412 Y110.1866 Z-0.5000 S1000
G1 F100 X155.2875 Y110.4853 Z-0.5000 S1000
G1 F100 X154.3430 Y110.8117 Z-0.5000 S1000
G1 F100 X153.4084 Y111.1657 Z-0.5000 S1000
G1 F100 X152.4846 Y111.5469 Z-0.5000 S1000
G1 F100 X151.5724 Y111.9550 Z-0.5000 S1000
G1 F100 X150.6726 Y112.3897 Z-0.5000 S1000
G1 F100 X149.7858 Y112.8505 Z-0.5000 S1000
G1 F100 X148.9129 Y113.3370 Z-0.5000 S1000
G1 F100 X148.0546 Y113.8488 Z-0.5000 S1000
G1 F100 X147.2116 Y114.3855 Z-0.5000 S1000
G1 F100 X146.3846 Y114.9466 Z-0.5000 S1000
G1 F100 X145.5743 Y115.5315 Z-0.5000 S1000
G1 F100 X144.7814 Y116.1398 Z-0.5000 S1000
G1 F100 X144.0066 Y116.7709 Z-0.5000 S1000
G1 F100 X143.2504 Y117.4243 Z-0.5000 S1000
G1 F100 X142.5136 Y118.0994 Z-0.5000 S1000
G1 F100 X141.7967 Y118.7957 Z-0.5000 S1000
G1 F100 X141.1004 Y119.5125 Z-0.5000 S1000
G1 F100 X140.4252 Y120.2493 Z-0.5000 S1000
G1 F100 X139.7718 Y121.0054 Z-0.5000 S1000
G1 F100 X139.1406 Y121.7801 Z-0.5000 S1000
G1 F100 X138.5322 Y122.5730 Z-0.5000 S1000
G1 F100 X137.9472 Y123.3832 Z-0.5000 S1000
G1 F100 X137.3861 Y124.2101 Z-0.5000 S1000
G1 F100 X136.8494 Y125.0531 Z-0.5000 S1000
G1 F100 X136.3374 Y125.9114 Z-0.5000 S1000
G1 F100 X135.8508 Y126.7843 Z-0.5000 S1000
G1 F100 X135.3900 Y127.6710 Z-0.5000 S1000
G1 F100 X134.9553 Y128.5708 Z-0.5000 S1000
G1 F100 X134.5471 Y129.4830 Z-0.5000 S1000
G1 F100 X134.1659 Y130.4067 Z-0.5000 S1000
G1 F100 X133.8118 Y131.3413 Z-0.5000 S1000
G1 F100 X133.4853 Y132.2858 Z-0.5000 S1000
G1 F100 X133.1866 Y133.2395 Z-0.5000 S1000
G1 F100 X132.9160 Y134.2015 Z-0.5000 S1000
G1 F100 X132.6736 Y135.1709 Z-0.5000 S1000
G1 F100 X132.4597 Y136.1471 Z-0.5000 S1000
G1 F100 X132.2742 Y137.1291 Z-0.5000 S1000
G1 F100 X132.1173 Y138.1161 Z-0.5000 S1000
G1 F100 X131.9891 Y139.1072 Z-0.5000 S1000
G1 F100 X131.8896 Y140.1015 Z-0.5000 S1000
G1 F100 X131.8186 Y141.0982 Z-0.5000 S1000
G1 F100 X131.7761 Y142.0967 Z-0.5000 S1000
G1 F100 X131.7620 Y143.0962 Z-0.5000 S1000
G1 F100 X131.7620 Y143.0962 Z-0.5000 S1000
G1 F100 X131.7761 Y144.0956 Z-0.5000 S1000
G1 F100 X131.8186 Y145.0942 Z-0.5000 S1000
G1 F100 X131.8896 Y146.0910 Z-0.5000 S1000
G1 F100 X131.9891 Y147.0852 Z-0.5000 S1000
G1 F100 X132.1173 Y148.0764 Z-0.5000 S1000
G1 F100 X132.2742 Y149.0634 Z-0.5000 S1000
G1 F100 X132.4597 Y150.0455 Z-0.5000 S1000
G1 F100 X132.6737 Y151.0216 Z-0.5000 S1000
G1 F100 X132.9160 Y151.9911 Z-0.5000 S1000
G1 F100 X133.1867 Y152.9531 Z-0.5000 S1000
G1 F100 X133.4853 Y153.9068 Z-0.5000 S1000
G1 F100 X133.8118 Y154.8514 Z-0.5000 S1000
G1 F100 X134.1659 Y155.7859 Z-0.5000 S1000
G1 F100 X134.5471 Y156.7097 Z-0.5000 S1000
G1 F100 X134.9553 Y157.6219 Z-0.5000 S1000
G1 F100 X135.3900 Y158.5218 Z-0.5000 S1000
G1 F100 X135.8508 Y159.4085 Z-0.5000 S1000
G1 F100 X136.3374 Y160.2814 Z-0.5000 S1000
G1 F100 X136.8493 Y161.1397 Z-0.5000 S1000
G1 F100 X137.3861 Y161.9827 Z-0.5000 S1000
G1 F100 X137.9472 Y162.8097 Z-0.5000 S1000
G1 F100 X138.5322 Y163.6200 Z-0.5000 S1000
G1 F100 X139.1405 Y164.4129 Z-0.5000 S1000
G1 F100 X139.7717 Y165.1877 Z-0.5000 S1000
G1 F100 X140.4251 Y165.9438 Z-0.5000 S1000
G1 F100 X141.1003 Y166.6806 Z-0.5000 S1000
G1 F100 X141.7966 Y167.3975 Z-0.5000 S1000
G1 F100 X142.5135 Y168.0938 Z-0.5000 S1000
G1 F100 X143.2503 Y168.7690 Z-0.5000 S1000
G1 F100 X144.0064 Y169.4224 Z-0.5000 S1000
G1 F100 X144.7812 Y170.0536 Z-0.5000 S1000
G1 F100 X145.5741 Y170.6619 Z-0.5000 S1000
G1 F100 X146.3844 Y171.2469 Z-0.5000 S1000
G1 F100 X147.2114 Y171.8080 Z-0.5000 S1000
G1 F100 X148.0544 Y172.3447 Z-0.5000 S1000
G1 F100 X148.9127 Y172.8567 Z-0.5000 S1000
G1 F100 X149.7856 Y173.3433 Z-0.5000 S1000
G1 F100 X150.6723 Y173.8041 Z-0.5000 S1000
G1 F100 X151.5722 Y174.2388 Z-0.5000 S1000
G1 F100 X152.4844 Y174.6469 Z-0.5000 S1000
G1 F100 X153.4082 Y175.0282 Z-0.5000 S1000
G1 F100 X154.3427 Y175.3822 Z-0.5000 S1000
G1 F100 X155.2873 Y175.7087 Z-0.5000 S1000
G1 F100 X156.2410 Y176.0074 Z-0.5000 S1000
G1 F100 X157.2030 Y176.2780 Z-0.5000 S1000
G1 F100 X158.1725 Y176.5204 Z-0.5000 S1000
G1 F100 X159.1486 Y176.7344 Z-0.5000 S1000
G1 F100 X160.1307 Y176.9199 Z-0.5000 S1000
G1 F100 X161.1177 Y177.0767 Z-0.5000 S1000
G1 F100 X162.1089 Y177.2049 Z-0.5000 S1000
G1 F100 X163.1031 Y177.3045 Z-0.5000 S1000
G1 F100 X164.0999 Y177.3755 Z-0.5000 S1000
G1 F100 X165.0985 Y177.4180 Z-0.5000 S1000
G1 F100 X166.0979 Y177.4321 Z-0.5000 S1000
G1 F100 X166.0979 Y177.4321 Z-0.5000 S1000

G0 Z10; move to z-safe height
G0 X166.0979 Y187.4321

G0 Z0
G1 F50 Z-0.5000
G1 F100 X166.0979 Y187.4321 Z-0.5000 S1000
G1 F100 X165.1030 Y187.4211 Z-0.5000 S1000
G1 F100 X164.1090 Y187.3880 Z-0.5000 S1000
G1 F100 X163.1160 Y187.3327 Z-0.5000 S1000
G1 F100 X162.1242 Y187.2552 Z-0.5000 S1000
G1 F100 X161.1348 Y187.1554 Z-0.5000 S1000
G1 F100 X160.1476 Y187.0335 Z-0.5000 S1000
G1 F100 X159.1634 Y186.8893 Z-0.5000 S1000
G1 F100 X158.1829 Y186.7229 Z-0.5000 S1000
G1 F100 X157.2061 Y186.5343 Z-0.5000 S1000
G1 F100 X156.2342 Y186.3238 Z-0.5000 S1000
G1 F100 X155.2670 Y186.0912 Z-0.5000 S1000
G1 F100 X154.3055 Y185.8368 Z-0.5000 S1000
G1 F100 X153.3500 Y185.5608 Z-0.5000 S1000
G1 F100 X152.4008 Y185.2631 Z-0.5000 S1000
G1 F100 X151.4589 Y184.9440 Z-0.5000 S1000
G1 F100 X150.5242 Y184.6037 Z-0.5000 S1000
G1 F100 X149.5975 Y184.2423 Z-0.5000 S1000
G1 F100 X148.6792 Y183.8601 Z-0.5000 S1000
G1 F100 X147.7698 Y183.4573 Z-0.5000 S1000
G1 F100 X146.8697 Y183.0342 Z-0.5000 S1000
G1 F100 X145.9793 Y182.5908 Z-0.5000 S1000
G1 F100 X145.0991 Y182.1276 Z-0.5000 S1000
G1 F100 X144.2295 Y181.6448 Z-0.5000 S1000
G1 F100 X143.3710 Y181.1426 Z-0.5000 S1000
G1 F100 X142.5239 Y180.6212 Z-0.5000 S1000
G1 F100 X141.6887 Y180.0811 Z-0.5000 S1000
G1 F100 X140.8658 Y179.5225 Z-0.5000 S1000
G1 F100 X140.0555 Y178.9456 Z-0.5000 S1000
G1 F100 X139.2582 Y178.3509 Z-0.5000 S1000
G1 F100 X138.4744 Y177.7385 Z-0.5000 S1000
G1 F100 X137.7044 Y177.1089 Z-0.5000 S1000
G1 F100 X136.9486 Y176.4623 Z-0.5000 S1000
G1 F100 X136.2074 Y175.7991 Z-0.5000 S1000
G1 F100 X135.4810 Y175.1196 Z-0.5000 S1000
G1 F100 X134.7700 Y174.4241 Z-0.5000 S1000
G1 F100 X134.0745 Y173.7131 Z-0.5000 S1000
G1 F100 X133.3950 Y172.9867 Z-0.5000 S1000
G1 F100 X132.7318 Y172.2455 Z-0.5000 S1000
G1 F100 X132.0852 Y171.4896 Z-0.5000 S1000
G1 F100 X131.4555 Y170.7197 Z-0.5000 S1000
G1 F100 X130.8432 Y169.9359 Z-0.5000 S1000
G1 F100 X130.2484 Y169.1386 Z-0.5000 S1000
G1 F100 X129.6716 Y168.3283 Z-0.5000 S1000
G1 F100 X129.1130 Y167.5054 Z-0.5000 S1000
G1 F100 X128.5729 Y166.6702 Z-0.5000 S1000
G1 F100 X128.0515 Y165.8231 Z-0.5000 S1000
G1 F100 X127.5493 Y164.9646 Z-0.5000 S1000
G1 F100 X127.0665 Y164.0949 Z-0.5000 S1000
G1 F100 X126.6033 Y163.2148 Z-0.5000 S1000
G1 F100 X126.1599 Y162.3244 Z-0.5000 S1000
G1 F100 X125.7367 Y161.4243 Z-0.5000 S1000
G1 F100 X125.3339 Y160.5149 Z-0.5000 S1000
G1 F100 X124.9518 Y159.5965 Z-0.5000 S1000
G1 F100 X124.5904 Y158.6699 Z-0.5000 S1000
G1 F100 X124.2501 Y157.7352 Z-0.5000 S1000
G1 F100 X123.9310 Y156.7932 Z-0.5000 S1000
G1 F100 X123.6333 Y155.8441 Z-0.5000 S1000
G1 F100 X123.3572 Y154.8886 Z-0.5000 S1000
G1 F100 X123.1029 Y153.9271 Z-0.5000 S1000
G1 F100 X122.8703 Y152.9599 Z-0.5000 S1000
G1 F100 X122.6598 Y151.9879 Z-0.5000 S1000
G1 F100 X122.4712 Y151.0112 Z-0.5000 S1000
G1 F100 X122.3048 Y150.0307 Z-0.5000 S1000
G1 F100 X122.1606 Y149.0465 Z-0.5000 S1000
G1 F100 X122.0386 Y148.0593 Z-0.5000 S1000
G1 F100 X121.9389 Y147.0699 Z-0.5000 S1000
G1 F100 X121.8614 Y146.0781 Z-0.5000 S1000
G1 F100 X121.8061 Y145.0851 Z-0.5000 S1000
G1 F100 X121.7730 Y144.0911 Z-0.5000 S1000
G1 F100 X121.7620 Y143.0962 Z-0.5000 S1000
G1 F100 X121.7620 Y143.0962 Z-0.5000 S1000
G1 F100 X121.7730 Y142.1013 Z-0.5000 S1000
G1 F100 X121.8061 Y141.1073 Z-0.5000 S1000
G1 F100 X121.8614 Y140.1143 Z-0.5000 S1000
G1 F100 X121.9389 Y139.1226 Z-0.5000 S1000
G1 F100 X122.0386 Y138.1331 Z-0.5000 S1000
G1 F100 X122.1606 Y137.1459 Z-0.5000 S1000
G1 F100 X122.3048 Y136.1618 Z-0.5000 S1000
G1 F100 X122.4712 Y135.1813 Z-0.5000 S1000
G1 F100 X122.6597 Y134.2046 Z-0.5000 S1000
G1 F100 X122.8703 Y133.2326 Z-0.5000 S1000
G1 F100 X123.1028 Y132.2655 Z-0.5000 S1000
G1 F100 X123.3572 Y131.3039 Z-0.5000 S1000
G1 F100 X123.6333 Y130.3485 Z-0.5000 S1000
G1 F100 X123.9310 Y129.3994 Z-0.5000 S1000
G1 F100 X124.2500 Y128.4574 Z-0.5000 S1000
G1 F100 X124.5904 Y127.5227 Z-0.5000 S1000
G1 F100 X124.9517 Y126.5961 Z-0.5000 S1000
G1 F100 X125.3339 Y125.6778 Z-0.5000 S1000
G1 F100 X125.7367 Y124.7684 Z-0.5000 S1000
G1 F100 X126.1599 Y123.8683 Z-0.5000 S1000
G1 F100 X126.6032 Y122.9779 Z-0.5000 S1000
G1 F100 X127.0664 Y122.0978 Z-0.5000 S1000
G1 F100 X127.5493 Y121.2282 Z-0.5000 S1000
G1 F100 X128.0515 Y120.3698 Z-0.5000 S1000
G1 F100 X128.5729 Y119.5227 Z-0.5000 S1000
G1 F100 X129.1130 Y118.6875 Z-0.5000 S1000
G1 F100 X129.6716 Y117.8646 Z-0.5000 S1000
G1 F100 X130.2485 Y117.0543 Z-0.5000 S1000
G1 F100 X130.8433 Y116.2571 Z-0.5000 S1000
G1 F100 X131.4556 Y115.4733 Z-0.5000 S1000
G1 F100 X132.0853 Y114.7034 Z-0.5000 S1000
G1 F100 X132.7319 Y113.9476 Z-0.5000 S1000
G1 F100 X133.3951 Y113.2064 Z-0.5000 S1000
G1 F100 X134.0746 Y112.4801 Z-0.5000 S1000
G1 F100 X134.7701 Y111.7690 Z-0.5000 S1000
G1 F100 X135.4812 Y111.0736 Z-0.5000 S1000
G1 F100 X136.2075 Y110.3941 Z-0.5000 S1000
G1 F100 X136.9488 Y109.7310 Z-0.5000 S1000
G1 F100 X137.7046 Y109.0844 Z-0.5000 S1000
G1 F100 X138.4746 Y108.4548 Z-0.5000 S1000
G1 F100 X139.2584 Y107.8425 Z-0.5000 S1000
G1 F100 X140.0557 Y107.2478 Z-0.5000 S1000
G1 F100 X140.8660 Y106.6710 Z-0.5000 S1000
G1 F100 X141.6889 Y106.1124 Z-0.5000 S1000
G1 F100 X142.5241 Y105.5724 Z-0.5000 S1000
G1 F100 X143.3713 Y105.0511 Z-0.5000 S1000
G1 F100 X144.2298 Y104.5489 Z-0.5000 S1000
G1 F100 X145.0994 Y104.0661 Z-0.5000 S1000
G1 F100 X145.9795 Y103.6029 Z-0.5000 S1000
G1 F100 X146.8699 Y103.1596 Z-0.5000 S1000
G1 F100 X147.7700 Y102.7365 Z-0.5000 S1000
G1 F100 X148.6795 Y102.3337 Z-0.5000 S1000
G1 F100 X149.5978 Y101.9516 Z-0.5000 S1000
G1 F100 X150.5244 Y101.5903 Z-0.5000 S1000
G1 F100 X151.4591 Y101.2500 Z-0.5000 S1000
G1 F100 X152.4011 Y100.9310 Z-0.5000 S1000
G1 F100 X153.3502 Y100.6333 Z-0.5000 S1000
G1 F100 X154.3057 Y100.3572 Z-0.5000 S1000
G1 F100 X155.2672 Y100.1029 Z-0.5000 S1000
G1 F100 X156.2343 Y99.8704 Z-0.5000 S1000
G1 F100 X157.2063 Y99.6598 Z-0.5000 S1000
G1 F100 X158.1831 Y99.4713 Z-0.5000 S1000
G1 F100 X159.1635 Y99.3050 Z-0.5000 S1000
G1 F100 X160.1477 Y99.1608 Z-0.5000 S1000
G1 F100 X161.1348 Y99.0388 Z-0.5000 S1000
G1 F100 X162.1243 Y98.9391 Z-0.5000 S1000
G1 F100 X163.1161 Y98.8616 Z-0.5000 S1000
G1 F100 X164.1090 Y98.8063 Z-0.5000 S1000
G1 F100 X165.1031 Y98.7732 Z-0.5000 S1000
G1 F100 X166.0979 Y98.7622 Z-0.5000 S1000
G1 F100 X166.0979 Y98.7622 Z-0.5000 S1000
G1 F100 X167.0928 Y98.7732 Z-0.5000 S1000
G1 F100 X168.0868 Y98.8063 Z-0.5000 S1000
G1 F100 X169.0797 Y98.8616 Z-0.5000 S1000
G1 F100 X170.0715 Y98.9391 Z-0.5000 S1000
G1 F100 X171.0609 Y99.0388 Z-0.5000 S1000
G1 F100 X172.0481 Y99.1608 Z-0.5000 S1000
G1 F100 X173.0322 Y99.3049 Z-0.5000 S1000
G1 F100 X174.0126 Y99.4713 Z-0.5000 S1000
G1 F100 X174.9894 Y99.6598 Z-0.5000 S1000
G1 F100 X175.9613 Y99.8703 Z-0.5000 S1000
G1 F100 X176.9284 Y100.1029 Z-0.5000 S1000
G1 F100 X177.8900 Y100.3572 Z-0.5000 S1000
G1 F100 X178.8454 Y100.6333 Z-0.5000 S1000
G1 F100 X179.7945 Y100.9309 Z-0.5000 S1000
G1 F100 X180.7365 Y101.2500 Z-0.5000 S1000
G1 F100 X181.6711 Y101.5903 Z-0.5000 S1000
G1 F100 X182.5978 Y101.9516 Z-0.5000 S1000
G1 F100 X183.5160 Y102.3337 Z-0.5000 S1000
G1 F100 X184.4254 Y102.7365 Z-0.5000 S1000
G1 F100 X185.3255 Y103.1596 Z-0.5000 S1000
G1 F100 X186.2159 Y103.6029 Z-0.5000 S1000
G1 F100 X187.0960 Y104.0661 Z-0.5000 S1000
G1 F100 X187.9656 Y104.5489 Z-0.5000 S1000
G1 F100 X188.8241 Y105.0511 Z-0.5000 S1000
G1 F100 X189.6712 Y105.5724 Z-0.5000 S1000
G1 F100 X190.5064 Y106.1125 Z-0.5000 S1000
G1 F100 X191.3293 Y106.6711 Z-0.5000 S1000
G1 F100 X192.1396 Y107.2479 Z-0.5000 S1000
G1 F100 X192.9368 Y107.8426 Z-0.5000 S1000
G1 F100 X193.7206 Y108.4549 Z-0.5000 S1000
G1 F100 X194.4905 Y109.0845 Z-0.5000 S1000
G1 F100 X195.2463 Y109.7311 Z-0.5000 S1000
G1 F100 X195.9875 Y110.3942 Z-0.5000 S1000
G1 F100 X196.7139 Y111.0737 Z-0.5000 S1000
G1 F100 X197.4249 Y111.7692 Z-0.5000 S1000
G1 F100 X198.1204 Y112.4802 Z-0.5000 S1000
G1 F100 X198.7998 Y113.2066 Z-0.5000 S1000
G1 F100 X199.4630 Y113.9478 Z-0.5000 S1000
G1 F100 X200.1096 Y114.7036 Z-0.5000 S1000
G1 F100 X200.7392 Y115.4735 Z-0.5000 S1000
G1 F100 X201.3515 Y116.2573 Z-0.5000 S1000
G1 F100 X201.9462 Y117.0545 Z-0.5000 S1000
G1 F100 X202.5230 Y117.8648 Z-0.5000 S1000
G1 F100 X203.0816 Y118.6877 Z-0.5000 S1000
G1 F100 X203.6217 Y119.5229 Z-0.5000 S1000
G1 F100 X204.1430 Y120.3700 Z-0.5000 S1000
G1 F100 X204.6452 Y121.2285 Z-0.5000 S1000
G1 F100 X205.1280 Y122.0981 Z-0.5000 S1000
G1 F100 X205.5912 Y122.9782 Z-0.5000 S1000
G1 F100 X206.0345 Y123.8686 Z-0.5000 S1000
G1 F100 X206.4576 Y124.7686 Z-0.5000 S1000
G1 F100 X206.8604 Y125.6781 Z-0.5000 S1000
G1 F100 X207.2425 Y126.5963 Z-0.5000 S1000
G1 F100 X207.6038 Y127.5229 Z-0.5000 S1000
G1 F100 X207.9441 Y128.4576 Z-0.5000 S1000
G1 F100 X208.2631 Y129.3996 Z-0.5000 S1000
G1 F100 X208.5608 Y130.3487 Z-0.5000 S1000
G1 F100 X208.8369 Y131.3041 Z-0.5000 S1000
G1 F100 X209.0912 Y132.2657 Z-0.5000 S1000
G1 F100 X209.3237 Y133.2328 Z-0.5000 S1000
G1 F100 X209.5343 Y134.2047 Z-0.5000 S1000
G1 F100 X209.7228 Y135.1815 Z-0.5000 S1000
G1 F100 X209.8891 Y136.1619 Z-0.5000 S1000
G1 F100 X210.0333 Y137.1460 Z-0.5000 S1000
G1 F100 X210.1553 Y138.1332 Z-0.5000 S1000
G1 F100 X210.2550 Y139.1226 Z-0.5000 S1000
G1 F100 X210.3325 Y140.1144 Z-0.5000 S1000
G1 F100 X210.3878 Y141.1073 Z-0.5000 S1000
G1 F100 X210.4209 Y142.1013 Z-0.5000 S1000
G1 F100 X210.4319 Y143.0962 Z-0.5000 S1000
G1 F100 X210.4319 Y143.0962 Z-0.5000 S1000
G1 F100 X210.4209 Y144.0910 Z-0.5000 S1000
G1 F100 X210.3878 Y145.0851 Z-0.5000 S1000
G1 F100 X210.3325 Y146.0780 Z-0.5000 S1000
G1 F100 X210.2550 Y147.0698 Z-0.5000 S1000
G1 F100 X210.1553 Y148.0593 Z-0.5000 S1000
G1 F100 X210.0333 Y149.0464 Z-0.5000 S1000
G1 F100 X209.8891 Y150.0306 Z-0.5000 S1000
G1 F100 X209.7228 Y151.0110 Z-0.5000 S1000
G1 F100 X209.5342 Y151.9878 Z-0.5000 S1000
G1 F100 X209.3237 Y152.9598 Z-0.5000 S1000
G1 F100 X209.0912 Y153.9269 Z-0.5000 S1000
G1 F100 X208.8368 Y154.8884 Z-0.5000 S1000
G1 F100 X208.5608 Y155.8439 Z-0.5000 S1000
G1 F100 X208.2631 Y156.7930 Z-0.5000 S1000
G1 F100 X207.9441 Y157.7350 Z-0.5000 S1000
G1 F100 X207.6038 Y158.6697 Z-0.5000 S1000
G1 F100 X207.2425 Y159.5963 Z-0.5000 S1000
G1 F100 X206.8604 Y160.5146 Z-0.5000 S1000
G1 F100 X206.4576 Y161.4241 Z-0.5000 S1000
G1 F100 X206.0345 Y162.3242 Z-0.5000 S1000
G1 F100 X205.5912 Y163.2146 Z-0.5000 S1000
G1 F100 X205.1280 Y164.0947 Z-0.5000 S1000
G1 F100 X204.6452 Y164.9643 Z-0.5000 S1000
G1 F100 X204.1430 Y165.8228 Z-0.5000 S1000
G1 F100 X203.6217 Y166.6700 Z-0.5000 S1000
G1 F100 X203.0817 Y167.5052 Z-0.5000 S1000
G1 F100 X202.5231 Y168.3281 Z-0.5000 S1000
G1 F100 X201.9463 Y169.1384 Z-0.5000 S1000
G1 F100 X201.3516 Y169.9357 Z-0.5000 S1000
G1 F100 X200.7393 Y170.7195 Z-0.5000 S1000
G1 F100 X200.1097 Y171.4895 Z-0.5000 S1000
G1 F100 X199.4631 Y172.2453 Z-0.5000 S1000
G1 F100 X198.8000 Y172.9865 Z-0.5000 S1000
G1 F100 X198.1205 Y173.7129 Z-0.5000 S1000
G1 F100 X197.4250 Y174.4240 Z-0.5000 S1000
G1 F100 X196.7140 Y175.1195 Z-0.5000 S1000
G1 F100 X195.9877 Y175.7990 Z-0.5000 S1000
G1 F100 X195.2465 Y176.4622 Z-0.5000 S1000
G1 F100 X194.4907 Y177.1088 Z-0.5000 S1000
G1 F100 X193.7207 Y177.7385 Z-0.5000 S1000
G1 F100 X192.9370 Y178.3508 Z-0.5000 S1000
G1 F100 X192.1398 Y178.9456 Z-0.5000 S1000
G1 F100 X191.3295 Y179.5224 Z-0.5000 S1000
G1 F100 X190.5066 Y180.0811 Z-0.5000 S1000
G1 F100 X189.6714 Y180.6212 Z-0.5000 S1000
G1 F100 X188.8243 Y181.1425 Z-0.5000 S1000
G1 F100 X187.9659 Y181.6447 Z-0.5000 S1000
G1 F100 X187.0963 Y182.1276 Z-0.5000 S1000
G1 F100 X186.2161 Y182.5908 Z-0.5000 S1000
G1 F100 X185.3258 Y183.0342 Z-0.5000 S1000
G1 F100 X184.4257 Y183.4574 Z-0.5000 S1000
G1 F100 X183.5163 Y183.8602 Z-0.5000 S1000
G1 F100 X182.5980 Y184.2424 Z-0.5000 S1000
G1 F100 X181.6714 Y184.6037 Z-0.5000 S1000
G1 F100 X180.7367 Y184.9440 Z-0.5000 S1000
G1 F100 X179.7947 Y185.2631 Z-0.5000 S1000
G1 F100 X178.8456 Y185.5608 Z-0.5000 S1000
G1 F100 X177.8902 Y185.8369 Z-0.5000 S1000
G1 F100 X176.9286 Y186.0912 Z-0.5000 S1000
G1 F100 X175.9615 Y186.3238 Z-0.5000 S1000
G1 F100 X174.9895 Y186.5343 Z-0.5000 S1000
G1 F100 X174.0128 Y186.7229 Z-0.5000 S1000
G1 F100 X173.0323 Y186.8893 Z-0.5000 S1000
G1 F100 X172.0482 Y187.0335 Z-0.5000 S1000
G1 F100 X171.0610 Y187.1555 Z-0.5000 S1000
G1 F100 X170.0715 Y187.2552 Z-0.5000 S1000
G1 F100 X169.0798 Y187.3327 Z-0.5000 S1000
G1 F100 X168.0868 Y187.3880 Z-0.5000 S1000
G1 F100 X167.0928 Y187.4211 Z-0.5000 S1000
G1 F100 X166.0979 Y187.4321 Z-0.5000 S1000
G1 F100 X166.0979 Y187.4321 Z-0.5000 S1000
; retracting back to z-safe
G0 Z10

M5 S0; Spindle Off
