; GCODE Generated by cam.openbuilds.com on 2021-10-14 
G21 ; mm-mode
G54; Work Coordinates
G21; mm-mode
G90; Absolute Positioning
M3 S1000; Spindle On

; Operation 0: CNC: Vector (no offset)
; Endmill Diameter: 1

G0 Z10; move to z-safe height
G0 F1000 X134.1248 Y119.0266

G0 Z0
G1 F50 Z-0.5000
G1 F100 X68.2493 Y67.5270 Z-0.5000 S1000
G1 F100 X37.5225 Y113.5928 Z-0.5000 S1000
G1 F100 X28.0167 Y108.1602 Z-0.5000 S1000
G1 F100 X59.4272 Y62.5717 Z-0.5000 S1000
G1 F100 X28.3351 Y41.7415 Z-0.5000 S1000
G1 F100 X0.3831 Y77.0746 Z-0.5000 S1000
G1 F100 X0.0000 Y54.5675 Z-0.5000 S1000
G1 F100 X46.2278 Y-0.0000 Z-0.5000 S1000
G1 F100 X151.7419 Y31.8587 Z-0.5000 S1000
G1 F100 X134.6935 Y54.0613 Z-0.5000 S1000
G1 F100 X49.8339 Y16.3891 Z-0.5000 S1000
G1 F100 X35.3988 Y33.7277 Z-0.5000 S1000
G1 F100 X36.2675 Y34.2213 Z-0.5000 S1000
G1 F100 X37.1391 Y34.7169 Z-0.5000 S1000
G1 F100 X38.0128 Y35.2141 Z-0.5000 S1000
G1 F100 X38.8839 Y35.7100 Z-0.5000 S1000
G1 F100 X39.7554 Y36.2063 Z-0.5000 S1000
G1 F100 X40.6300 Y36.7046 Z-0.5000 S1000
G1 F100 X41.4991 Y37.1999 Z-0.5000 S1000
G1 F100 X42.3711 Y37.6971 Z-0.5000 S1000
G1 F100 X43.2454 Y38.1958 Z-0.5000 S1000
G1 F100 X44.1148 Y38.6919 Z-0.5000 S1000
G1 F100 X44.9854 Y39.1887 Z-0.5000 S1000
G1 F100 X45.8565 Y39.6861 Z-0.5000 S1000
G1 F100 X46.7278 Y40.1837 Z-0.5000 S1000
G1 F100 X47.5991 Y40.6815 Z-0.5000 S1000
G1 F100 X48.4703 Y41.1793 Z-0.5000 S1000
G1 F100 X49.3414 Y41.6773 Z-0.5000 S1000
G1 F100 X50.2123 Y42.1753 Z-0.5000 S1000
G1 F100 X51.0832 Y42.6735 Z-0.5000 S1000
G1 F100 X51.9542 Y43.1719 Z-0.5000 S1000
G1 F100 X52.8253 Y43.6704 Z-0.5000 S1000
G1 F100 X53.6965 Y44.1693 Z-0.5000 S1000
G1 F100 X54.5680 Y44.6684 Z-0.5000 S1000
G1 F100 X55.4389 Y45.1673 Z-0.5000 S1000
G1 F100 X56.3084 Y45.6655 Z-0.5000 S1000
G1 F100 X57.1782 Y46.1642 Z-0.5000 S1000
G1 F100 X58.0485 Y46.6632 Z-0.5000 S1000
G1 F100 X58.9194 Y47.1628 Z-0.5000 S1000
G1 F100 X59.7908 Y47.6627 Z-0.5000 S1000
G1 F100 X60.6603 Y48.1618 Z-0.5000 S1000
G1 F100 X61.5296 Y48.6609 Z-0.5000 S1000
G1 F100 X62.3997 Y49.1606 Z-0.5000 S1000
G1 F100 X63.2705 Y49.6608 Z-0.5000 S1000
G1 F100 X64.1408 Y50.1609 Z-0.5000 S1000
G1 F100 X65.0096 Y50.6604 Z-0.5000 S1000
G1 F100 X65.8794 Y51.1605 Z-0.5000 S1000
G1 F100 X66.7499 Y51.6612 Z-0.5000 S1000
G1 F100 X67.6195 Y52.1617 Z-0.5000 S1000
G1 F100 X68.4883 Y52.6617 Z-0.5000 S1000
G1 F100 X69.3580 Y53.1625 Z-0.5000 S1000
G1 F100 X70.2285 Y53.6639 Z-0.5000 S1000
G1 F100 X71.0970 Y54.1643 Z-0.5000 S1000
G1 F100 X71.9660 Y54.6651 Z-0.5000 S1000
G1 F100 X72.8358 Y55.1666 Z-0.5000 S1000
G1 F100 X73.7049 Y55.6679 Z-0.5000 S1000
G1 F100 X74.5734 Y56.1691 Z-0.5000 S1000
G1 F100 X75.4427 Y56.6708 Z-0.5000 S1000
G1 F100 X76.3120 Y57.1728 Z-0.5000 S1000
G1 F100 X77.1802 Y57.6742 Z-0.5000 S1000
G1 F100 X78.0491 Y58.1763 Z-0.5000 S1000
G1 F100 X78.9183 Y58.6788 Z-0.5000 S1000
G1 F100 X79.7862 Y59.1806 Z-0.5000 S1000
G1 F100 X80.6548 Y59.6831 Z-0.5000 S1000
G1 F100 X81.5238 Y60.1860 Z-0.5000 S1000
G1 F100 X82.3915 Y60.6883 Z-0.5000 S1000
G1 F100 X83.2597 Y61.1912 Z-0.5000 S1000
G1 F100 X84.1284 Y61.6945 Z-0.5000 S1000
G1 F100 X84.9959 Y62.1974 Z-0.5000 S1000
G1 F100 X85.8639 Y62.7008 Z-0.5000 S1000
G1 F100 X86.7321 Y63.2045 Z-0.5000 S1000
G1 F100 X87.5995 Y63.7079 Z-0.5000 S1000
G1 F100 X88.4672 Y64.2118 Z-0.5000 S1000
G1 F100 X89.3350 Y64.7159 Z-0.5000 S1000
G1 F100 X90.2023 Y65.2199 Z-0.5000 S1000
G1 F100 X91.0697 Y65.7243 Z-0.5000 S1000
G1 F100 X91.9370 Y66.2289 Z-0.5000 S1000
G1 F100 X92.8041 Y66.7336 Z-0.5000 S1000
G1 F100 X93.6711 Y67.2385 Z-0.5000 S1000
G1 F100 X94.5380 Y67.7435 Z-0.5000 S1000
G1 F100 X95.4049 Y68.2488 Z-0.5000 S1000
G1 F100 X96.2716 Y68.7543 Z-0.5000 S1000
G1 F100 X97.1381 Y69.2600 Z-0.5000 S1000
G1 F100 X98.0047 Y69.7659 Z-0.5000 S1000
G1 F100 X98.8710 Y70.2720 Z-0.5000 S1000
G1 F100 X99.7371 Y70.7783 Z-0.5000 S1000
G1 F100 X100.6034 Y71.2849 Z-0.5000 S1000
G1 F100 X101.4693 Y71.7916 Z-0.5000 S1000
G1 F100 X102.3349 Y72.2985 Z-0.5000 S1000
G1 F100 X103.2009 Y72.8059 Z-0.5000 S1000
G1 F100 X104.0663 Y73.3133 Z-0.5000 S1000
G1 F100 X104.9315 Y73.8209 Z-0.5000 S1000
G1 F100 X105.7971 Y74.3291 Z-0.5000 S1000
G1 F100 X106.6620 Y74.8372 Z-0.5000 S1000
G1 F100 X107.5268 Y75.3456 Z-0.5000 S1000
G1 F100 X108.3920 Y75.8546 Z-0.5000 S1000
G1 F100 X109.2564 Y76.3636 Z-0.5000 S1000
G1 F100 X110.1204 Y76.8727 Z-0.5000 S1000
G1 F100 X110.9853 Y77.3827 Z-0.5000 S1000
G1 F100 X111.8493 Y77.8926 Z-0.5000 S1000
G1 F100 X112.7124 Y78.4024 Z-0.5000 S1000
G1 F100 X113.5770 Y78.9135 Z-0.5000 S1000
G1 F100 X114.4405 Y79.4245 Z-0.5000 S1000
G1 F100 X115.3030 Y79.9353 Z-0.5000 S1000
G1 F100 X116.1667 Y80.4473 Z-0.5000 S1000
G1 F100 X117.0299 Y80.9595 Z-0.5000 S1000
G1 F100 X117.8920 Y81.4716 Z-0.5000 S1000
G1 F100 X118.7541 Y81.9842 Z-0.5000 S1000
G1 F100 X119.6171 Y82.4979 Z-0.5000 S1000
G1 F100 X120.4789 Y83.0115 Z-0.5000 S1000
G1 F100 X121.3396 Y83.5250 Z-0.5000 S1000
G1 F100 X122.2014 Y84.0399 Z-0.5000 S1000
G1 F100 X123.0632 Y84.5553 Z-0.5000 S1000
G1 F100 X123.9237 Y85.0707 Z-0.5000 S1000
G1 F100 X124.7831 Y85.5861 Z-0.5000 S1000
G1 F100 X125.6438 Y86.1031 Z-0.5000 S1000
G1 F100 X126.5043 Y86.6207 Z-0.5000 S1000
G1 F100 X127.3637 Y87.1385 Z-0.5000 S1000
G1 F100 X128.2220 Y87.6565 Z-0.5000 S1000
G1 F100 X129.0796 Y88.1750 Z-0.5000 S1000
G1 F100 X129.9390 Y88.6956 Z-0.5000 S1000
G1 F100 X130.7974 Y89.2165 Z-0.5000 S1000
G1 F100 X131.6547 Y89.7379 Z-0.5000 S1000
G1 F100 X132.5111 Y90.2598 Z-0.5000 S1000
G1 F100 X133.3665 Y90.7824 Z-0.5000 S1000
G1 F100 X134.2210 Y91.3057 Z-0.5000 S1000
G1 F100 X134.1769 Y102.2986 Z-0.5000 S1000
G1 F100 X134.1248 Y119.0266 Z-0.5000 S1000
G1 F100 X134.1248 Y119.0266 Z-0.5000 S1000
; retracting back to z-safe
G0 Z10

M5 S0; Spindle Off
