; GCODE Generated by cam.openbuilds.com on 2021-10-14 
G21 ; mm-mode
G54; Work Coordinates
G21; mm-mode
G90; Absolute Positioning
M3 S1000; Spindle On

; Operation 0: CNC: Vector (no offset)
; Endmill Diameter: 1

G0 Z10; move to z-safe height
G0 F1000 X17.6170 Y119.0266

G0 Z0
G1 F50 Z-0.5000
G1 F100 X83.4926 Y67.5270 Z-0.5000 S1000
G1 F100 X114.2194 Y113.5928 Z-0.5000 S1000
G1 F100 X123.7252 Y108.1602 Z-0.5000 S1000
G1 F100 X92.3147 Y62.5717 Z-0.5000 S1000
G1 F100 X123.4067 Y41.7415 Z-0.5000 S1000
G1 F100 X151.3587 Y77.0746 Z-0.5000 S1000
G1 F100 X151.7419 Y54.5675 Z-0.5000 S1000
G1 F100 X105.5141 Y-0.0000 Z-0.5000 S1000
G1 F100 X0.0000 Y31.8587 Z-0.5000 S1000
G1 F100 X17.0484 Y54.0613 Z-0.5000 S1000
G1 F100 X101.9080 Y16.3891 Z-0.5000 S1000
G1 F100 X116.3431 Y33.7277 Z-0.5000 S1000
G1 F100 X115.4744 Y34.2213 Z-0.5000 S1000
G1 F100 X114.6028 Y34.7169 Z-0.5000 S1000
G1 F100 X113.7291 Y35.2141 Z-0.5000 S1000
G1 F100 X112.8579 Y35.7100 Z-0.5000 S1000
G1 F100 X111.9865 Y36.2063 Z-0.5000 S1000
G1 F100 X111.1118 Y36.7046 Z-0.5000 S1000
G1 F100 X110.2428 Y37.1999 Z-0.5000 S1000
G1 F100 X109.3707 Y37.6971 Z-0.5000 S1000
G1 F100 X108.4965 Y38.1958 Z-0.5000 S1000
G1 F100 X107.6270 Y38.6919 Z-0.5000 S1000
G1 F100 X106.7565 Y39.1887 Z-0.5000 S1000
G1 F100 X105.8854 Y39.6861 Z-0.5000 S1000
G1 F100 X105.0141 Y40.1837 Z-0.5000 S1000
G1 F100 X104.1428 Y40.6815 Z-0.5000 S1000
G1 F100 X103.2716 Y41.1793 Z-0.5000 S1000
G1 F100 X102.4005 Y41.6773 Z-0.5000 S1000
G1 F100 X101.5295 Y42.1753 Z-0.5000 S1000
G1 F100 X100.6586 Y42.6735 Z-0.5000 S1000
G1 F100 X99.7877 Y43.1719 Z-0.5000 S1000
G1 F100 X98.9166 Y43.6704 Z-0.5000 S1000
G1 F100 X98.0453 Y44.1693 Z-0.5000 S1000
G1 F100 X97.1738 Y44.6684 Z-0.5000 S1000
G1 F100 X96.3029 Y45.1673 Z-0.5000 S1000
G1 F100 X95.4335 Y45.6655 Z-0.5000 S1000
G1 F100 X94.5636 Y46.1642 Z-0.5000 S1000
G1 F100 X93.6933 Y46.6632 Z-0.5000 S1000
G1 F100 X92.8224 Y47.1628 Z-0.5000 S1000
G1 F100 X91.9510 Y47.6627 Z-0.5000 S1000
G1 F100 X91.0816 Y48.1618 Z-0.5000 S1000
G1 F100 X90.2122 Y48.6609 Z-0.5000 S1000
G1 F100 X89.3421 Y49.1606 Z-0.5000 S1000
G1 F100 X88.4713 Y49.6608 Z-0.5000 S1000
G1 F100 X87.6011 Y50.1609 Z-0.5000 S1000
G1 F100 X86.7322 Y50.6604 Z-0.5000 S1000
G1 F100 X85.8625 Y51.1605 Z-0.5000 S1000
G1 F100 X84.9920 Y51.6612 Z-0.5000 S1000
G1 F100 X84.1223 Y52.1617 Z-0.5000 S1000
G1 F100 X83.2535 Y52.6617 Z-0.5000 S1000
G1 F100 X82.3838 Y53.1625 Z-0.5000 S1000
G1 F100 X81.5134 Y53.6639 Z-0.5000 S1000
G1 F100 X80.6449 Y54.1643 Z-0.5000 S1000
G1 F100 X79.7759 Y54.6651 Z-0.5000 S1000
G1 F100 X78.9061 Y55.1666 Z-0.5000 S1000
G1 F100 X78.0370 Y55.6679 Z-0.5000 S1000
G1 F100 X77.1685 Y56.1691 Z-0.5000 S1000
G1 F100 X76.2992 Y56.6708 Z-0.5000 S1000
G1 F100 X75.4298 Y57.1728 Z-0.5000 S1000
G1 F100 X74.5617 Y57.6742 Z-0.5000 S1000
G1 F100 X73.6928 Y58.1763 Z-0.5000 S1000
G1 F100 X72.8235 Y58.6788 Z-0.5000 S1000
G1 F100 X71.9556 Y59.1806 Z-0.5000 S1000
G1 F100 X71.0871 Y59.6831 Z-0.5000 S1000
G1 F100 X70.2181 Y60.1860 Z-0.5000 S1000
G1 F100 X69.3504 Y60.6883 Z-0.5000 S1000
G1 F100 X68.4821 Y61.1912 Z-0.5000 S1000
G1 F100 X67.6135 Y61.6945 Z-0.5000 S1000
G1 F100 X66.7459 Y62.1974 Z-0.5000 S1000
G1 F100 X65.8780 Y62.7008 Z-0.5000 S1000
G1 F100 X65.0097 Y63.2045 Z-0.5000 S1000
G1 F100 X64.1423 Y63.7079 Z-0.5000 S1000
G1 F100 X63.2746 Y64.2118 Z-0.5000 S1000
G1 F100 X62.4068 Y64.7159 Z-0.5000 S1000
G1 F100 X61.5396 Y65.2199 Z-0.5000 S1000
G1 F100 X60.6722 Y65.7243 Z-0.5000 S1000
G1 F100 X59.8049 Y66.2289 Z-0.5000 S1000
G1 F100 X58.9378 Y66.7336 Z-0.5000 S1000
G1 F100 X58.0707 Y67.2385 Z-0.5000 S1000
G1 F100 X57.2038 Y67.7435 Z-0.5000 S1000
G1 F100 X56.3370 Y68.2488 Z-0.5000 S1000
G1 F100 X55.4702 Y68.7543 Z-0.5000 S1000
G1 F100 X54.6037 Y69.2600 Z-0.5000 S1000
G1 F100 X53.7371 Y69.7659 Z-0.5000 S1000
G1 F100 X52.8709 Y70.2720 Z-0.5000 S1000
G1 F100 X52.0048 Y70.7783 Z-0.5000 S1000
G1 F100 X51.1385 Y71.2849 Z-0.5000 S1000
G1 F100 X50.2726 Y71.7916 Z-0.5000 S1000
G1 F100 X49.4069 Y72.2985 Z-0.5000 S1000
G1 F100 X48.5409 Y72.8059 Z-0.5000 S1000
G1 F100 X47.6756 Y73.3133 Z-0.5000 S1000
G1 F100 X46.8103 Y73.8209 Z-0.5000 S1000
G1 F100 X45.9447 Y74.3291 Z-0.5000 S1000
G1 F100 X45.0798 Y74.8372 Z-0.5000 S1000
G1 F100 X44.2151 Y75.3456 Z-0.5000 S1000
G1 F100 X43.3499 Y75.8546 Z-0.5000 S1000
G1 F100 X42.4854 Y76.3636 Z-0.5000 S1000
G1 F100 X41.6214 Y76.8727 Z-0.5000 S1000
G1 F100 X40.7565 Y77.3827 Z-0.5000 S1000
G1 F100 X39.8926 Y77.8926 Z-0.5000 S1000
G1 F100 X39.0294 Y78.4024 Z-0.5000 S1000
G1 F100 X38.1649 Y78.9135 Z-0.5000 S1000
G1 F100 X37.3013 Y79.4245 Z-0.5000 S1000
G1 F100 X36.4388 Y79.9353 Z-0.5000 S1000
G1 F100 X35.5752 Y80.4473 Z-0.5000 S1000
G1 F100 X34.7119 Y80.9595 Z-0.5000 S1000
G1 F100 X33.8498 Y81.4716 Z-0.5000 S1000
G1 F100 X32.9878 Y81.9842 Z-0.5000 S1000
G1 F100 X32.1248 Y82.4979 Z-0.5000 S1000
G1 F100 X31.2629 Y83.0115 Z-0.5000 S1000
G1 F100 X30.4023 Y83.5250 Z-0.5000 S1000
G1 F100 X29.5404 Y84.0399 Z-0.5000 S1000
G1 F100 X28.6787 Y84.5553 Z-0.5000 S1000
G1 F100 X27.8181 Y85.0707 Z-0.5000 S1000
G1 F100 X26.9588 Y85.5861 Z-0.5000 S1000
G1 F100 X26.0981 Y86.1031 Z-0.5000 S1000
G1 F100 X25.2376 Y86.6207 Z-0.5000 S1000
G1 F100 X24.3782 Y87.1385 Z-0.5000 S1000
G1 F100 X23.5199 Y87.6565 Z-0.5000 S1000
G1 F100 X22.6622 Y88.1750 Z-0.5000 S1000
G1 F100 X21.8028 Y88.6956 Z-0.5000 S1000
G1 F100 X20.9445 Y89.2165 Z-0.5000 S1000
G1 F100 X20.0872 Y89.7379 Z-0.5000 S1000
G1 F100 X19.2308 Y90.2598 Z-0.5000 S1000
G1 F100 X18.3754 Y90.7824 Z-0.5000 S1000
G1 F100 X17.5209 Y91.3057 Z-0.5000 S1000
G1 F100 X17.5650 Y102.2986 Z-0.5000 S1000
G1 F100 X17.6170 Y119.0266 Z-0.5000 S1000
G1 F100 X17.6170 Y119.0266 Z-0.5000 S1000
; retracting back to z-safe
G0 Z10

M5 S0; Spindle Off
