; GCODE Generated by cam.openbuilds.com on 2021-10-14 
G21 ; mm-mode
G54; Work Coordinates
G21; mm-mode
G90; Absolute Positioning
M3 S1000; Spindle On

; Operation 0: CNC: Vector (no offset)
; Endmill Diameter: 1

G0 Z10; move to z-safe height
G0 F1000 X60.5555 Y86.5264

G0 Z0
G1 F50 Z-0.5000
G1 F100 X58.9199 Y60.8551 Z-0.5000 S1000
G1 F100 X16.6006 Y45.0742 Z-0.5000 S1000
G1 F100 X0.2296 Y58.4982 Z-0.5000 S1000
G1 F100 X0.0000 Y42.5409 Z-0.5000 S1000
G1 F100 X44.2582 Y0.5424 Z-0.5000 S1000
G1 F100 X53.1776 Y8.2196 Z-0.5000 S1000
G1 F100 X24.6250 Y34.5451 Z-0.5000 S1000
G1 F100 X72.8731 Y52.1993 Z-0.5000 S1000
G1 F100 X121.3347 Y34.7072 Z-0.5000 S1000
G1 F100 X92.5685 Y8.2196 Z-0.5000 S1000
G1 F100 X101.3358 Y-0.0000 Z-0.5000 S1000
G1 F100 X146.3131 Y43.2067 Z-0.5000 S1000
G1 F100 X146.3852 Y61.9727 Z-0.5000 S1000
G1 F100 X129.1456 Y45.0742 Z-0.5000 S1000
G1 F100 X86.8262 Y60.8551 Z-0.5000 S1000
G1 F100 X85.1907 Y86.5264 Z-0.5000 S1000
G1 F100 X72.8731 Y81.9334 Z-0.5000 S1000
G1 F100 X60.5555 Y86.5264 Z-0.5000 S1000
G1 F100 X60.5555 Y86.5264 Z-0.5000 S1000
; retracting back to z-safe
G0 Z10

M5 S0; Spindle Off
