; GCODE Generated by cam.openbuilds.com on 2021-10-14 
G21 ; mm-mode
G54; Work Coordinates
G21; mm-mode
G90; Absolute Positioning
M3 S1000; Spindle On

; Operation 0: CNC: Vector (no offset)
; Endmill Diameter: 1

G0 Z10; move to z-safe height
G0 F1000 X73.6155 Y58.5143

G0 Z0
G1 F50 Z-0.5000
G1 F100 X94.4250 Y40.7822 Z-0.5000 S1000
G1 F100 X73.0643 Y29.2959 Z-0.5000 S1000
G1 F100 X51.1176 Y40.4037 Z-0.5000 S1000
G1 F100 X73.6155 Y58.5143 Z-0.5000 S1000
G1 F100 X73.6155 Y58.5143 Z-0.5000 S1000

G0 Z10; move to z-safe height
G0 X24.5742 Y112.2934

G0 Z0
G1 F50 Z-0.5000
G1 F100 X17.6717 Y103.7316 Z-0.5000 S1000
G1 F100 X41.6714 Y87.0560 Z-0.5000 S1000
G1 F100 X62.5396 Y65.4525 Z-0.5000 S1000
G1 F100 X38.7452 Y46.8142 Z-0.5000 S1000
G1 F100 X0.0000 Y73.7118 Z-0.5000 S1000
G1 F100 X0.0439 Y45.9910 Z-0.5000 S1000
G1 F100 X47.3139 Y0.0000 Z-0.5000 S1000
G1 F100 X73.0648 Y14.6799 Z-0.5000 S1000
G1 F100 X98.8146 Y0.0005 Z-0.5000 S1000
G1 F100 X146.0846 Y45.9910 Z-0.5000 S1000
G1 F100 X146.1285 Y73.7118 Z-0.5000 S1000
G1 F100 X105.8714 Y45.5277 Z-0.5000 S1000
G1 F100 X83.8819 Y65.2798 Z-0.5000 S1000
G1 F100 X105.2255 Y88.4237 Z-0.5000 S1000
G1 F100 X126.7884 Y104.4031 Z-0.5000 S1000
G1 F100 X121.5549 Y112.2929 Z-0.5000 S1000
G1 F100 X97.0871 Y94.9410 Z-0.5000 S1000
G1 F100 X73.0648 Y69.8867 Z-0.5000 S1000
G1 F100 X49.0404 Y94.9425 Z-0.5000 S1000
G1 F100 X24.5742 Y112.2934 Z-0.5000 S1000
G1 F100 X24.5742 Y112.2934 Z-0.5000 S1000
; retracting back to z-safe
G0 Z10

M5 S0; Spindle Off
