; GCODE Generated by cam.openbuilds.com on 2021-10-14 
G21 ; mm-mode
G54; Work Coordinates
G21; mm-mode
G90; Absolute Positioning
M3 S1000; Spindle On

; Operation 0: CNC: Vector (no offset)
; Endmill Diameter: 1

G0 Z10; move to z-safe height
G0 F1000 X5.9195 Y43.5720

G0 Z0
G1 F50 Z-0.5000
G1 F100 X0.0000 Y36.7187 Z-0.5000 S1000
G1 F100 X22.4911 Y17.0320 Z-0.5000 S1000
G1 F100 X10.1937 Y6.8135 Z-0.5000 S1000
G1 F100 X16.5308 Y0.2672 Z-0.5000 S1000
G1 F100 X29.2261 Y11.1368 Z-0.5000 S1000
G1 F100 X41.9494 Y0.0000 Z-0.5000 S1000
G1 F100 X48.0193 Y8.8181 Z-0.5000 S1000
G1 F100 X37.0727 Y17.8547 Z-0.5000 S1000
G1 F100 X58.4802 Y36.1838 Z-0.5000 S1000
G1 F100 X54.4313 Y43.5720 Z-0.5000 S1000
G1 F100 X30.2550 Y23.4828 Z-0.5000 S1000
G1 F100 X5.9195 Y43.5720 Z-0.5000 S1000
G1 F100 X5.9195 Y43.5720 Z-0.5000 S1000
; retracting back to z-safe
G0 Z10

M5 S0; Spindle Off
