; GCODE Generated by cam.openbuilds.com on 2021-10-14 
G21 ; mm-mode
G54; Work Coordinates
G21; mm-mode
G90; Absolute Positioning
M3 S1000; Spindle On

; Operation 0: CNC: Vector (no offset)
; Endmill Diameter: 1

G0 Z10; move to z-safe height
G0 F1000 X17.6170 Y119.0266

G0 Z0
G1 F50 Z-0.5000
G1 F100 X76.8108 Y72.6051 Z-0.5000 S1000
G1 F100 X102.9941 Y112.2564 Z-0.5000 S1000
G1 F100 X110.8963 Y107.8929 Z-0.5000 S1000
G1 F100 X84.2966 Y68.4516 Z-0.5000 S1000
G1 F100 X126.3467 Y40.1378 Z-0.5000 S1000
G1 F100 X146.5479 Y63.7111 Z-0.5000 S1000
G1 F100 X151.7419 Y54.5675 Z-0.5000 S1000
G1 F100 X105.5141 Y-0.0000 Z-0.5000 S1000
G1 F100 X36.7013 Y27.2324 Z-0.5000 S1000
G1 F100 X0.0000 Y31.8587 Z-0.5000 S1000
G1 F100 X17.0484 Y54.0613 Z-0.5000 S1000
G1 F100 X102.1752 Y13.7164 Z-0.5000 S1000
G1 F100 X118.4812 Y32.1241 Z-0.5000 S1000
G1 F100 X51.3898 Y78.6284 Z-0.5000 S1000
G1 F100 X17.5209 Y91.3057 Z-0.5000 S1000
G1 F100 X17.5650 Y102.2986 Z-0.5000 S1000
G1 F100 X17.6170 Y119.0266 Z-0.5000 S1000
G1 F100 X17.6170 Y119.0266 Z-0.5000 S1000
; retracting back to z-safe
G0 Z10

M5 S0; Spindle Off
