; GCODE Generated by cam.openbuilds.com on 2021-10-14 
G21 ; mm-mode
G54; Work Coordinates
G21; mm-mode
G90; Absolute Positioning
M3 S1000; Spindle On

; Operation 0: CNC: Vector (no offset)
; Endmill Diameter: 1

G0 Z10; move to z-safe height
G0 F1000 X72.8596 Y58.5143

G0 Z0
G1 F50 Z-0.5000
G1 F100 X96.1259 Y40.9712 Z-0.5000 S1000
G1 F100 X73.6312 Y26.4611 Z-0.5000 S1000
G1 F100 X47.9048 Y39.4588 Z-0.5000 S1000
G1 F100 X72.8596 Y58.5143 Z-0.5000 S1000
G1 F100 X72.8596 Y58.5143 Z-0.5000 S1000

G0 Z10; move to z-safe height
G0 X23.8183 Y110.4035

G0 Z0
G1 F50 Z-0.5000
G1 F100 X16.9157 Y101.8417 Z-0.5000 S1000
G1 F100 X41.6714 Y87.0560 Z-0.5000 S1000
G1 F100 X63.8625 Y65.2635 Z-0.5000 S1000
G1 F100 X37.9893 Y46.0583 Z-0.5000 S1000
G1 F100 X0.0000 Y73.7118 Z-0.5000 S1000
G1 F100 X0.0439 Y45.9910 Z-0.5000 S1000
G1 F100 X44.8571 Y0.9449 Z-0.5000 S1000
G1 F100 X72.6868 Y16.5698 Z-0.5000 S1000
G1 F100 X102.2164 Y1.5124 Z-0.5000 S1000
G1 F100 X146.0846 Y45.9910 Z-0.5000 S1000
G1 F100 X146.1285 Y73.7118 Z-0.5000 S1000
G1 F100 X104.5485 Y45.1497 Z-0.5000 S1000
G1 F100 X83.3150 Y65.6577 Z-0.5000 S1000
G1 F100 X105.2255 Y88.4237 Z-0.5000 S1000
G1 F100 X127.7334 Y99.3005 Z-0.5000 S1000
G1 F100 X122.4998 Y107.1902 Z-0.5000 S1000
G1 F100 X97.0871 Y94.9410 Z-0.5000 S1000
G1 F100 X73.2538 Y71.3986 Z-0.5000 S1000
G1 F100 X49.0404 Y94.9425 Z-0.5000 S1000
G1 F100 X23.8183 Y110.4035 Z-0.5000 S1000
G1 F100 X23.8183 Y110.4035 Z-0.5000 S1000
; retracting back to z-safe
G0 Z10

M5 S0; Spindle Off
