; GCODE Generated by cam.openbuilds.com on 2021-10-14 
G21 ; mm-mode
G54; Work Coordinates
G21; mm-mode
G90; Absolute Positioning
M3 S1000; Spindle On

; Operation 0: CNC: Vector (no offset)
; Endmill Diameter: 1

G0 Z10; move to z-safe height
G0 F1000 X88.9036 Y86.5265

G0 Z0
G1 F50 Z-0.5000
G1 F100 X84.6222 Y61.4221 Z-0.5000 S1000
G1 F100 X44.9487 Y45.0743 Z-0.5000 S1000
G1 F100 X28.5776 Y58.4982 Z-0.5000 S1000
G1 F100 X-0.0000 Y58.4982 Z-0.5000 S1000
G1 F100 X-0.0000 Y42.4816 Z-0.5000 S1000
G1 F100 X28.4107 Y42.4816 Z-0.5000 S1000
G1 F100 X73.0073 Y-0.2592 Z-0.5000 S1000
G1 F100 X83.4156 Y9.5426 Z-0.5000 S1000
G1 F100 X57.8869 Y33.0331 Z-0.5000 S1000
G1 F100 X100.2761 Y49.9313 Z-0.5000 S1000
G1 F100 X146.8479 Y34.8961 Z-0.5000 S1000
G1 F100 X119.4046 Y10.1095 Z-0.5000 S1000
G1 F100 X129.6841 Y0.0000 Z-0.5000 S1000
G1 F100 X174.7335 Y45.9559 Z-0.5000 S1000
G1 F100 X199.0344 Y45.9559 Z-0.5000 S1000
G1 F100 X199.0344 Y61.9730 Z-0.5000 S1000
G1 F100 X174.7335 Y61.9730 Z-0.5000 S1000
G1 F100 X157.6829 Y48.4761 Z-0.5000 S1000
G1 F100 X117.4424 Y61.6112 Z-0.5000 S1000
G1 F100 X113.5388 Y86.5265 Z-0.5000 S1000
G1 F100 X100.8435 Y79.2877 Z-0.5000 S1000
G1 F100 X88.9036 Y86.5265 Z-0.5000 S1000
G1 F100 X88.9036 Y86.5265 Z-0.5000 S1000
; retracting back to z-safe
G0 Z10

M5 S0; Spindle Off
