; GCODE Generated by cam.openbuilds.com on 2021-10-14 
G21 ; mm-mode
G54; Work Coordinates
G21; mm-mode
G90; Absolute Positioning
M3 S1000; Spindle On

; Operation 0: CNC: Vector (no offset)
; Endmill Diameter: 1

G0 Z10; move to z-safe height
G0 F1000 X134.1248 Y119.0266

G0 Z0
G1 F50 Z-0.5000
G1 F100 X74.9310 Y72.6051 Z-0.5000 S1000
G1 F100 X48.7478 Y112.2564 Z-0.5000 S1000
G1 F100 X40.8456 Y107.8929 Z-0.5000 S1000
G1 F100 X67.4452 Y68.4516 Z-0.5000 S1000
G1 F100 X25.3952 Y40.1378 Z-0.5000 S1000
G1 F100 X5.1940 Y63.7111 Z-0.5000 S1000
G1 F100 X0.0000 Y54.5675 Z-0.5000 S1000
G1 F100 X46.2278 Y-0.0000 Z-0.5000 S1000
G1 F100 X115.0406 Y27.2324 Z-0.5000 S1000
G1 F100 X151.7419 Y31.8587 Z-0.5000 S1000
G1 F100 X134.6935 Y54.0613 Z-0.5000 S1000
G1 F100 X49.5666 Y13.7164 Z-0.5000 S1000
G1 F100 X33.2606 Y32.1241 Z-0.5000 S1000
G1 F100 X100.3520 Y78.6284 Z-0.5000 S1000
G1 F100 X134.2210 Y91.3057 Z-0.5000 S1000
G1 F100 X134.1769 Y102.2986 Z-0.5000 S1000
G1 F100 X134.1248 Y119.0266 Z-0.5000 S1000
G1 F100 X134.1248 Y119.0266 Z-0.5000 S1000
; retracting back to z-safe
G0 Z10

M5 S0; Spindle Off
