; GCODE Generated by cam.openbuilds.com on 2021-10-14 
G21 ; mm-mode
G54; Work Coordinates
G21; mm-mode
G90; Absolute Positioning
M3 S1000; Spindle On

; Operation 0: CNC: Vector (no offset)
; Endmill Diameter: 1

G0 Z10; move to z-safe height
G0 F1000 X134.1248 Y119.0266

G0 Z0
G1 F50 Z-0.5000
G1 F100 X99.1996 Y87.9470 Z-0.5000 S1000
G1 F100 X74.3965 Y71.5360 Z-0.5000 S1000
G1 F100 X37.5225 Y113.5928 Z-0.5000 S1000
G1 F100 X29.3530 Y104.6857 Z-0.5000 S1000
G1 F100 X62.9017 Y63.9080 Z-0.5000 S1000
G1 F100 X30.4733 Y45.7505 Z-0.5000 S1000
G1 F100 X8.6685 Y63.9784 Z-0.5000 S1000
G1 F100 X0.0000 Y54.5675 Z-0.5000 S1000
G1 F100 X60.6603 Y-1.0691 Z-0.5000 S1000
G1 F100 X151.7419 Y31.8587 Z-0.5000 S1000
G1 F100 X134.6935 Y54.0613 Z-0.5000 S1000
G1 F100 X63.4646 Y14.7855 Z-0.5000 S1000
G1 F100 X40.2096 Y36.6677 Z-0.5000 S1000
G1 F100 X40.2096 Y36.6677 Z-0.5000 S1000
G1 F100 X41.0779 Y37.1581 Z-0.5000 S1000
G1 F100 X41.9457 Y37.6489 Z-0.5000 S1000
G1 F100 X42.8121 Y38.1391 Z-0.5000 S1000
G1 F100 X43.6806 Y38.6308 Z-0.5000 S1000
G1 F100 X44.5506 Y39.1237 Z-0.5000 S1000
G1 F100 X45.4155 Y39.6139 Z-0.5000 S1000
G1 F100 X46.2861 Y40.1076 Z-0.5000 S1000
G1 F100 X47.1513 Y40.5983 Z-0.5000 S1000
G1 F100 X48.0198 Y41.0912 Z-0.5000 S1000
G1 F100 X48.8894 Y41.5850 Z-0.5000 S1000
G1 F100 X49.7551 Y42.0766 Z-0.5000 S1000
G1 F100 X50.6217 Y42.5691 Z-0.5000 S1000
G1 F100 X51.4889 Y43.0620 Z-0.5000 S1000
G1 F100 X52.3563 Y43.5552 Z-0.5000 S1000
G1 F100 X53.2236 Y44.0486 Z-0.5000 S1000
G1 F100 X54.0908 Y44.5421 Z-0.5000 S1000
G1 F100 X54.9578 Y45.0357 Z-0.5000 S1000
G1 F100 X55.8247 Y45.5294 Z-0.5000 S1000
G1 F100 X56.6915 Y46.0232 Z-0.5000 S1000
G1 F100 X57.5582 Y46.5172 Z-0.5000 S1000
G1 F100 X58.4249 Y47.0114 Z-0.5000 S1000
G1 F100 X59.2917 Y47.5058 Z-0.5000 S1000
G1 F100 X60.1586 Y48.0004 Z-0.5000 S1000
G1 F100 X61.0258 Y48.4953 Z-0.5000 S1000
G1 F100 X61.8929 Y48.9905 Z-0.5000 S1000
G1 F100 X62.7582 Y49.4847 Z-0.5000 S1000
G1 F100 X63.6237 Y49.9793 Z-0.5000 S1000
G1 F100 X64.4897 Y50.4743 Z-0.5000 S1000
G1 F100 X65.3559 Y50.9697 Z-0.5000 S1000
G1 F100 X66.2226 Y51.4655 Z-0.5000 S1000
G1 F100 X67.0890 Y51.9613 Z-0.5000 S1000
G1 F100 X67.9538 Y52.4564 Z-0.5000 S1000
G1 F100 X68.8192 Y52.9520 Z-0.5000 S1000
G1 F100 X69.6851 Y53.4481 Z-0.5000 S1000
G1 F100 X70.5515 Y53.9447 Z-0.5000 S1000
G1 F100 X71.4166 Y54.4408 Z-0.5000 S1000
G1 F100 X72.2814 Y54.9368 Z-0.5000 S1000
G1 F100 X73.1467 Y55.4334 Z-0.5000 S1000
G1 F100 X74.0126 Y55.9306 Z-0.5000 S1000
G1 F100 X74.8776 Y56.4273 Z-0.5000 S1000
G1 F100 X75.7421 Y56.9240 Z-0.5000 S1000
G1 F100 X76.6071 Y57.4213 Z-0.5000 S1000
G1 F100 X77.4727 Y57.9190 Z-0.5000 S1000
G1 F100 X78.3370 Y58.4163 Z-0.5000 S1000
G1 F100 X79.2013 Y58.9137 Z-0.5000 S1000
G1 F100 X80.0662 Y59.4117 Z-0.5000 S1000
G1 F100 X80.9311 Y59.9100 Z-0.5000 S1000
G1 F100 X81.7948 Y60.4078 Z-0.5000 S1000
G1 F100 X82.6591 Y60.9061 Z-0.5000 S1000
G1 F100 X83.5238 Y61.4049 Z-0.5000 S1000
G1 F100 X84.3876 Y61.9034 Z-0.5000 S1000
G1 F100 X85.2513 Y62.4022 Z-0.5000 S1000
G1 F100 X86.1154 Y62.9014 Z-0.5000 S1000
G1 F100 X86.9793 Y63.4007 Z-0.5000 S1000
G1 F100 X87.8427 Y63.8999 Z-0.5000 S1000
G1 F100 X88.7063 Y64.3995 Z-0.5000 S1000
G1 F100 X89.5700 Y64.8995 Z-0.5000 S1000
G1 F100 X90.4330 Y65.3993 Z-0.5000 S1000
G1 F100 X91.2962 Y65.8995 Z-0.5000 S1000
G1 F100 X92.1595 Y66.4000 Z-0.5000 S1000
G1 F100 X93.0223 Y66.9005 Z-0.5000 S1000
G1 F100 X93.8851 Y67.4013 Z-0.5000 S1000
G1 F100 X94.7480 Y67.9024 Z-0.5000 S1000
G1 F100 X95.6105 Y68.4036 Z-0.5000 S1000
G1 F100 X96.4729 Y68.9051 Z-0.5000 S1000
G1 F100 X97.3353 Y69.4068 Z-0.5000 S1000
G1 F100 X98.1975 Y69.9087 Z-0.5000 S1000
G1 F100 X99.0596 Y70.4109 Z-0.5000 S1000
G1 F100 X99.9215 Y70.9133 Z-0.5000 S1000
G1 F100 X100.7832 Y71.4158 Z-0.5000 S1000
G1 F100 X101.6449 Y71.9188 Z-0.5000 S1000
G1 F100 X102.5064 Y72.4220 Z-0.5000 S1000
G1 F100 X103.3675 Y72.9252 Z-0.5000 S1000
G1 F100 X104.2289 Y73.4290 Z-0.5000 S1000
G1 F100 X105.0900 Y73.9330 Z-0.5000 S1000
G1 F100 X105.9506 Y74.4371 Z-0.5000 S1000
G1 F100 X106.8114 Y74.9417 Z-0.5000 S1000
G1 F100 X107.6721 Y75.4466 Z-0.5000 S1000
G1 F100 X108.5322 Y75.9516 Z-0.5000 S1000
G1 F100 X109.3922 Y76.4570 Z-0.5000 S1000
G1 F100 X110.2526 Y76.9629 Z-0.5000 S1000
G1 F100 X111.1122 Y77.4689 Z-0.5000 S1000
G1 F100 X111.9712 Y77.9750 Z-0.5000 S1000
G1 F100 X112.8312 Y78.4821 Z-0.5000 S1000
G1 F100 X113.6905 Y78.9893 Z-0.5000 S1000
G1 F100 X114.5490 Y79.4965 Z-0.5000 S1000
G1 F100 X115.4077 Y80.0043 Z-0.5000 S1000
G1 F100 X116.2667 Y80.5128 Z-0.5000 S1000
G1 F100 X117.1248 Y81.0214 Z-0.5000 S1000
G1 F100 X117.9820 Y81.5299 Z-0.5000 S1000
G1 F100 X118.8405 Y82.0399 Z-0.5000 S1000
G1 F100 X119.6983 Y82.5500 Z-0.5000 S1000
G1 F100 X120.5552 Y83.0601 Z-0.5000 S1000
G1 F100 X121.4113 Y83.5705 Z-0.5000 S1000
G1 F100 X122.2688 Y84.0824 Z-0.5000 S1000
G1 F100 X123.1255 Y84.5945 Z-0.5000 S1000
G1 F100 X123.9812 Y85.1066 Z-0.5000 S1000
G1 F100 X124.8358 Y85.6190 Z-0.5000 S1000
G1 F100 X125.6921 Y86.1330 Z-0.5000 S1000
G1 F100 X126.5475 Y86.6474 Z-0.5000 S1000
G1 F100 X127.4021 Y87.1622 Z-0.5000 S1000
G1 F100 X128.2556 Y87.6772 Z-0.5000 S1000
G1 F100 X129.1087 Y88.1928 Z-0.5000 S1000
G1 F100 X129.9630 Y88.7102 Z-0.5000 S1000
G1 F100 X130.8164 Y89.2281 Z-0.5000 S1000
G1 F100 X131.6689 Y89.7466 Z-0.5000 S1000
G1 F100 X132.5205 Y90.2656 Z-0.5000 S1000
G1 F100 X133.3712 Y90.7853 Z-0.5000 S1000
G1 F100 X134.2210 Y91.3057 Z-0.5000 S1000
G1 F100 X134.1769 Y102.2986 Z-0.5000 S1000
G1 F100 X134.1248 Y119.0266 Z-0.5000 S1000
G1 F100 X134.1248 Y119.0266 Z-0.5000 S1000
; retracting back to z-safe
G0 Z10

M5 S0; Spindle Off
