; GCODE Generated by cam.openbuilds.com on 2021-10-14 
G21 ; mm-mode
G54; Work Coordinates
G21; mm-mode
G90; Absolute Positioning
M3 S1000; Spindle On

; Operation 0: CNC: Vector (no offset)
; Endmill Diameter: 1

G0 Z10; move to z-safe height
G0 F1000 X73.0486 Y60.4041

G0 Z0
G1 F50 Z-0.5000
G1 F100 X96.1259 Y40.9712 Z-0.5000 S1000
G1 F100 X73.6312 Y26.4611 Z-0.5000 S1000
G1 F100 X49.4167 Y39.4588 Z-0.5000 S1000
G1 F100 X73.0486 Y60.4041 Z-0.5000 S1000
G1 F100 X73.0486 Y60.4041 Z-0.5000 S1000

G0 Z10; move to z-safe height
G0 X24.9522 Y111.5375

G0 Z0
G1 F50 Z-0.5000
G1 F100 X18.2386 Y104.8655 Z-0.5000 S1000
G1 F100 X42.4273 Y89.5128 Z-0.5000 S1000
G1 F100 X63.1066 Y67.7204 Z-0.5000 S1000
G1 F100 X39.8791 Y45.1133 Z-0.5000 S1000
G1 F100 X-0.0000 Y73.7118 Z-0.5000 S1000
G1 F100 X0.0439 Y45.9910 Z-0.5000 S1000
G1 F100 X40.1324 Y0.5670 Z-0.5000 S1000
G1 F100 X74.1987 Y12.9790 Z-0.5000 S1000
G1 F100 X107.3191 Y1.5124 Z-0.5000 S1000
G1 F100 X146.0846 Y45.9910 Z-0.5000 S1000
G1 F100 X146.1285 Y73.7118 Z-0.5000 S1000
G1 F100 X104.5485 Y45.1497 Z-0.5000 S1000
G1 F100 X83.6929 Y67.7366 Z-0.5000 S1000
G1 F100 X105.7925 Y89.9356 Z-0.5000 S1000
G1 F100 X128.6783 Y102.1353 Z-0.5000 S1000
G1 F100 X124.9567 Y110.9700 Z-0.5000 S1000
G1 F100 X99.5440 Y99.6657 Z-0.5000 S1000
G1 F100 X73.2538 Y72.9105 Z-0.5000 S1000
G1 F100 X46.9616 Y99.2893 Z-0.5000 S1000
G1 F100 X24.9522 Y111.5375 Z-0.5000 S1000
G1 F100 X24.9522 Y111.5375 Z-0.5000 S1000
; retracting back to z-safe
G0 Z10

M5 S0; Spindle Off
