; GCODE Generated by cam.openbuilds.com on 2021-10-14 
G21 ; mm-mode
G54; Work Coordinates
G21; mm-mode
G90; Absolute Positioning
M3 S1000; Spindle On

; Operation 0: CNC: Vector (no offset)
; Endmill Diameter: 1

G0 Z10; move to z-safe height
G0 F1000 X17.6170 Y119.0266

G0 Z0
G1 F50 Z-0.5000
G1 F100 X52.5423 Y87.9470 Z-0.5000 S1000
G1 F100 X77.3454 Y71.5360 Z-0.5000 S1000
G1 F100 X114.2194 Y113.5928 Z-0.5000 S1000
G1 F100 X122.3888 Y104.6857 Z-0.5000 S1000
G1 F100 X88.8402 Y63.9080 Z-0.5000 S1000
G1 F100 X121.2686 Y45.7505 Z-0.5000 S1000
G1 F100 X143.0734 Y63.9784 Z-0.5000 S1000
G1 F100 X151.7419 Y54.5675 Z-0.5000 S1000
G1 F100 X91.0815 Y-1.0691 Z-0.5000 S1000
G1 F100 X-0.0000 Y31.8587 Z-0.5000 S1000
G1 F100 X17.0484 Y54.0613 Z-0.5000 S1000
G1 F100 X88.2772 Y14.7855 Z-0.5000 S1000
G1 F100 X111.5322 Y36.6677 Z-0.5000 S1000
G1 F100 X111.5322 Y36.6677 Z-0.5000 S1000
G1 F100 X110.6640 Y37.1581 Z-0.5000 S1000
G1 F100 X109.7961 Y37.6489 Z-0.5000 S1000
G1 F100 X108.9298 Y38.1391 Z-0.5000 S1000
G1 F100 X108.0613 Y38.6308 Z-0.5000 S1000
G1 F100 X107.1913 Y39.1237 Z-0.5000 S1000
G1 F100 X106.3263 Y39.6139 Z-0.5000 S1000
G1 F100 X105.4557 Y40.1076 Z-0.5000 S1000
G1 F100 X104.5906 Y40.5983 Z-0.5000 S1000
G1 F100 X103.7221 Y41.0912 Z-0.5000 S1000
G1 F100 X102.8524 Y41.5850 Z-0.5000 S1000
G1 F100 X101.9868 Y42.0766 Z-0.5000 S1000
G1 F100 X101.1201 Y42.5691 Z-0.5000 S1000
G1 F100 X100.2529 Y43.0620 Z-0.5000 S1000
G1 F100 X99.3856 Y43.5552 Z-0.5000 S1000
G1 F100 X98.5183 Y44.0486 Z-0.5000 S1000
G1 F100 X97.6511 Y44.5421 Z-0.5000 S1000
G1 F100 X96.7840 Y45.0357 Z-0.5000 S1000
G1 F100 X95.9172 Y45.5294 Z-0.5000 S1000
G1 F100 X95.0504 Y46.0232 Z-0.5000 S1000
G1 F100 X94.1837 Y46.5172 Z-0.5000 S1000
G1 F100 X93.3169 Y47.0114 Z-0.5000 S1000
G1 F100 X92.4501 Y47.5058 Z-0.5000 S1000
G1 F100 X91.5832 Y48.0004 Z-0.5000 S1000
G1 F100 X90.7161 Y48.4953 Z-0.5000 S1000
G1 F100 X89.8490 Y48.9905 Z-0.5000 S1000
G1 F100 X88.9837 Y49.4847 Z-0.5000 S1000
G1 F100 X88.1181 Y49.9793 Z-0.5000 S1000
G1 F100 X87.2522 Y50.4743 Z-0.5000 S1000
G1 F100 X86.3859 Y50.9697 Z-0.5000 S1000
G1 F100 X85.5192 Y51.4655 Z-0.5000 S1000
G1 F100 X84.6529 Y51.9613 Z-0.5000 S1000
G1 F100 X83.7881 Y52.4564 Z-0.5000 S1000
G1 F100 X82.9227 Y52.9520 Z-0.5000 S1000
G1 F100 X82.0568 Y53.4481 Z-0.5000 S1000
G1 F100 X81.1904 Y53.9447 Z-0.5000 S1000
G1 F100 X80.3253 Y54.4408 Z-0.5000 S1000
G1 F100 X79.4605 Y54.9368 Z-0.5000 S1000
G1 F100 X78.5951 Y55.4334 Z-0.5000 S1000
G1 F100 X77.7292 Y55.9306 Z-0.5000 S1000
G1 F100 X76.8643 Y56.4273 Z-0.5000 S1000
G1 F100 X75.9998 Y56.9240 Z-0.5000 S1000
G1 F100 X75.1347 Y57.4213 Z-0.5000 S1000
G1 F100 X74.2691 Y57.9190 Z-0.5000 S1000
G1 F100 X73.4049 Y58.4163 Z-0.5000 S1000
G1 F100 X72.5406 Y58.9137 Z-0.5000 S1000
G1 F100 X71.6757 Y59.4117 Z-0.5000 S1000
G1 F100 X70.8108 Y59.9100 Z-0.5000 S1000
G1 F100 X69.9470 Y60.4078 Z-0.5000 S1000
G1 F100 X69.0827 Y60.9061 Z-0.5000 S1000
G1 F100 X68.2181 Y61.4049 Z-0.5000 S1000
G1 F100 X67.3543 Y61.9034 Z-0.5000 S1000
G1 F100 X66.4905 Y62.4022 Z-0.5000 S1000
G1 F100 X65.6264 Y62.9014 Z-0.5000 S1000
G1 F100 X64.7625 Y63.4007 Z-0.5000 S1000
G1 F100 X63.8992 Y63.8999 Z-0.5000 S1000
G1 F100 X63.0356 Y64.3995 Z-0.5000 S1000
G1 F100 X62.1718 Y64.8995 Z-0.5000 S1000
G1 F100 X61.3088 Y65.3993 Z-0.5000 S1000
G1 F100 X60.4456 Y65.8995 Z-0.5000 S1000
G1 F100 X59.5823 Y66.4000 Z-0.5000 S1000
G1 F100 X58.7195 Y66.9005 Z-0.5000 S1000
G1 F100 X57.8567 Y67.4013 Z-0.5000 S1000
G1 F100 X56.9939 Y67.9024 Z-0.5000 S1000
G1 F100 X56.1314 Y68.4036 Z-0.5000 S1000
G1 F100 X55.2689 Y68.9051 Z-0.5000 S1000
G1 F100 X54.4066 Y69.4068 Z-0.5000 S1000
G1 F100 X53.5444 Y69.9087 Z-0.5000 S1000
G1 F100 X52.6823 Y70.4109 Z-0.5000 S1000
G1 F100 X51.8204 Y70.9133 Z-0.5000 S1000
G1 F100 X50.9587 Y71.4158 Z-0.5000 S1000
G1 F100 X50.0969 Y71.9188 Z-0.5000 S1000
G1 F100 X49.2354 Y72.4220 Z-0.5000 S1000
G1 F100 X48.3744 Y72.9252 Z-0.5000 S1000
G1 F100 X47.5129 Y73.4290 Z-0.5000 S1000
G1 F100 X46.6519 Y73.9330 Z-0.5000 S1000
G1 F100 X45.7913 Y74.4371 Z-0.5000 S1000
G1 F100 X44.9305 Y74.9417 Z-0.5000 S1000
G1 F100 X44.0698 Y75.4466 Z-0.5000 S1000
G1 F100 X43.2097 Y75.9516 Z-0.5000 S1000
G1 F100 X42.3496 Y76.4570 Z-0.5000 S1000
G1 F100 X41.4893 Y76.9629 Z-0.5000 S1000
G1 F100 X40.6296 Y77.4689 Z-0.5000 S1000
G1 F100 X39.7706 Y77.9750 Z-0.5000 S1000
G1 F100 X38.9107 Y78.4821 Z-0.5000 S1000
G1 F100 X38.0514 Y78.9893 Z-0.5000 S1000
G1 F100 X37.1929 Y79.4965 Z-0.5000 S1000
G1 F100 X36.3341 Y80.0043 Z-0.5000 S1000
G1 F100 X35.4752 Y80.5128 Z-0.5000 S1000
G1 F100 X34.6171 Y81.0214 Z-0.5000 S1000
G1 F100 X33.7599 Y81.5299 Z-0.5000 S1000
G1 F100 X32.9014 Y82.0399 Z-0.5000 S1000
G1 F100 X32.0436 Y82.5500 Z-0.5000 S1000
G1 F100 X31.1867 Y83.0601 Z-0.5000 S1000
G1 F100 X30.3306 Y83.5705 Z-0.5000 S1000
G1 F100 X29.4730 Y84.0824 Z-0.5000 S1000
G1 F100 X28.6164 Y84.5945 Z-0.5000 S1000
G1 F100 X27.7607 Y85.1066 Z-0.5000 S1000
G1 F100 X26.9060 Y85.6190 Z-0.5000 S1000
G1 F100 X26.0498 Y86.1330 Z-0.5000 S1000
G1 F100 X25.1943 Y86.6474 Z-0.5000 S1000
G1 F100 X24.3398 Y87.1622 Z-0.5000 S1000
G1 F100 X23.4862 Y87.6772 Z-0.5000 S1000
G1 F100 X22.6331 Y88.1928 Z-0.5000 S1000
G1 F100 X21.7788 Y88.7102 Z-0.5000 S1000
G1 F100 X20.9254 Y89.2281 Z-0.5000 S1000
G1 F100 X20.0729 Y89.7466 Z-0.5000 S1000
G1 F100 X19.2214 Y90.2656 Z-0.5000 S1000
G1 F100 X18.3707 Y90.7853 Z-0.5000 S1000
G1 F100 X17.5209 Y91.3057 Z-0.5000 S1000
G1 F100 X17.5650 Y102.2986 Z-0.5000 S1000
G1 F100 X17.6170 Y119.0266 Z-0.5000 S1000
G1 F100 X17.6170 Y119.0266 Z-0.5000 S1000
; retracting back to z-safe
G0 Z10

M5 S0; Spindle Off
