; GCODE Generated by cam.openbuilds.com on 2021-10-14 
G21 ; mm-mode
G54; Work Coordinates
G21; mm-mode
G90; Absolute Positioning
M3 S1000; Spindle On

; Operation 0: CNC: Vector (no offset)
; Endmill Diameter: 1

G0 Z10; move to z-safe height
G0 F1000 X89.7054 Y83.4448

G0 Z0
G1 F50 Z-0.5000
G1 F100 X89.8340 Y60.8795 Z-0.5000 S1000
G1 F100 X45.6168 Y43.5962 Z-0.5000 S1000
G1 F100 X28.1767 Y55.2829 Z-0.5000 S1000
G1 F100 X-0.0668 Y54.0134 Z-0.5000 S1000
G1 F100 X-0.0000 Y38.9991 Z-0.5000 S1000
G1 F100 X26.6734 Y40.7363 Z-0.5000 S1000
G1 F100 X77.8182 Y0.0000 Z-0.5000 S1000
G1 F100 X86.8901 Y9.6681 Z-0.5000 S1000
G1 F100 X56.5964 Y34.2468 Z-0.5000 S1000
G1 F100 X102.8341 Y51.8495 Z-0.5000 S1000
G1 F100 X151.8628 Y36.6308 Z-0.5000 S1000
G1 F100 X119.6948 Y11.0883 Z-0.5000 S1000
G1 F100 X127.0449 Y0.6008 Z-0.5000 S1000
G1 F100 X179.5594 Y45.8007 Z-0.5000 S1000
G1 F100 X200.4814 Y42.7101 Z-0.5000 S1000
G1 F100 X200.2695 Y54.6363 Z-0.5000 S1000
G1 F100 X177.8585 Y57.8491 Z-0.5000 S1000
G1 F100 X160.8079 Y45.8641 Z-0.5000 S1000
G1 F100 X114.1016 Y61.2023 Z-0.5000 S1000
G1 F100 X114.0733 Y83.4448 Z-0.5000 S1000
G1 F100 X101.2444 Y78.8787 Z-0.5000 S1000
G1 F100 X89.7054 Y83.4448 Z-0.5000 S1000
G1 F100 X89.7054 Y83.4448 Z-0.5000 S1000
; retracting back to z-safe
G0 Z10

M5 S0; Spindle Off
