; GCODE Generated by cam.openbuilds.com on 2021-10-14 
G21 ; mm-mode
G54; Work Coordinates
G21; mm-mode
G90; Absolute Positioning
M3 S1000; Spindle On

; Operation 0: CNC: Vector (no offset)
; Endmill Diameter: 1

G0 Z10; move to z-safe height
G0 F1000 X5.5186 Y41.8348

G0 Z0
G1 F50 Z-0.5000
G1 F100 X0.9354 Y37.9214 Z-0.5000 S1000
G1 F100 X24.0948 Y19.4375 Z-0.5000 S1000
G1 F100 X10.0601 Y4.0072 Z-0.5000 S1000
G1 F100 X16.5308 Y0.2672 Z-0.5000 S1000
G1 F100 X29.2261 Y14.7449 Z-0.5000 S1000
G1 F100 X42.7512 Y0.2673 Z-0.5000 S1000
G1 F100 X48.4202 Y5.8781 Z-0.5000 S1000
G1 F100 X35.3354 Y19.4583 Z-0.5000 S1000
G1 F100 X57.8120 Y38.3220 Z-0.5000 S1000
G1 F100 X52.5604 Y41.4339 Z-0.5000 S1000
G1 F100 X29.3196 Y23.7501 Z-0.5000 S1000
G1 F100 X5.5186 Y41.8348 Z-0.5000 S1000
G1 F100 X5.5186 Y41.8348 Z-0.5000 S1000
; retracting back to z-safe
G0 Z10

M5 S0; Spindle Off
