; GCODE Generated by cam.openbuilds.com on 2021-07-06 
G21 ; mm-mode
G54; Work Coordinates
G21; mm-mode
G90; Absolute Positioning
M3 S1000; Spindle On

; Operation 0: Drill: Peck (Centered)
; Endmill Diameter: 6.35

G0 Z10; move to z-safe height
G0 F1000 X124.0999 Y5.7272

G0 Z0
G1 F100 Z0.0000
G1 F1000 X124.0999 Y5.7272 Z0.0000 S1000
G1 F1000 X124.0999 Y5.7272 Z0.0000 S1000
G1 F100 Z0.0000
G1 F1000 X124.0999 Y5.7272 Z-1.0000 S1000
G1 F1000 X124.0999 Y5.7272 Z0.0000 S1000
G1 F100 Z-1.0000
G1 F1000 X124.0999 Y5.7272 Z-2.0000 S1000
G1 F1000 X124.0999 Y5.7272 Z0.0000 S1000

G0 Z10; move to z-safe height
G0 X48.0999 Y5.7272

G0 Z0
G1 F100 Z0.0000
G1 F1000 X48.0999 Y5.7272 Z0.0000 S1000
G1 F1000 X48.0999 Y5.7272 Z0.0000 S1000
G1 F100 Z0.0000
G1 F1000 X48.0999 Y5.7272 Z-1.0000 S1000
G1 F1000 X48.0999 Y5.7272 Z0.0000 S1000
G1 F100 Z-1.0000
G1 F1000 X48.0999 Y5.7272 Z-2.0000 S1000
G1 F1000 X48.0999 Y5.7272 Z0.0000 S1000

G0 Z10; move to z-safe height
G0 X6.1000 Y87.9868

G0 Z0
G1 F100 Z0.0000
G1 F1000 X6.1000 Y87.9868 Z0.0000 S1000
G1 F1000 X6.1000 Y87.9868 Z0.0000 S1000
G1 F100 Z0.0000
G1 F1000 X6.1000 Y87.9868 Z-1.0000 S1000
G1 F1000 X6.1000 Y87.9868 Z0.0000 S1000
G1 F100 Z-1.0000
G1 F1000 X6.1000 Y87.9868 Z-2.0000 S1000
G1 F1000 X6.1000 Y87.9868 Z0.0000 S1000

G0 Z10; move to z-safe height
G0 X6.1000 Y27.9868

G0 Z0
G1 F100 Z0.0000
G1 F1000 X6.1000 Y27.9868 Z0.0000 S1000
G1 F1000 X6.1000 Y27.9868 Z0.0000 S1000
G1 F100 Z0.0000
G1 F1000 X6.1000 Y27.9868 Z-1.0000 S1000
G1 F1000 X6.1000 Y27.9868 Z0.0000 S1000
G1 F100 Z-1.0000
G1 F1000 X6.1000 Y27.9868 Z-2.0000 S1000
G1 F1000 X6.1000 Y27.9868 Z0.0000 S1000

G0 Z10; move to z-safe height
G0 X166.1000 Y87.9868

G0 Z0
G1 F100 Z0.0000
G1 F1000 X166.1000 Y87.9868 Z0.0000 S1000
G1 F1000 X166.1000 Y87.9868 Z0.0000 S1000
G1 F100 Z0.0000
G1 F1000 X166.1000 Y87.9868 Z-1.0000 S1000
G1 F1000 X166.1000 Y87.9868 Z0.0000 S1000
G1 F100 Z-1.0000
G1 F1000 X166.1000 Y87.9868 Z-2.0000 S1000
G1 F1000 X166.1000 Y87.9868 Z0.0000 S1000

G0 Z10; move to z-safe height
G0 X166.1000 Y27.9868

G0 Z0
G1 F100 Z0.0000
G1 F1000 X166.1000 Y27.9868 Z0.0000 S1000
G1 F1000 X166.1000 Y27.9868 Z0.0000 S1000
G1 F100 Z0.0000
G1 F1000 X166.1000 Y27.9868 Z-1.0000 S1000
G1 F1000 X166.1000 Y27.9868 Z0.0000 S1000
G1 F100 Z-1.0000
G1 F1000 X166.1000 Y27.9868 Z-2.0000 S1000
G1 F1000 X166.1000 Y27.9868 Z0.0000 S1000

G0 Z10; move to z-safe height
G0 X124.1000 Y126.1622

G0 Z0
G1 F100 Z0.0000
G1 F1000 X124.1000 Y126.1622 Z0.0000 S1000
G1 F1000 X124.1000 Y126.1622 Z0.0000 S1000
G1 F100 Z0.0000
G1 F1000 X124.1000 Y126.1622 Z-1.0000 S1000
G1 F1000 X124.1000 Y126.1622 Z0.0000 S1000
G1 F100 Z-1.0000
G1 F1000 X124.1000 Y126.1622 Z-2.0000 S1000
G1 F1000 X124.1000 Y126.1622 Z0.0000 S1000

G0 Z10; move to z-safe height
G0 X149.0705 Y63.2785

G0 Z0
G1 F100 Z0.0000
G1 F1000 X149.0705 Y63.2785 Z0.0000 S1000
G1 F1000 X149.0705 Y63.2785 Z0.0000 S1000
G1 F100 Z0.0000
G1 F1000 X149.0705 Y63.2785 Z-1.0000 S1000
G1 F1000 X149.0705 Y63.2785 Z0.0000 S1000
G1 F100 Z-1.0000
G1 F1000 X149.0705 Y63.2785 Z-2.0000 S1000
G1 F1000 X149.0705 Y63.2785 Z0.0000 S1000

G0 Z10; move to z-safe height
G0 X86.1410 Y126.1622

G0 Z0
G1 F100 Z0.0000
G1 F1000 X86.1410 Y126.1622 Z0.0000 S1000
G1 F1000 X86.1410 Y126.1622 Z0.0000 S1000
G1 F100 Z0.0000
G1 F1000 X86.1410 Y126.1622 Z-1.0000 S1000
G1 F1000 X86.1410 Y126.1622 Z0.0000 S1000
G1 F100 Z-1.0000
G1 F1000 X86.1410 Y126.1622 Z-2.0000 S1000
G1 F1000 X86.1410 Y126.1622 Z0.0000 S1000

G0 Z10; move to z-safe height
G0 X80.4657 Y105.6007

G0 Z0
G1 F100 Z0.0000
G1 F1000 X80.4657 Y105.6007 Z0.0000 S1000
G1 F1000 X80.4657 Y105.6007 Z0.0000 S1000
G1 F100 Z0.0000
G1 F1000 X80.4657 Y105.6007 Z-1.0000 S1000
G1 F1000 X80.4657 Y105.6007 Z0.0000 S1000
G1 F100 Z-1.0000
G1 F1000 X80.4657 Y105.6007 Z-2.0000 S1000
G1 F1000 X80.4657 Y105.6007 Z0.0000 S1000

G0 Z10; move to z-safe height
G0 X123.7689 Y31.0667

G0 Z0
G1 F100 Z0.0000
G1 F1000 X123.7689 Y31.0667 Z0.0000 S1000
G1 F1000 X123.7689 Y31.0667 Z0.0000 S1000
G1 F100 Z0.0000
G1 F1000 X123.7689 Y31.0667 Z-1.0000 S1000
G1 F1000 X123.7689 Y31.0667 Z0.0000 S1000
G1 F100 Z-1.0000
G1 F1000 X123.7689 Y31.0667 Z-2.0000 S1000
G1 F1000 X123.7689 Y31.0667 Z0.0000 S1000

G0 Z10; move to z-safe height
G0 X48.2689 Y23.0667

G0 Z0
G1 F100 Z0.0000
G1 F1000 X48.2689 Y23.0667 Z0.0000 S1000
G1 F1000 X48.2689 Y23.0667 Z0.0000 S1000
G1 F100 Z0.0000
G1 F1000 X48.2689 Y23.0667 Z-1.0000 S1000
G1 F1000 X48.2689 Y23.0667 Z0.0000 S1000
G1 F100 Z-1.0000
G1 F1000 X48.2689 Y23.0667 Z-2.0000 S1000
G1 F1000 X48.2689 Y23.0667 Z0.0000 S1000

G0 Z10; move to z-safe height
G0 X48.2689 Y126.0667

G0 Z0
G1 F100 Z0.0000
G1 F1000 X48.2689 Y126.0667 Z0.0000 S1000
G1 F1000 X48.2689 Y126.0667 Z0.0000 S1000
G1 F100 Z0.0000
G1 F1000 X48.2689 Y126.0667 Z-1.0000 S1000
G1 F1000 X48.2689 Y126.0667 Z0.0000 S1000
G1 F100 Z-1.0000
G1 F1000 X48.2689 Y126.0667 Z-2.0000 S1000
G1 F1000 X48.2689 Y126.0667 Z0.0000 S1000

G0 Z10; move to z-safe height
G0 X128.7257 Y104.3307

G0 Z0
G1 F100 Z0.0000
G1 F1000 X128.7257 Y104.3307 Z0.0000 S1000
G1 F1000 X128.7257 Y104.3307 Z0.0000 S1000
G1 F100 Z0.0000
G1 F1000 X128.7257 Y104.3307 Z-1.0000 S1000
G1 F1000 X128.7257 Y104.3307 Z0.0000 S1000
G1 F100 Z-1.0000
G1 F1000 X128.7257 Y104.3307 Z-2.0000 S1000
G1 F1000 X128.7257 Y104.3307 Z0.0000 S1000
; retracting back to z-safe
G0 Z10

M5 S0; Spindle Off
