; GCODE Generated by cam.openbuilds.com on 2021-07-06 
G21 ; mm-mode
G54; Work Coordinates
G21; mm-mode
G90; Absolute Positioning
M3 S1000; Spindle On

; Operation 0: CNC: Pocket
; Endmill Diameter: 6

G0 Z10; move to z-safe height
G0 F1000 X148.7849 Y125.9536

G0 Z0
G1 F100 Z-1.5000
G1 F1000 X23.4149 Y125.9536 Z-1.5000 S1000
G1 F1000 X23.4149 Y125.3536 Z-1.5000 S1000
G1 F1000 X148.7849 Y125.3536 Z-1.5000 S1000
G1 F1000 X148.7849 Y125.9536 Z-1.5000 S1000

G0 Z10; move to z-safe height
G0 X164.9998 Y114.1610

G0 Z0
G1 F100 Z-1.5000
G1 F1000 X164.3998 Y114.1610 Z-1.5000 S1000
G1 F1000 X164.3998 Y12.8454 Z-1.5000 S1000
G1 F1000 X164.9998 Y12.8454 Z-1.5000 S1000
G1 F1000 X164.9998 Y114.1610 Z-1.5000 S1000

G0 Z10; move to z-safe height
G0 X7.8000 Y114.1610

G0 Z0
G1 F100 Z-1.5000
G1 F1000 X7.2000 Y114.1610 Z-1.5000 S1000
G1 F1000 X7.2000 Y12.8454 Z-1.5000 S1000
G1 F1000 X7.8000 Y12.8454 Z-1.5000 S1000
G1 F1000 X7.8000 Y114.1610 Z-1.5000 S1000

G0 Z10; move to z-safe height
G0 X148.7849 Y7.8000

G0 Z0
G1 F100 Z-1.5000
G1 F1000 X23.4149 Y7.8000 Z-1.5000 S1000
G1 F1000 X23.4149 Y7.2000 Z-1.5000 S1000
G1 F1000 X148.7849 Y7.2000 Z-1.5000 S1000
G1 F1000 X148.7849 Y7.8000 Z-1.5000 S1000

G0 Z10; move to z-safe height
G0 X148.7849 Y125.9536

G0 Z0
G1 F100 Z-3.0000
G1 F1000 X23.4149 Y125.9536 Z-3.0000 S1000
G1 F1000 X23.4149 Y125.3536 Z-3.0000 S1000
G1 F1000 X148.7849 Y125.3536 Z-3.0000 S1000
G1 F1000 X148.7849 Y125.9536 Z-3.0000 S1000

G0 Z10; move to z-safe height
G0 X164.9998 Y114.1610

G0 Z0
G1 F100 Z-3.0000
G1 F1000 X164.3998 Y114.1610 Z-3.0000 S1000
G1 F1000 X164.3998 Y12.8454 Z-3.0000 S1000
G1 F1000 X164.9998 Y12.8454 Z-3.0000 S1000
G1 F1000 X164.9998 Y114.1610 Z-3.0000 S1000

G0 Z10; move to z-safe height
G0 X7.8000 Y114.1610

G0 Z0
G1 F100 Z-3.0000
G1 F1000 X7.2000 Y114.1610 Z-3.0000 S1000
G1 F1000 X7.2000 Y12.8454 Z-3.0000 S1000
G1 F1000 X7.8000 Y12.8454 Z-3.0000 S1000
G1 F1000 X7.8000 Y114.1610 Z-3.0000 S1000

G0 Z10; move to z-safe height
G0 X148.7849 Y7.8000

G0 Z0
G1 F100 Z-3.0000
G1 F1000 X23.4149 Y7.8000 Z-3.0000 S1000
G1 F1000 X23.4149 Y7.2000 Z-3.0000 S1000
G1 F1000 X148.7849 Y7.2000 Z-3.0000 S1000
G1 F1000 X148.7849 Y7.8000 Z-3.0000 S1000

G0 Z10; move to z-safe height
G0 X151.1849 Y128.3536

G0 Z0
G1 F100 Z-1.5000
G1 F1000 X21.0149 Y128.3536 Z-1.5000 S1000
G1 F1000 X21.0149 Y122.9536 Z-1.5000 S1000
G1 F1000 X151.1849 Y122.9536 Z-1.5000 S1000
G1 F1000 X151.1849 Y128.3536 Z-1.5000 S1000

G0 Z10; move to z-safe height
G0 X167.3998 Y116.5610

G0 Z0
G1 F100 Z-1.5000
G1 F1000 X161.9998 Y116.5610 Z-1.5000 S1000
G1 F1000 X161.9998 Y10.4454 Z-1.5000 S1000
G1 F1000 X167.3998 Y10.4454 Z-1.5000 S1000
G1 F1000 X167.3998 Y116.5610 Z-1.5000 S1000

G0 Z10; move to z-safe height
G0 X10.2000 Y116.5610

G0 Z0
G1 F100 Z-1.5000
G1 F1000 X4.8000 Y116.5610 Z-1.5000 S1000
G1 F1000 X4.8000 Y10.4454 Z-1.5000 S1000
G1 F1000 X10.2000 Y10.4454 Z-1.5000 S1000
G1 F1000 X10.2000 Y116.5610 Z-1.5000 S1000

G0 Z10; move to z-safe height
G0 X151.1849 Y10.2000

G0 Z0
G1 F100 Z-1.5000
G1 F1000 X21.0149 Y10.2000 Z-1.5000 S1000
G1 F1000 X21.0149 Y4.8000 Z-1.5000 S1000
G1 F1000 X151.1849 Y4.8000 Z-1.5000 S1000
G1 F1000 X151.1849 Y10.2000 Z-1.5000 S1000

G0 Z10; move to z-safe height
G0 X151.1849 Y128.3536

G0 Z0
G1 F100 Z-3.0000
G1 F1000 X21.0149 Y128.3536 Z-3.0000 S1000
G1 F1000 X21.0149 Y122.9536 Z-3.0000 S1000
G1 F1000 X151.1849 Y122.9536 Z-3.0000 S1000
G1 F1000 X151.1849 Y128.3536 Z-3.0000 S1000

G0 Z10; move to z-safe height
G0 X167.3998 Y116.5610

G0 Z0
G1 F100 Z-3.0000
G1 F1000 X161.9998 Y116.5610 Z-3.0000 S1000
G1 F1000 X161.9998 Y10.4454 Z-3.0000 S1000
G1 F1000 X167.3998 Y10.4454 Z-3.0000 S1000
G1 F1000 X167.3998 Y116.5610 Z-3.0000 S1000

G0 Z10; move to z-safe height
G0 X10.2000 Y116.5610

G0 Z0
G1 F100 Z-3.0000
G1 F1000 X4.8000 Y116.5610 Z-3.0000 S1000
G1 F1000 X4.8000 Y10.4454 Z-3.0000 S1000
G1 F1000 X10.2000 Y10.4454 Z-3.0000 S1000
G1 F1000 X10.2000 Y116.5610 Z-3.0000 S1000

G0 Z10; move to z-safe height
G0 X151.1849 Y10.2000

G0 Z0
G1 F100 Z-3.0000
G1 F1000 X21.0149 Y10.2000 Z-3.0000 S1000
G1 F1000 X21.0149 Y4.8000 Z-3.0000 S1000
G1 F1000 X151.1849 Y4.8000 Z-3.0000 S1000
G1 F1000 X151.1849 Y10.2000 Z-3.0000 S1000

G0 Z10; move to z-safe height
G0 X152.9849 Y130.1536

G0 Z0
G1 F100 Z-1.5000
G1 F1000 X19.2149 Y130.1536 Z-1.5000 S1000
G1 F1000 X19.2149 Y121.1536 Z-1.5000 S1000
G1 F1000 X152.9849 Y121.1536 Z-1.5000 S1000
G1 F1000 X152.9849 Y130.1536 Z-1.5000 S1000

G0 Z10; move to z-safe height
G0 X169.1998 Y118.3610

G0 Z0
G1 F100 Z-1.5000
G1 F1000 X160.1998 Y118.3610 Z-1.5000 S1000
G1 F1000 X160.1998 Y8.6454 Z-1.5000 S1000
G1 F1000 X169.1998 Y8.6454 Z-1.5000 S1000
G1 F1000 X169.1998 Y118.3610 Z-1.5000 S1000

G0 Z10; move to z-safe height
G0 X12.0000 Y118.3610

G0 Z0
G1 F100 Z-1.5000
G1 F1000 X3.0000 Y118.3610 Z-1.5000 S1000
G1 F1000 X3.0000 Y8.6454 Z-1.5000 S1000
G1 F1000 X12.0000 Y8.6454 Z-1.5000 S1000
G1 F1000 X12.0000 Y118.3610 Z-1.5000 S1000

G0 Z10; move to z-safe height
G0 X152.9849 Y12.0000

G0 Z0
G1 F100 Z-1.5000
G1 F1000 X19.2149 Y12.0000 Z-1.5000 S1000
G1 F1000 X19.2149 Y3.0000 Z-1.5000 S1000
G1 F1000 X152.9849 Y3.0000 Z-1.5000 S1000
G1 F1000 X152.9849 Y12.0000 Z-1.5000 S1000

G0 Z10; move to z-safe height
G0 X152.9849 Y130.1536

G0 Z0
G1 F100 Z-3.0000
G1 F1000 X19.2149 Y130.1536 Z-3.0000 S1000
G1 F1000 X19.2149 Y121.1536 Z-3.0000 S1000
G1 F1000 X152.9849 Y121.1536 Z-3.0000 S1000
G1 F1000 X152.9849 Y130.1536 Z-3.0000 S1000

G0 Z10; move to z-safe height
G0 X169.1998 Y118.3610

G0 Z0
G1 F100 Z-3.0000
G1 F1000 X160.1998 Y118.3610 Z-3.0000 S1000
G1 F1000 X160.1998 Y8.6454 Z-3.0000 S1000
G1 F1000 X169.1998 Y8.6454 Z-3.0000 S1000
G1 F1000 X169.1998 Y118.3610 Z-3.0000 S1000

G0 Z10; move to z-safe height
G0 X12.0000 Y118.3610

G0 Z0
G1 F100 Z-3.0000
G1 F1000 X3.0000 Y118.3610 Z-3.0000 S1000
G1 F1000 X3.0000 Y8.6454 Z-3.0000 S1000
G1 F1000 X12.0000 Y8.6454 Z-3.0000 S1000
G1 F1000 X12.0000 Y118.3610 Z-3.0000 S1000

G0 Z10; move to z-safe height
G0 X152.9849 Y12.0000

G0 Z0
G1 F100 Z-3.0000
G1 F1000 X19.2149 Y12.0000 Z-3.0000 S1000
G1 F1000 X19.2149 Y3.0000 Z-3.0000 S1000
G1 F1000 X152.9849 Y3.0000 Z-3.0000 S1000
G1 F1000 X152.9849 Y12.0000 Z-3.0000 S1000
; retracting back to z-safe
G0 Z10
; Operation 1: CNC: Vector (path outside)
; Endmill Diameter: 6

G0 Z10; move to z-safe height
G0 F1000 X150.2001 Y-3.0000

G0 Z0
G1 F100 Z-2.5000
G1 F1000 X22.0002 Y-3.0000 Z-2.5000 S1000
G1 F1000 X21.4502 Y-2.9491 Z-2.5000 S1000
G1 F1000 X20.7894 Y-2.7448 Z-2.5000 S1000
G1 F1000 X20.1930 Y-2.3946 Z-2.5000 S1000
G1 F1000 X19.6926 Y-1.9170 Z-2.5000 S1000
G1 F1000 X19.3149 Y-1.3376 Z-2.5000 S1000
G1 F1000 X19.0799 Y-0.6871 Z-2.5000 S1000
G1 F1000 X19.0002 Y0.0000 Z-2.5000 S1000
G1 F1000 X19.0002 Y7.5766 Z-2.5000 S1000
G1 F1000 X0.0000 Y7.5766 Z-2.5000 S1000
G1 F1000 X-0.5500 Y7.6275 Z-2.5000 S1000
G1 F1000 X-1.2108 Y7.8318 Z-2.5000 S1000
G1 F1000 X-1.8072 Y8.1820 Z-2.5000 S1000
G1 F1000 X-2.3076 Y8.6596 Z-2.5000 S1000
G1 F1000 X-2.6853 Y9.2390 Z-2.5000 S1000
G1 F1000 X-2.9203 Y9.8895 Z-2.5000 S1000
G1 F1000 X-3.0000 Y10.5766 Z-2.5000 S1000
G1 F1000 X-3.0000 Y115.9805 Z-2.5000 S1000
G1 F1000 X-2.9491 Y116.5305 Z-2.5000 S1000
G1 F1000 X-2.7448 Y117.1913 Z-2.5000 S1000
G1 F1000 X-2.3946 Y117.7877 Z-2.5000 S1000
G1 F1000 X-1.9170 Y118.2881 Z-2.5000 S1000
G1 F1000 X-1.3376 Y118.6658 Z-2.5000 S1000
G1 F1000 X-0.6871 Y118.9008 Z-2.5000 S1000
G1 F1000 X0.0000 Y118.9805 Z-2.5000 S1000
G1 F1000 X19.0002 Y118.9805 Z-2.5000 S1000
G1 F1000 X19.0002 Y133.1536 Z-2.5000 S1000
G1 F1000 X19.0511 Y133.7036 Z-2.5000 S1000
G1 F1000 X19.2554 Y134.3644 Z-2.5000 S1000
G1 F1000 X19.6056 Y134.9608 Z-2.5000 S1000
G1 F1000 X20.0832 Y135.4612 Z-2.5000 S1000
G1 F1000 X20.6626 Y135.8389 Z-2.5000 S1000
G1 F1000 X21.3131 Y136.0739 Z-2.5000 S1000
G1 F1000 X22.0002 Y136.1536 Z-2.5000 S1000
G1 F1000 X150.2001 Y136.1536 Z-2.5000 S1000
G1 F1000 X150.7501 Y136.1027 Z-2.5000 S1000
G1 F1000 X151.4109 Y135.8984 Z-2.5000 S1000
G1 F1000 X152.0073 Y135.5482 Z-2.5000 S1000
G1 F1000 X152.5077 Y135.0706 Z-2.5000 S1000
G1 F1000 X152.8854 Y134.4912 Z-2.5000 S1000
G1 F1000 X153.1204 Y133.8407 Z-2.5000 S1000
G1 F1000 X153.2001 Y133.1536 Z-2.5000 S1000
G1 F1000 X153.2001 Y118.9805 Z-2.5000 S1000
G1 F1000 X172.1998 Y118.9805 Z-2.5000 S1000
G1 F1000 X172.7498 Y118.9296 Z-2.5000 S1000
G1 F1000 X173.4106 Y118.7253 Z-2.5000 S1000
G1 F1000 X174.0070 Y118.3751 Z-2.5000 S1000
G1 F1000 X174.5074 Y117.8975 Z-2.5000 S1000
G1 F1000 X174.8851 Y117.3181 Z-2.5000 S1000
G1 F1000 X175.1201 Y116.6676 Z-2.5000 S1000
G1 F1000 X175.1998 Y115.9805 Z-2.5000 S1000
G1 F1000 X175.1998 Y10.5766 Z-2.5000 S1000
G1 F1000 X175.1489 Y10.0266 Z-2.5000 S1000
G1 F1000 X174.9446 Y9.3658 Z-2.5000 S1000
G1 F1000 X174.5944 Y8.7694 Z-2.5000 S1000
G1 F1000 X174.1168 Y8.2690 Z-2.5000 S1000
G1 F1000 X173.5374 Y7.8913 Z-2.5000 S1000
G1 F1000 X172.8869 Y7.6563 Z-2.5000 S1000
G1 F1000 X172.1998 Y7.5766 Z-2.5000 S1000
G1 F1000 X153.2001 Y7.5766 Z-2.5000 S1000
G1 F1000 X153.2001 Y0.0000 Z-2.5000 S1000
G1 F1000 X153.1492 Y-0.5500 Z-2.5000 S1000
G1 F1000 X152.9449 Y-1.2108 Z-2.5000 S1000
G1 F1000 X152.5947 Y-1.8072 Z-2.5000 S1000
G1 F1000 X152.1171 Y-2.3076 Z-2.5000 S1000
G1 F1000 X151.5377 Y-2.6853 Z-2.5000 S1000
G1 F1000 X150.8872 Y-2.9203 Z-2.5000 S1000
G1 F1000 X150.2001 Y-3.0000 Z-2.5000 S1000
G1 F100 Z-5.0000
G1 F1000 X22.0002 Y-3.0000 Z-5.0000 S1000
G1 F1000 X21.4502 Y-2.9491 Z-5.0000 S1000
G1 F1000 X20.7894 Y-2.7448 Z-5.0000 S1000
G1 F1000 X20.1930 Y-2.3946 Z-5.0000 S1000
G1 F1000 X19.6926 Y-1.9170 Z-5.0000 S1000
G1 F1000 X19.3149 Y-1.3376 Z-5.0000 S1000
G1 F1000 X19.0799 Y-0.6871 Z-5.0000 S1000
G1 F1000 X19.0002 Y0.0000 Z-5.0000 S1000
G1 F1000 X19.0002 Y7.5766 Z-5.0000 S1000
G1 F1000 X0.0000 Y7.5766 Z-5.0000 S1000
G1 F1000 X-0.5500 Y7.6275 Z-5.0000 S1000
G1 F1000 X-1.2108 Y7.8318 Z-5.0000 S1000
G1 F1000 X-1.8072 Y8.1820 Z-5.0000 S1000
G1 F1000 X-2.3076 Y8.6596 Z-5.0000 S1000
G1 F1000 X-2.6853 Y9.2390 Z-5.0000 S1000
G1 F1000 X-2.9203 Y9.8895 Z-5.0000 S1000
G1 F1000 X-3.0000 Y10.5766 Z-5.0000 S1000
G1 F1000 X-3.0000 Y115.9805 Z-5.0000 S1000
G1 F1000 X-2.9491 Y116.5305 Z-5.0000 S1000
G1 F1000 X-2.7448 Y117.1913 Z-5.0000 S1000
G1 F1000 X-2.3946 Y117.7877 Z-5.0000 S1000
G1 F1000 X-1.9170 Y118.2881 Z-5.0000 S1000
G1 F1000 X-1.3376 Y118.6658 Z-5.0000 S1000
G1 F1000 X-0.6871 Y118.9008 Z-5.0000 S1000
G1 F1000 X0.0000 Y118.9805 Z-5.0000 S1000
G1 F1000 X19.0002 Y118.9805 Z-5.0000 S1000
G1 F1000 X19.0002 Y133.1536 Z-5.0000 S1000
G1 F1000 X19.0511 Y133.7036 Z-5.0000 S1000
G1 F1000 X19.2554 Y134.3644 Z-5.0000 S1000
G1 F1000 X19.6056 Y134.9608 Z-5.0000 S1000
G1 F1000 X20.0832 Y135.4612 Z-5.0000 S1000
G1 F1000 X20.6626 Y135.8389 Z-5.0000 S1000
G1 F1000 X21.3131 Y136.0739 Z-5.0000 S1000
G1 F1000 X22.0002 Y136.1536 Z-5.0000 S1000
G1 F1000 X150.2001 Y136.1536 Z-5.0000 S1000
G1 F1000 X150.7501 Y136.1027 Z-5.0000 S1000
G1 F1000 X151.4109 Y135.8984 Z-5.0000 S1000
G1 F1000 X152.0073 Y135.5482 Z-5.0000 S1000
G1 F1000 X152.5077 Y135.0706 Z-5.0000 S1000
G1 F1000 X152.8854 Y134.4912 Z-5.0000 S1000
G1 F1000 X153.1204 Y133.8407 Z-5.0000 S1000
G1 F1000 X153.2001 Y133.1536 Z-5.0000 S1000
G1 F1000 X153.2001 Y118.9805 Z-5.0000 S1000
G1 F1000 X172.1998 Y118.9805 Z-5.0000 S1000
G1 F1000 X172.7498 Y118.9296 Z-5.0000 S1000
G1 F1000 X173.4106 Y118.7253 Z-5.0000 S1000
G1 F1000 X174.0070 Y118.3751 Z-5.0000 S1000
G1 F1000 X174.5074 Y117.8975 Z-5.0000 S1000
G1 F1000 X174.8851 Y117.3181 Z-5.0000 S1000
G1 F1000 X175.1201 Y116.6676 Z-5.0000 S1000
G1 F1000 X175.1998 Y115.9805 Z-5.0000 S1000
G1 F1000 X175.1998 Y10.5766 Z-5.0000 S1000
G1 F1000 X175.1489 Y10.0266 Z-5.0000 S1000
G1 F1000 X174.9446 Y9.3658 Z-5.0000 S1000
G1 F1000 X174.5944 Y8.7694 Z-5.0000 S1000
G1 F1000 X174.1168 Y8.2690 Z-5.0000 S1000
G1 F1000 X173.5374 Y7.8913 Z-5.0000 S1000
G1 F1000 X172.8869 Y7.6563 Z-5.0000 S1000
G1 F1000 X172.1998 Y7.5766 Z-5.0000 S1000
G1 F1000 X153.2001 Y7.5766 Z-5.0000 S1000
G1 F1000 X153.2001 Y0.0000 Z-5.0000 S1000
G1 F1000 X153.1492 Y-0.5500 Z-5.0000 S1000
G1 F1000 X152.9449 Y-1.2108 Z-5.0000 S1000
G1 F1000 X152.5947 Y-1.8072 Z-5.0000 S1000
G1 F1000 X152.1171 Y-2.3076 Z-5.0000 S1000
G1 F1000 X151.5377 Y-2.6853 Z-5.0000 S1000
G1 F1000 X150.8872 Y-2.9203 Z-5.0000 S1000
G1 F1000 X150.2001 Y-3.0000 Z-5.0000 S1000
G1 F100 Z-7.5000
G1 F1000 X91.6001 Y-3.0000 Z-7.5000 S1000
G1 F1000 X91.6001 Y-3.0000 Z-6.0000 S1000
G1 F1000 X80.6001 Y-3.0000 Z-6.0000 S1000
G1 F1000 X80.6001 Y-3.0000 Z-7.5000 S1000
G1 F1000 X22.0002 Y-3.0000 Z-7.5000 S1000
G1 F1000 X22.0002 Y-3.0000 Z-7.5000 S1000
G1 F1000 X21.4502 Y-2.9491 Z-7.5000 S1000
G1 F1000 X20.7894 Y-2.7448 Z-7.5000 S1000
G1 F1000 X20.1930 Y-2.3946 Z-7.5000 S1000
G1 F1000 X19.6926 Y-1.9170 Z-7.5000 S1000
G1 F1000 X19.3149 Y-1.3376 Z-7.5000 S1000
G1 F1000 X19.0799 Y-0.6871 Z-7.5000 S1000
G1 F1000 X19.0002 Y0.0000 Z-7.5000 S1000
G1 F1000 X19.0002 Y7.5766 Z-7.5000 S1000
G1 F1000 X0.0000 Y7.5766 Z-7.5000 S1000
G1 F1000 X-0.5500 Y7.6275 Z-7.5000 S1000
G1 F1000 X-1.2108 Y7.8318 Z-7.5000 S1000
G1 F1000 X-1.8072 Y8.1820 Z-7.5000 S1000
G1 F1000 X-2.3076 Y8.6596 Z-7.5000 S1000
G1 F1000 X-2.6853 Y9.2390 Z-7.5000 S1000
G1 F1000 X-2.9203 Y9.8895 Z-7.5000 S1000
G1 F1000 X-3.0000 Y10.5766 Z-7.5000 S1000
G1 F1000 X-3.0000 Y57.7786 Z-7.5000 S1000
G1 F1000 X-3.0000 Y57.7786 Z-6.0000 S1000
G1 F1000 X-3.0000 Y68.7785 Z-6.0000 S1000
G1 F1000 X-3.0000 Y68.7785 Z-7.5000 S1000
G1 F1000 X-3.0000 Y115.9805 Z-7.5000 S1000
G1 F1000 X-3.0000 Y115.9805 Z-7.5000 S1000
G1 F1000 X-2.9491 Y116.5305 Z-7.5000 S1000
G1 F1000 X-2.7448 Y117.1913 Z-7.5000 S1000
G1 F1000 X-2.3946 Y117.7877 Z-7.5000 S1000
G1 F1000 X-1.9170 Y118.2881 Z-7.5000 S1000
G1 F1000 X-1.3376 Y118.6658 Z-7.5000 S1000
G1 F1000 X-0.6871 Y118.9008 Z-7.5000 S1000
G1 F1000 X0.0000 Y118.9805 Z-7.5000 S1000
G1 F1000 X19.0002 Y118.9805 Z-7.5000 S1000
G1 F1000 X19.0002 Y133.1536 Z-7.5000 S1000
G1 F1000 X19.0511 Y133.7036 Z-7.5000 S1000
G1 F1000 X19.2554 Y134.3644 Z-7.5000 S1000
G1 F1000 X19.6056 Y134.9608 Z-7.5000 S1000
G1 F1000 X20.0832 Y135.4612 Z-7.5000 S1000
G1 F1000 X20.6626 Y135.8389 Z-7.5000 S1000
G1 F1000 X21.3131 Y136.0739 Z-7.5000 S1000
G1 F1000 X22.0002 Y136.1536 Z-7.5000 S1000
G1 F1000 X150.2001 Y136.1536 Z-7.5000 S1000
G1 F1000 X150.7501 Y136.1027 Z-7.5000 S1000
G1 F1000 X151.4109 Y135.8984 Z-7.5000 S1000
G1 F1000 X152.0073 Y135.5482 Z-7.5000 S1000
G1 F1000 X152.5077 Y135.0706 Z-7.5000 S1000
G1 F1000 X152.8854 Y134.4912 Z-7.5000 S1000
G1 F1000 X153.1204 Y133.8407 Z-7.5000 S1000
G1 F1000 X153.2001 Y133.1536 Z-7.5000 S1000
G1 F1000 X153.2001 Y118.9805 Z-7.5000 S1000
G1 F1000 X172.1998 Y118.9805 Z-7.5000 S1000
G1 F1000 X172.7498 Y118.9296 Z-7.5000 S1000
G1 F1000 X173.4106 Y118.7253 Z-7.5000 S1000
G1 F1000 X174.0070 Y118.3751 Z-7.5000 S1000
G1 F1000 X174.5074 Y117.8975 Z-7.5000 S1000
G1 F1000 X174.8851 Y117.3181 Z-7.5000 S1000
G1 F1000 X175.1201 Y116.6676 Z-7.5000 S1000
G1 F1000 X175.1998 Y115.9805 Z-7.5000 S1000
G1 F1000 X175.1998 Y10.5766 Z-7.5000 S1000
G1 F1000 X175.1489 Y10.0266 Z-7.5000 S1000
G1 F1000 X174.9446 Y9.3658 Z-7.5000 S1000
G1 F1000 X174.5944 Y8.7694 Z-7.5000 S1000
G1 F1000 X174.1168 Y8.2690 Z-7.5000 S1000
G1 F1000 X173.5374 Y7.8913 Z-7.5000 S1000
G1 F1000 X172.8869 Y7.6563 Z-7.5000 S1000
G1 F1000 X172.1998 Y7.5766 Z-7.5000 S1000
G1 F1000 X153.2001 Y7.5766 Z-7.5000 S1000
G1 F1000 X153.2001 Y0.0000 Z-7.5000 S1000
G1 F1000 X153.1492 Y-0.5500 Z-7.5000 S1000
G1 F1000 X152.9449 Y-1.2108 Z-7.5000 S1000
G1 F1000 X152.5947 Y-1.8072 Z-7.5000 S1000
G1 F1000 X152.1171 Y-2.3076 Z-7.5000 S1000
G1 F1000 X151.5377 Y-2.6853 Z-7.5000 S1000
G1 F1000 X150.8872 Y-2.9203 Z-7.5000 S1000
G1 F1000 X150.2001 Y-3.0000 Z-7.5000 S1000
G1 F100 Z-9.0000
G1 F1000 X91.6001 Y-3.0000 Z-9.0000 S1000
G1 F1000 X91.6001 Y-3.0000 Z-6.0000 S1000
G1 F1000 X80.6001 Y-3.0000 Z-6.0000 S1000
G1 F1000 X80.6001 Y-3.0000 Z-9.0000 S1000
G1 F1000 X22.0002 Y-3.0000 Z-9.0000 S1000
G1 F1000 X22.0002 Y-3.0000 Z-9.0000 S1000
G1 F1000 X21.4502 Y-2.9491 Z-9.0000 S1000
G1 F1000 X20.7894 Y-2.7448 Z-9.0000 S1000
G1 F1000 X20.1930 Y-2.3946 Z-9.0000 S1000
G1 F1000 X19.6926 Y-1.9170 Z-9.0000 S1000
G1 F1000 X19.3149 Y-1.3376 Z-9.0000 S1000
G1 F1000 X19.0799 Y-0.6871 Z-9.0000 S1000
G1 F1000 X19.0002 Y0.0000 Z-9.0000 S1000
G1 F1000 X19.0002 Y7.5766 Z-9.0000 S1000
G1 F1000 X0.0000 Y7.5766 Z-9.0000 S1000
G1 F1000 X-0.5500 Y7.6275 Z-9.0000 S1000
G1 F1000 X-1.2108 Y7.8318 Z-9.0000 S1000
G1 F1000 X-1.8072 Y8.1820 Z-9.0000 S1000
G1 F1000 X-2.3076 Y8.6596 Z-9.0000 S1000
G1 F1000 X-2.6853 Y9.2390 Z-9.0000 S1000
G1 F1000 X-2.9203 Y9.8895 Z-9.0000 S1000
G1 F1000 X-3.0000 Y10.5766 Z-9.0000 S1000
G1 F1000 X-3.0000 Y57.7786 Z-9.0000 S1000
G1 F1000 X-3.0000 Y57.7786 Z-6.0000 S1000
G1 F1000 X-3.0000 Y68.7785 Z-6.0000 S1000
G1 F1000 X-3.0000 Y68.7785 Z-9.0000 S1000
G1 F1000 X-3.0000 Y115.9805 Z-9.0000 S1000
G1 F1000 X-3.0000 Y115.9805 Z-9.0000 S1000
G1 F1000 X-2.9491 Y116.5305 Z-9.0000 S1000
G1 F1000 X-2.7448 Y117.1913 Z-9.0000 S1000
G1 F1000 X-2.3946 Y117.7877 Z-9.0000 S1000
G1 F1000 X-1.9170 Y118.2881 Z-9.0000 S1000
G1 F1000 X-1.3376 Y118.6658 Z-9.0000 S1000
G1 F1000 X-0.6871 Y118.9008 Z-9.0000 S1000
G1 F1000 X0.0000 Y118.9805 Z-9.0000 S1000
G1 F1000 X19.0002 Y118.9805 Z-9.0000 S1000
G1 F1000 X19.0002 Y133.1536 Z-9.0000 S1000
G1 F1000 X19.0511 Y133.7036 Z-9.0000 S1000
G1 F1000 X19.2554 Y134.3644 Z-9.0000 S1000
G1 F1000 X19.6056 Y134.9608 Z-9.0000 S1000
G1 F1000 X20.0832 Y135.4612 Z-9.0000 S1000
G1 F1000 X20.6626 Y135.8389 Z-9.0000 S1000
G1 F1000 X21.3131 Y136.0739 Z-9.0000 S1000
G1 F1000 X22.0002 Y136.1536 Z-9.0000 S1000
G1 F1000 X150.2001 Y136.1536 Z-9.0000 S1000
G1 F1000 X150.7501 Y136.1027 Z-9.0000 S1000
G1 F1000 X151.4109 Y135.8984 Z-9.0000 S1000
G1 F1000 X152.0073 Y135.5482 Z-9.0000 S1000
G1 F1000 X152.5077 Y135.0706 Z-9.0000 S1000
G1 F1000 X152.8854 Y134.4912 Z-9.0000 S1000
G1 F1000 X153.1204 Y133.8407 Z-9.0000 S1000
G1 F1000 X153.2001 Y133.1536 Z-9.0000 S1000
G1 F1000 X153.2001 Y118.9805 Z-9.0000 S1000
G1 F1000 X172.1998 Y118.9805 Z-9.0000 S1000
G1 F1000 X172.7498 Y118.9296 Z-9.0000 S1000
G1 F1000 X173.4106 Y118.7253 Z-9.0000 S1000
G1 F1000 X174.0070 Y118.3751 Z-9.0000 S1000
G1 F1000 X174.5074 Y117.8975 Z-9.0000 S1000
G1 F1000 X174.8851 Y117.3181 Z-9.0000 S1000
G1 F1000 X175.1201 Y116.6676 Z-9.0000 S1000
G1 F1000 X175.1998 Y115.9805 Z-9.0000 S1000
G1 F1000 X175.1998 Y10.5766 Z-9.0000 S1000
G1 F1000 X175.1489 Y10.0266 Z-9.0000 S1000
G1 F1000 X174.9446 Y9.3658 Z-9.0000 S1000
G1 F1000 X174.5944 Y8.7694 Z-9.0000 S1000
G1 F1000 X174.1168 Y8.2690 Z-9.0000 S1000
G1 F1000 X173.5374 Y7.8913 Z-9.0000 S1000
G1 F1000 X172.8869 Y7.6563 Z-9.0000 S1000
G1 F1000 X172.1998 Y7.5766 Z-9.0000 S1000
G1 F1000 X153.2001 Y7.5766 Z-9.0000 S1000
G1 F1000 X153.2001 Y0.0000 Z-9.0000 S1000
G1 F1000 X153.1492 Y-0.5500 Z-9.0000 S1000
G1 F1000 X152.9449 Y-1.2108 Z-9.0000 S1000
G1 F1000 X152.5947 Y-1.8072 Z-9.0000 S1000
G1 F1000 X152.1171 Y-2.3076 Z-9.0000 S1000
G1 F1000 X151.5377 Y-2.6853 Z-9.0000 S1000
G1 F1000 X150.8872 Y-2.9203 Z-9.0000 S1000
G1 F1000 X150.2001 Y-3.0000 Z-9.0000 S1000
; retracting back to z-safe
G0 Z10

M5 S0; Spindle Off
