<?xml version="1.0" encoding="UTF-8" standalone="no"?>
<!-- Created with Inkscape (http://www.inkscape.org/) -->

<svg
   xmlns:dc="http://purl.org/dc/elements/1.1/"
   xmlns:cc="http://creativecommons.org/ns#"
   xmlns:rdf="http://www.w3.org/1999/02/22-rdf-syntax-ns#"
   xmlns:svg="http://www.w3.org/2000/svg"
   xmlns="http://www.w3.org/2000/svg"
   xmlns:sodipodi="http://sodipodi.sourceforge.net/DTD/sodipodi-0.dtd"
   xmlns:inkscape="http://www.inkscape.org/namespaces/inkscape"
   width="172.19983mm"
   height="133.15363mm"
   viewBox="0 0 172.19983 133.15363"
   version="1.1"
   id="svg1184"
   inkscape:version="0.92.5 (2060ec1f9f, 2020-04-08)"
   sodipodi:docname="support_udoo_prod.svg">
  <defs
     id="defs1178" />
  <sodipodi:namedview
     id="base"
     pagecolor="#ffffff"
     bordercolor="#666666"
     borderopacity="1.0"
     inkscape:pageopacity="0.0"
     inkscape:pageshadow="2"
     inkscape:zoom="5.6"
     inkscape:cx="-6.8173586"
     inkscape:cy="83.186142"
     inkscape:document-units="mm"
     inkscape:current-layer="layer1"
     showgrid="false"
     fit-margin-top="0"
     fit-margin-left="0"
     fit-margin-right="0"
     fit-margin-bottom="0"
     inkscape:window-width="1872"
     inkscape:window-height="1016"
     inkscape:window-x="48"
     inkscape:window-y="27"
     inkscape:window-maximized="1" />
  <metadata
     id="metadata1181">
    <rdf:RDF>
      <cc:Work
         rdf:about="">
        <dc:format>image/svg+xml</dc:format>
        <dc:type
           rdf:resource="http://purl.org/dc/dcmitype/StillImage" />
        <dc:title />
      </cc:Work>
    </rdf:RDF>
  </metadata>
  <g
     inkscape:label="Calque 1"
     inkscape:groupmode="layer"
     id="layer1"
     transform="translate(326.49277,53.058958)">
    <rect
       y="-41.266376"
       x="-326.49277"
       height="115.71567"
       width="15.000001"
       id="rect841"
       style="opacity:0.49000005;fill:#ff2a2a;stroke-width:0.12504326" />
    <path
       inkscape:connector-curvature="0"
       style="opacity:0.49000005;fill:#666666;stroke-width:0.43314776"
       d="m -304.49256,-53.058958 v 17.173099 h -22.00021 V 69.518052 h 22.00021 v 10.57662 h 128.19991 v -10.57662 h 21.99971 V -35.885859 h -21.99971 v -17.173099 z"
       id="rect895" />
    <circle
       cy="-7.8921604"
       cx="-320.39282"
       id="circle3744"
       style="fill:#ffff00;stroke-width:0.02645833"
       r="1.5" />
    <circle
       r="1.5"
       style="fill:#ffff00;stroke-width:0.02645833"
       id="circle3746"
       cx="-160.39281"
       cy="-7.8921604" />
    <circle
       r="1.5"
       style="fill:#ffff00;stroke-width:0.02645833"
       id="circle3748"
       cx="-320.39282"
       cy="52.10783" />
    <circle
       cy="52.10783"
       cx="-160.39281"
       id="circle3750"
       style="fill:#ffff00;stroke-width:0.02645833"
       r="1.5" />
    <path
       id="path23699"
       style="fill:#4d4d4d;stroke:#000000;stroke-width:0.15875003;stroke-linecap:round"
       d="m -278.22385,58.615492 a 1.5875,1.5875 0 1 0 0,-3.175 1.5875,1.5875 0 1 0 0,3.175 z"
       inkscape:connector-curvature="0" />
    <path
       id="path23701"
       style="fill:#4d4d4d;stroke:#000000;stroke-width:0.15875003;stroke-linecap:round"
       d="m -278.22385,-44.384506 a 1.5875,1.5875 0 1 0 0,-3.175 1.5875,1.5875 0 1 0 0,3.175 z"
       inkscape:connector-curvature="0" />
    <path
       id="path23703"
       style="fill:#4d4d4d;stroke:#000000;stroke-width:0.15875003;stroke-linecap:round"
       d="m -197.76704,-22.648506 a 1.5875004,1.5875004 0 1 0 0,-3.175 1.5875004,1.5875004 0 1 0 0,3.175 z"
       inkscape:connector-curvature="0" />
    <path
       id="path23705"
       style="fill:#4d4d4d;stroke:#000000;stroke-width:0.15875003;stroke-linecap:round"
       d="m -202.72384,50.615492 a 1.5875,1.5875 0 1 0 0,-3.175 1.5875,1.5875 0 1 0 0,3.175 z"
       inkscape:connector-curvature="0" />
    <path
       id="path23707"
       style="fill:#4d4d4d;stroke:#000000;stroke-width:0.15875003;stroke-linecap:round"
       d="m -246.02705,-23.918506 a 1.5875,1.5875 0 1 0 0,-3.175 1.5875,1.5875 0 1 0 0,3.175 z"
       inkscape:connector-curvature="0" />
    <path
       id="path23709"
       style="fill:#4d4d4d;stroke:#000000;stroke-width:0.15875003;stroke-linecap:round"
       d="m -197.76704,52.281492 a 1.5875,1.5875 0 1 0 0,-3.175 1.5875,1.5875 0 1 0 0,3.175 z"
       inkscape:connector-curvature="0" />
    <path
       id="path23711"
       style="fill:#4d4d4d;stroke:#000000;stroke-width:0.15875003;stroke-linecap:round"
       d="m -246.02705,58.631492 a 1.5875,1.5875 0 1 0 0,-3.175 1.5875,1.5875 0 1 0 0,3.175 z"
       inkscape:connector-curvature="0" />
    <path
       id="path23723"
       style="fill:#4d4d4d;stroke:#000000;stroke-width:0.15875003;stroke-linecap:round"
       d="m -200.28084,-33.162316 a 1.5875,1.5875 0 1 0 0,-0.619381"
       inkscape:connector-curvature="0" />
    <circle
       r="1.5"
       style="fill:#ffff00;stroke-width:0.02645833"
       id="circle3744-7"
       cx="-240.35181"
       cy="-46.067516" />
    <circle
       cy="-46.067516"
       cx="-202.39281"
       id="circle23642"
       style="fill:#ffff00;stroke-width:0.02645833"
       r="1.5" />
    <g
       id="g935"
       transform="translate(828.97203,-209.65529)">
      <circle
         r="1.5"
         style="fill:#ffff00;stroke-width:0.02645833"
         id="circle931"
         cx="-1107.3649"
         cy="284.02277" />
      <circle
         cy="284.02277"
         cx="-1031.3649"
         id="circle933"
         style="fill:#ffff00;stroke-width:0.02645833"
         r="1.5" />
    </g>
    <circle
       cy="16.816156"
       cx="-177.42223"
       id="circle1042"
       style="fill:#ffff00;stroke-width:0.02645833"
       r="1.5" />
    <rect
       style="opacity:0.49000005;fill:#ff2a2a;stroke-width:0.12504326"
       id="rect843"
       width="15.000001"
       height="115.71567"
       x="-169.29294"
       y="-41.266376" />
    <rect
       y="-310.27783"
       x="38.058956"
       height="139.76993"
       width="15.000001"
       id="rect845"
       style="opacity:0.49000005;fill:#ff2a2a;stroke-width:0.13742669"
       transform="rotate(-90)" />
    <rect
       transform="rotate(-90)"
       style="opacity:0.49000005;fill:#ff2a2a;stroke-width:0.13742669"
       id="rect847"
       width="15.000001"
       height="139.76993"
       x="-80.094673"
       y="-310.27783" />
    <rect
       style="opacity:0.49000005;fill:#ff2a2a;stroke-width:0.11812265"
       id="rect849"
       width="6.8035698"
       height="27.606676"
       x="-326.42365"
       y="52.487999" />
  </g>
</svg>
