<?xml version="1.0" encoding="UTF-8" standalone="no"?>
<!-- Created with Inkscape (http://www.inkscape.org/) -->
<svg id="svg3571" xmlns:rdf="http://www.w3.org/1999/02/22-rdf-syntax-ns#" xmlns="http://www.w3.org/2000/svg" height="34mm" viewBox="0 0 243.95566 120.47031" width="68.85mm" version="1.1" xmlns:cc="http://creativecommons.org/ns#" xmlns:dc="http://purl.org/dc/elements/1.1/">
 <metadata id="metadata3576">
  <rdf:RDF>
   <cc:Work rdf:about="">
    <dc:format>image/svg+xml</dc:format>
    <dc:type rdf:resource="http://purl.org/dc/dcmitype/StillImage"/>
    <dc:title/>
   </cc:Work>
  </rdf:RDF>
 </metadata>
 <path id="rect5933" fill="#6b6b6b" d="m21.26-0.00090408v7.086h-21.26c0 26.015 47.336 27.685 47.336 54.82s-47.336 25.463-47.336 51.475h21.26v7.0879h21.26v-7.0879h19.842c8.72 0 4.4681-43.291 59.617-43.291s50.897 43.291 59.617 43.291h19.842v7.0879h21.26v-7.0879h21.26c0-26.015-45.664-26.851-45.664-53.986s45.664-26.297 45.664-52.312h-21.26v-7.086h-21.26v7.086h-19.842c-8.72 0-4.4681 43.291-59.617 43.291s-50.897-43.291-59.617-43.291h-19.842v-7.086z"/>
</svg>
