<?xml version="1.0" encoding="UTF-8" standalone="no"?>
<!-- Created with Inkscape (http://www.inkscape.org/) -->

<svg
   xmlns:dc="http://purl.org/dc/elements/1.1/"
   xmlns:cc="http://creativecommons.org/ns#"
   xmlns:rdf="http://www.w3.org/1999/02/22-rdf-syntax-ns#"
   xmlns:svg="http://www.w3.org/2000/svg"
   xmlns="http://www.w3.org/2000/svg"
   xmlns:sodipodi="http://sodipodi.sourceforge.net/DTD/sodipodi-0.dtd"
   xmlns:inkscape="http://www.inkscape.org/namespaces/inkscape"
   id="svg3571"
   height="239.59721mm"
   viewBox="0 0 234.74903 848.94966"
   width="66.251762mm"
   version="1.1"
   inkscape:version="0.91 r13725"
   sodipodi:docname="colonne.svg">
  <defs
     id="defs4634" />
  <sodipodi:namedview
     pagecolor="#ffffff"
     bordercolor="#666666"
     borderopacity="1"
     objecttolerance="10"
     gridtolerance="10"
     guidetolerance="10"
     inkscape:pageopacity="0"
     inkscape:pageshadow="2"
     inkscape:window-width="708"
     inkscape:window-height="480"
     id="namedview4632"
     showgrid="false"
     inkscape:showpageshadow="false"
     fit-margin-top="0"
     fit-margin-left="0"
     fit-margin-right="0"
     fit-margin-bottom="0"
     inkscape:zoom="0.3803143"
     inkscape:cx="117.37517"
     inkscape:cy="424.48322"
     inkscape:window-x="790"
     inkscape:window-y="140"
     inkscape:window-maximized="0"
     inkscape:current-layer="svg3571" />
  <metadata
     id="metadata3576">
    <rdf:RDF>
      <cc:Work
         rdf:about="">
        <dc:format>image/svg+xml</dc:format>
        <dc:type
           rdf:resource="http://purl.org/dc/dcmitype/StillImage" />
        <dc:title></dc:title>
      </cc:Work>
    </rdf:RDF>
  </metadata>
  <g
     transform="matrix(0.99999428,0,0,0.99999428,-689.00635,-1116.2886)"
     id="g6133">
    <path
       sodipodi:nodetypes="ccccsccscccsssccsccccccsssscc"
       inkscape:connector-curvature="0"
       id="path8181"
       d="m 731.98422,1116.3042 c -14.5138,0.3664 -20.8603,6.7898 -24.7871,17.0234 -3.8185,9.4467 -0.7101,21.3032 3.7285,30.0859 29.905,58.7069 -22.7165,71.4868 -13.6415,99.4278 77.7845,134.7268 27.8817,171.6716 18.5985,209.5039 -6.3686,25.9544 -11.9695,69.1167 -0.3652,116.4316 0.7388,3.0127 0.3945,17.8399 0.3945,17.8399 0.7071,24.3952 15.7534,39.1261 16.8887,62.0019 1.4118,28.4481 -15.0275,36.0365 -16.2603,58.4211 -0.4859,1.6084 -0.1209,5.8281 -0.4702,7.5692 1.1557,64.5636 -10.6784,58.0262 -25.6324,90.0064 -11.7001,33.3723 53.7064,19.589 8.7095,93.935 -10.1877,16.8326 3.3176,45.0051 29.1941,46.6311 26.2968,1.6524 27.2452,-22.9356 78.764,-23.0843 32.3203,-0.093 45.9856,20.1128 69.0937,19.5313 27.9674,-1.5923 35.0939,-26.315 25.0626,-47.1094 -36.2691,-66.4851 28.5091,-70.5699 22.041,-99.049 -8.952,-39.416 -54.4707,-5.7043 -30.3047,-81.033 l 1.41421,-6.7304 c 11.8287,-60.6837 -2.28251,-91.9026 -1.56851,-120.8927 0,-17.9063 -17.2459,-46.3761 -17.2786,-70.6555 0.01,-23.8481 15.7949,-41.0407 17.3001,-53.6511 0.5998,-5.7012 0.08,-13.4148 0.08,-21.1895 -41.1281,-87.9845 -23.689,-109.9985 13.8148,-206.7972 12.776,-32.9754 -65.9252,-23.7657 -4.7091,-92.4816 11.1262,-12.4894 1.106,-40.9602 -24.7443,-42.9594 -34.2968,-2.6524 -21.1742,22.1426 -72.693,22.2913 -32.3185,0.093 -49.5196,-25.6456 -72.6254,-25.0667 z"
       style="display:inline;opacity:1;fill:#6b6b6b;fill-opacity:1;stroke:none;stroke-width:1;stroke-miterlimit:4;stroke-dasharray:none;stroke-dashoffset:0;stroke-opacity:1" />
    <path
       style="display:inline;opacity:1;fill:#ffffff;fill-opacity:1;stroke:none;stroke-width:1;stroke-miterlimit:4;stroke-dasharray:none;stroke-dashoffset:0;stroke-opacity:1"
       d="m 877.54672,1153.8524 a 10.629921,10.629921 0 0 0 10.6298,-10.6299 10.629921,10.629921 0 0 0 -10.6298,-10.6299 10.629921,10.629921 0 0 0 -10.6299,10.6299 10.629921,10.629921 0 0 0 10.6299,10.6299 z"
       id="path8163"
       inkscape:connector-curvature="0" />
    <path
       style="display:inline;opacity:1;fill:#ffffff;fill-opacity:1;stroke:none;stroke-width:1;stroke-miterlimit:4;stroke-dasharray:none;stroke-dashoffset:0;stroke-opacity:1"
       d="m 732.27122,1153.8524 a 10.629921,10.629921 0 0 0 10.6299,-10.6299 10.629921,10.629921 0 0 0 -10.6299,-10.6299 10.629921,10.629921 0 0 0 -10.6299,10.6299 10.629921,10.629921 0 0 0 10.6299,10.6299 z"
       id="path8165"
       inkscape:connector-curvature="0" />
    <path
       style="display:inline;opacity:1;fill:#ffffff;fill-opacity:1;stroke:none;stroke-width:1;stroke-miterlimit:4;stroke-dasharray:none;stroke-dashoffset:0;stroke-opacity:1"
       d="m 877.54672,1263.6948 a 10.629921,10.629921 0 0 0 10.6298,-10.6299 10.629921,10.629921 0 0 0 -10.6298,-10.6299 10.629921,10.629921 0 0 0 -10.6299,10.6299 10.629921,10.629921 0 0 0 10.6299,10.6299 z"
       id="path8167"
       inkscape:connector-curvature="0" />
    <path
       style="display:inline;opacity:1;fill:#ffffff;fill-opacity:1;stroke:none;stroke-width:1;stroke-miterlimit:4;stroke-dasharray:none;stroke-dashoffset:0;stroke-opacity:1"
       d="m 732.27122,1263.6948 a 10.629921,10.629921 0 0 0 10.6299,-10.6299 10.629921,10.629921 0 0 0 -10.6299,-10.6299 10.629921,10.629921 0 0 0 -10.6299,10.6299 10.629921,10.629921 0 0 0 10.6299,10.6299 z"
       id="path8169"
       inkscape:connector-curvature="0" />
    <path
       id="path8171"
       d="m 804.90892,1230.7421 a 32.598466,32.598306 0 0 0 32.5985,-32.5986 32.598466,32.598306 0 0 0 -32.5985,-32.5983 32.598466,32.598306 0 0 0 -32.5984,32.5983 32.598466,32.598306 0 0 0 32.5984,32.5986 z"
       style="display:inline;opacity:1;fill:#ffffff;fill-opacity:1;stroke:none;stroke-width:1;stroke-miterlimit:4;stroke-dasharray:none;stroke-dashoffset:0;stroke-opacity:1"
       inkscape:connector-curvature="0" />
    <path
       inkscape:connector-curvature="0"
       transform="scale(1,-1)"
       style="opacity:1;fill:#ffffff;fill-opacity:1;stroke:none;stroke-width:23.10944939;stroke-linecap:round;stroke-linejoin:miter;stroke-miterlimit:4;stroke-dasharray:none;stroke-dashoffset:0;stroke-opacity:1"
       d="m 815.0485,-1667.1178 a 10.629921,10.629921 0 0 1 -10.62992,10.6299 10.629921,10.629921 0 0 1 -10.62992,-10.6299 10.629921,10.629921 0 0 1 10.62992,-10.6299 10.629921,10.629921 0 0 1 10.62992,10.6299 z"
       id="circle8177" />
    <path
       inkscape:connector-curvature="0"
       transform="scale(1,-1)"
       style="opacity:1;fill:#ffffff;fill-opacity:1;stroke:none;stroke-width:23.10944939;stroke-linecap:round;stroke-linejoin:miter;stroke-miterlimit:4;stroke-dasharray:none;stroke-dashoffset:0;stroke-opacity:1"
       d="m 815.0485,-1539.5587 a 10.629921,10.629921 0 0 1 -10.62992,10.6299 10.629921,10.629921 0 0 1 -10.62992,-10.6299 10.629921,10.629921 0 0 1 10.62992,-10.6299 10.629921,10.629921 0 0 1 10.62992,10.6299 z"
       id="circle8179" />
    <path
       inkscape:connector-curvature="0"
       id="path8183"
       d="m 877.54672,1837.7106 a 10.629921,10.629921 0 0 0 10.6298,-10.6299 10.629921,10.629921 0 0 0 -10.6298,-10.6299 10.629921,10.629921 0 0 0 -10.6299,10.6299 10.629921,10.629921 0 0 0 10.6299,10.6299 z"
       style="display:inline;opacity:1;fill:#ffffff;fill-opacity:1;stroke:none;stroke-width:1;stroke-miterlimit:4;stroke-dasharray:none;stroke-dashoffset:0;stroke-opacity:1" />
    <path
       inkscape:connector-curvature="0"
       id="path8185"
       d="m 732.27122,1837.7106 a 10.629921,10.629921 0 0 0 10.6299,-10.6299 10.629921,10.629921 0 0 0 -10.6299,-10.6299 10.629921,10.629921 0 0 0 -10.6299,10.6299 10.629921,10.629921 0 0 0 10.6299,10.6299 z"
       style="display:inline;opacity:1;fill:#ffffff;fill-opacity:1;stroke:none;stroke-width:1;stroke-miterlimit:4;stroke-dasharray:none;stroke-dashoffset:0;stroke-opacity:1" />
    <path
       inkscape:connector-curvature="0"
       id="path8187"
       d="m 877.54672,1947.553 a 10.629921,10.629921 0 0 0 10.6298,-10.6299 10.629921,10.629921 0 0 0 -10.6298,-10.6299 10.629921,10.629921 0 0 0 -10.6299,10.6299 10.629921,10.629921 0 0 0 10.6299,10.6299 z"
       style="display:inline;opacity:1;fill:#ffffff;fill-opacity:1;stroke:none;stroke-width:1;stroke-miterlimit:4;stroke-dasharray:none;stroke-dashoffset:0;stroke-opacity:1" />
    <path
       inkscape:connector-curvature="0"
       id="path8189"
       d="m 732.27122,1947.553 a 10.629921,10.629921 0 0 0 10.6299,-10.6299 10.629921,10.629921 0 0 0 -10.6299,-10.6299 10.629921,10.629921 0 0 0 -10.6299,10.6299 10.629921,10.629921 0 0 0 10.6299,10.6299 z"
       style="display:inline;opacity:1;fill:#ffffff;fill-opacity:1;stroke:none;stroke-width:1;stroke-miterlimit:4;stroke-dasharray:none;stroke-dashoffset:0;stroke-opacity:1" />
    <path
       inkscape:connector-curvature="0"
       style="display:inline;opacity:1;fill:#ffffff;fill-opacity:1;stroke:none;stroke-width:1;stroke-miterlimit:4;stroke-dasharray:none;stroke-dashoffset:0;stroke-opacity:1"
       d="m 804.90892,1914.6003 a 32.598466,32.598306 0 0 0 32.5985,-32.5986 32.598466,32.598306 0 0 0 -32.5985,-32.5983 32.598466,32.598306 0 0 0 -32.5984,32.5983 32.598466,32.598306 0 0 0 32.5984,32.5986 z"
       id="path8191" />
    <path
       style="opacity:1;fill:#ffffff;fill-opacity:1;stroke:none;stroke-width:23.10944939;stroke-linecap:round;stroke-linejoin:miter;stroke-miterlimit:4;stroke-dasharray:none;stroke-dashoffset:0;stroke-opacity:1"
       d="m 809.75675,1440.7239 c 32.4619,-1.0349 6.4824,-77.694 26.61408,-115.9658 27.05396,-51.4315 -82.1799,-53.2584 -62.22551,9.6944 l 13.612,42.9436 c 9.6606,30.4775 -26.90747,64.887 21.99943,63.3278 z"
       id="path8217"
       inkscape:connector-curvature="0"
       sodipodi:nodetypes="sssss" />
    <path
       sodipodi:nodetypes="zscsz"
       style="opacity:1;fill:#ffffff;fill-opacity:1;stroke:none;stroke-width:21.96850395;stroke-linecap:round;stroke-linejoin:miter;stroke-miterlimit:4;stroke-dasharray:none;stroke-dashoffset:0;stroke-opacity:1"
       d="m 807.35394,1816.5375 c -29.97772,2.9882 -18.40247,-14.846 -26.93561,-26.9019 -17.71289,-25.0254 -14.73176,-34.2426 24.96074,-35.1362 20.5045,0.1865 50.41156,0.6308 31.45348,28.0402 -13.38166,19.3471 0.49911,31.0097 -29.47861,33.9979 z"
       id="path8269"
       inkscape:connector-curvature="0" />
    <path
       inkscape:connector-curvature="0"
       transform="scale(1,-1)"
       style="opacity:1;fill:#ffffff;fill-opacity:1;stroke:none;stroke-width:23.10944939;stroke-linecap:round;stroke-linejoin:miter;stroke-miterlimit:4;stroke-dasharray:none;stroke-dashoffset:0;stroke-opacity:1"
       d="m 746.14124,-1479.3224 21.25984,0 0,7.0866 -21.25984,0 z"
       id="rect8173" />
    <path
       inkscape:connector-curvature="0"
       transform="scale(1,-1)"
       style="opacity:1;fill:#ffffff;fill-opacity:1;stroke:none;stroke-width:23.10944939;stroke-linecap:round;stroke-linejoin:miter;stroke-miterlimit:4;stroke-dasharray:none;stroke-dashoffset:0;stroke-opacity:1"
       d="m 841.42078,-1479.3224 21.25984,0 0,7.0866 -21.25984,0 z"
       id="rect8175" />
    <path
       inkscape:connector-curvature="0"
       transform="scale(1,-1)"
       style="opacity:1;fill:#ffffff;fill-opacity:1;stroke:none;stroke-width:23.10944939;stroke-linecap:round;stroke-linejoin:miter;stroke-miterlimit:4;stroke-dasharray:none;stroke-dashoffset:0;stroke-opacity:1"
       d="m 746.14124,-1606.8815 21.25984,0 0,7.0866 -21.25984,0 z"
       id="rect8221" />
    <path
       inkscape:connector-curvature="0"
       transform="scale(1,-1)"
       style="opacity:1;fill:#ffffff;fill-opacity:1;stroke:none;stroke-width:23.10944939;stroke-linecap:round;stroke-linejoin:miter;stroke-miterlimit:4;stroke-dasharray:none;stroke-dashoffset:0;stroke-opacity:1"
       d="m 841.42078,-1606.8815 21.25984,0 0,7.0866 -21.25984,0 z"
       id="rect8223" />
    <path
       inkscape:connector-curvature="0"
       transform="scale(1,-1)"
       style="opacity:1;fill:#ffffff;fill-opacity:1;stroke:none;stroke-width:23.10944939;stroke-linecap:round;stroke-linejoin:miter;stroke-miterlimit:4;stroke-dasharray:none;stroke-dashoffset:0;stroke-opacity:1"
       d="m 746.14124,-1734.4406 21.25984,0 0,7.0867 -21.25984,0 z"
       id="rect8227" />
    <path
       inkscape:connector-curvature="0"
       transform="scale(1,-1)"
       style="opacity:1;fill:#ffffff;fill-opacity:1;stroke:none;stroke-width:23.10944939;stroke-linecap:round;stroke-linejoin:miter;stroke-miterlimit:4;stroke-dasharray:none;stroke-dashoffset:0;stroke-opacity:1"
       d="m 841.42078,-1734.4406 21.25984,0 0,7.0867 -21.25984,0 z"
       id="rect8229" />
  </g>
  <path
     sodipodi:nodetypes="cssscc"
     style="opacity:1;fill:#ffffff;fill-opacity:1;stroke:none;stroke-width:21.96850395;stroke-linecap:round;stroke-linejoin:miter;stroke-miterlimit:4;stroke-dasharray:none;stroke-dashoffset:0;stroke-opacity:1"
     d="m 158.01466,565.75838 c 21.03835,-21.26018 -9.86706,-49.23152 4.49313,-53.3518 17.2688,-4.95497 24.12293,8.46825 21.0386,31.60152 -1.98826,14.91241 -0.0529,37.10459 -20.11839,46.68303 -14.68843,7.01156 -17.16623,-13.05582 -5.41335,-24.93275 z"
     id="path7397-2"
     inkscape:connector-curvature="0" />
  <path
     inkscape:connector-curvature="0"
     id="path11009"
     d="m 80.991538,544.0482 c -11.210846,20.61798 20.857732,42.80895 -2.048709,37.17329 -10.50397,-2.58429 -18.275165,-23.24077 -11.482714,-43.73895 3.739459,-11.28494 -2.782664,-27.50525 19.21737,-27.68304 12.536548,-0.1013 0.576847,22.73057 -5.685947,34.2487 z"
     style="opacity:1;fill:#ffffff;fill-opacity:1;stroke:none;stroke-width:21.96850395;stroke-linecap:round;stroke-linejoin:miter;stroke-miterlimit:4;stroke-dasharray:none;stroke-dashoffset:0;stroke-opacity:1"
     sodipodi:nodetypes="csssc" />
  <g
     id="g11015"
     transform="matrix(0.99999428,0,0,-0.99999428,-698.42289,2087.0855)">
    <path
       sodipodi:nodetypes="csssc"
       style="opacity:1;fill:#ffffff;fill-opacity:1;stroke:none;stroke-width:21.96850395;stroke-linecap:round;stroke-linejoin:miter;stroke-miterlimit:4;stroke-dasharray:none;stroke-dashoffset:0;stroke-opacity:1"
       d="m 845.32557,1680.7479 c 15.84188,-14.7067 -13.97471,-47.0912 6.24093,-53.7164 12.22327,-4.0059 20.92911,36.189 9.30009,51.7843 -6.40215,8.5856 9.7955,32.4214 -11.07502,27.6479 -11.8929,-2.72 -13.31591,-17.5 -4.466,-25.7158 z"
       id="path11011"
       inkscape:connector-curvature="0" />
    <path
       inkscape:connector-curvature="0"
       id="path11013"
       d="m 776.41708,1644.4052 c -21.07566,9.5635 4.43674,59.2023 -14.3489,58.7561 -14.2672,-0.3389 -20.35849,-23.9465 -13.86653,-44.5419 5.5051,-17.4647 0.80772,-34.9422 22.80788,-35.12 12.53662,-0.1013 15.54637,13.3228 5.40755,20.9058 z"
       style="opacity:1;fill:#ffffff;fill-opacity:1;stroke:none;stroke-width:21.96850395;stroke-linecap:round;stroke-linejoin:miter;stroke-miterlimit:4;stroke-dasharray:none;stroke-dashoffset:0;stroke-opacity:1"
       sodipodi:nodetypes="csssc" />
  </g>
</svg>
