<?xml version="1.0" encoding="UTF-8" standalone="no"?>
<!-- Created with Inkscape (http://www.inkscape.org/) -->

<svg
   xmlns:dc="http://purl.org/dc/elements/1.1/"
   xmlns:cc="http://creativecommons.org/ns#"
   xmlns:rdf="http://www.w3.org/1999/02/22-rdf-syntax-ns#"
   xmlns:svg="http://www.w3.org/2000/svg"
   xmlns="http://www.w3.org/2000/svg"
   xmlns:sodipodi="http://sodipodi.sourceforge.net/DTD/sodipodi-0.dtd"
   xmlns:inkscape="http://www.inkscape.org/namespaces/inkscape"
   id="svg3571"
   height="27.712376mm"
   viewBox="0 0 269.72499 98.191504"
   width="76.12281mm"
   version="1.1"
   inkscape:version="0.91 r13725"
   sodipodi:docname="fixation2-60.svg">
  <defs
     id="defs4634" />
  <sodipodi:namedview
     pagecolor="#ffffff"
     bordercolor="#666666"
     borderopacity="1"
     objecttolerance="10"
     gridtolerance="10"
     guidetolerance="10"
     inkscape:pageopacity="0"
     inkscape:pageshadow="2"
     inkscape:window-width="708"
     inkscape:window-height="480"
     id="namedview4632"
     showgrid="false"
     inkscape:showpageshadow="false"
     fit-margin-top="0"
     fit-margin-left="0"
     fit-margin-right="0"
     fit-margin-bottom="0"
     inkscape:zoom="0.3803143"
     inkscape:cx="267.10179"
     inkscape:cy="2.1657662"
     inkscape:window-x="790"
     inkscape:window-y="140"
     inkscape:window-maximized="0"
     inkscape:current-layer="svg3571" />
  <metadata
     id="metadata3576">
    <rdf:RDF>
      <cc:Work
         rdf:about="">
        <dc:format>image/svg+xml</dc:format>
        <dc:type
           rdf:resource="http://purl.org/dc/dcmitype/StillImage" />
        <dc:title></dc:title>
      </cc:Work>
    </rdf:RDF>
  </metadata>
  <g
     transform="matrix(0.9999944,0,0,0.9999944,-1712.7289,-1720.428)"
     id="g6305">
    <path
       style="opacity:1;fill:#6b6b6b;fill-opacity:1;stroke:none;stroke-width:56.69291306;stroke-miterlimit:4;stroke-dasharray:none;stroke-dashoffset:0;stroke-opacity:1"
       d="m 1712.7385,1791.9347 c 0.1335,16.2182 24.9186,30.1065 42.3281,25.9473 18.8272,-33.407 54.1881,-54.0841 92.5351,-54.1094 38.3093,0.054 73.6263,20.7166 92.4434,54.086 17.4113,4.2306 42.3646,-9.6766 42.4199,-25.9239 -0.1612,-29.0231 -66.4438,-71.5012 -134.7433,-71.5012 -68.2995,0 -133.9248,39.8876 -134.9832,71.5012 z"
       id="path19048"
       inkscape:connector-curvature="0"
       sodipodi:nodetypes="ccccczc" />
    <path
       inkscape:connector-curvature="0"
       style="opacity:1;fill:#ffffff;fill-opacity:1;stroke:none;stroke-width:7.08661413;stroke-linecap:square;stroke-linejoin:miter;stroke-miterlimit:4;stroke-dasharray:none;stroke-dashoffset:0;stroke-opacity:1"
       d="m 1749.4582,1786.2115 a 10.629921,10.629921 0 0 1 -10.63,10.63 10.629921,10.629921 0 0 1 -10.6299,-10.63 10.629921,10.629921 0 0 1 10.6299,-10.6299 10.629921,10.629921 0 0 1 10.63,10.6299 z"
       id="circle19050" />
    <path
       inkscape:connector-curvature="0"
       style="opacity:1;fill:#ffffff;fill-opacity:1;stroke:none;stroke-width:7.08661413;stroke-linecap:square;stroke-linejoin:miter;stroke-miterlimit:4;stroke-dasharray:none;stroke-dashoffset:0;stroke-opacity:1"
       d="m 1961.4582,1785.6573 a 10.629921,10.629921 0 0 1 -10.63,10.63 10.629921,10.629921 0 0 1 -10.6299,-10.63 10.629921,10.629921 0 0 1 10.6299,-10.6299 10.629921,10.629921 0 0 1 10.63,10.6299 z"
       id="circle19052" />
    <path
       sodipodi:nodetypes="csssc"
       style="opacity:1;fill:#ffffff;fill-opacity:1;stroke:none;stroke-width:21.96850395;stroke-linecap:round;stroke-linejoin:miter;stroke-miterlimit:4;stroke-dasharray:none;stroke-dashoffset:0;stroke-opacity:1"
       d="m 1865.5981,1749.4782 c -52.3725,-9.3582 -101.3291,36.9067 -109.9329,22.6199 -8.9849,-14.9197 56.4953,-44.4109 101.8378,-35.3746 59.9952,11.9565 81.8567,15.6022 74.2871,34.8569 -6.0733,15.4488 -38.9163,-15.3974 -66.192,-22.1022 z"
       id="path4561"
       inkscape:connector-curvature="0" />
  </g>
</svg>
