<?xml version="1.0" encoding="UTF-8" standalone="no"?>
<!-- Created with Inkscape (http://www.inkscape.org/) -->
<svg id="svg3571" xmlns:rdf="http://www.w3.org/1999/02/22-rdf-syntax-ns#" xmlns="http://www.w3.org/2000/svg" height="256.96mm" viewBox="0 0 124.26129 910.4713" width="35.069mm" version="1.1" xmlns:cc="http://creativecommons.org/ns#" xmlns:dc="http://purl.org/dc/elements/1.1/">
 <metadata id="metadata3576">
  <rdf:RDF>
   <cc:Work rdf:about="">
    <dc:format>image/svg+xml</dc:format>
    <dc:type rdf:resource="http://purl.org/dc/dcmitype/StillImage"/>
    <dc:title/>
   </cc:Work>
  </rdf:RDF>
 </metadata>
 <g id="g6239" transform="matrix(.99999 0 0 .99999 1415.9 -1106.4)">
  <path id="path5718" d="m-1395.6 1106.4c-9.7848 0.001-17.716 7.934-17.715 17.719 11.357 50.24-6.4981 82.557-1.8477 104.9 41.13 112.51 38.149 620.88 36.96 703.71 39.718 41.113 0.2968 28.736 1.1005 49.464 0.1438 19.31 7.9145 34.847 27.225 34.703 19.309-0.1439 28.346-22.413 28.203-41.723-23.064-31.509-9.0235-16.362 3.5-46.5-18.035-45.925-28.489-529.38-9.8047-581.47 4.5-8.75 16.703-2.4453 16.703-2.4453 0.6202 0.067 1.2434 0.1019 1.8672 0.1035 9.7848 0.0001 17.717-7.932 17.717-17.717 0.0002-9.7848-7.932-17.717-17.717-17.717-2.0299 0.01-2.0436 1.8621-5.9531 1.0508-20.167-3.2471-26.76-13.141-26.768-82.17-1.5235-30.864-14.619-39.982-24.092-48.686-17.089-13.437-14.324-40.686-11.66-55.496-0.001-9.7847-7.934-17.716-17.719-17.715z" fill="#6b6b6b"/>
  <g fill="#fff">
   <path id="circle5720" d="m1240.9 1377a17.717 17.717 0 0 1 -17.716 17.717 17.717 17.717 0 0 1 -17.717 -17.717 17.717 17.717 0 0 1 17.717 -17.716 17.717 17.717 0 0 1 17.716 17.716z" transform="rotate(90)"/>
   <path id="path5722" d="m-1381.9 1276c11.204 46.472 16.031 305.23 20.14 393.73 0 14.898 15.009 35.444 11.736 16.881-18.478-104.82 0.1853-377.81-10.846-408.91-12.194 5.4828-7.7805 0.5431-21.03-1.707z"/>
   <path id="circle5724" d="m1333.7 1309.4a7.0866 7.0866 0 0 1 -7.0866 7.0866 7.0866 7.0866 0 0 1 -7.0866 -7.0866 7.0866 7.0866 0 0 1 7.0866 -7.0866 7.0866 7.0866 0 0 1 7.0866 7.0866z" transform="rotate(90)"/>
   <path id="path3647-5" d="m-1357.3 1883c1.591 29.23 15.639 17.977 14.708-0.8493-3.2901-66.571-2.3619-133.46-8.8933-134.55-23.765-2.5963-7.0398 108.42-5.8149 135.4z"/>
   <path id="circle5465" d="m1128.3 1395.9a5.315 5.315 0 0 1 -5.315 5.3149 5.315 5.315 0 0 1 -5.3149 -5.3149 5.315 5.315 0 0 1 5.3149 -5.315 5.315 5.315 0 0 1 5.315 5.315z" transform="rotate(90)"/>
  </g>
 </g>
</svg>
