  0
SECTION
  2
HEADER
  9
$ACADVER
  1
AC1009
  9
$INSBASE
 10
0.0
 20
0.0
 30
0.0
  9
$EXTMIN
 10
0.0
 20
0.0
 30
0.0
  9
$EXTMAX
 10
0.0
 20
0.0
 30
0.0
  0
ENDSEC
  0
SECTION
  2
TABLES
  0
TABLE
  2
VPORT
 70
0
  0
ENDTAB
  0
TABLE
  2
LTYPE
 70
1
  0
LTYPE
  2
CONTINUOUS
 70
0
  3
Solid line
 72
65
 73
0
 40
0.0
  0
ENDTAB
  0
TABLE
  2
LAYER
 70
1
  0
LAYER
  2
0
 70
64
 62
7
  6
continuous
  0
ENDTAB
  0
TABLE
  2
STYLE
 70
1
  0
STYLE
  2
STANDARD
 70
0
 40
0
 41
1.0
 50
0.0
 71
0
 42
1
 3
ARIAL.TTF
 4

  0
ENDTAB
  0
TABLE
  2
VIEW
 70
0
  0
ENDTAB
  0
ENDSEC
  0
SECTION
  2
BLOCKS
  0
BLOCK
  8
0
  2
SHAPE2DVIEW010
 70
0
 10
0.0
 20
0.0
 30
0.0
  3
SHAPE2DVIEW010
  0
ARC
  8
0
 62
0
 10
-4.440892098500626e-16
 20
8.881759315408432e-16
 30
0.0
 40
7.0
 50
-90.00000000000006
 51
90.0000000005479
  0
LINE
  8
0
 62
0
 10
-6.693845477911964e-11
 20
7.000000000000006
 30
0.0
 11
-24.999999999999993
 21
4.000000000000009
 31
0.0
  0
ARC
  8
0
 62
0
 10
-25.000000000000018
 20
3.6637359812633345e-15
 30
0.0
 40
4.0
 50
89.99999999999994
 51
-90.00000000000006
  0
LINE
  8
0
 62
0
 10
-5.773159728050814e-15
 20
-7.000000000000004
 30
0.0
 11
-25.000000000000004
 21
-4.000000000000002
 31
0.0
  0
CIRCLE
  8
0
 62
0
 10
-4.440892098500626e-16
 20
8.881759315408432e-16
 30
0.0
 40
3.18
  0
CIRCLE
  8
0
 62
0
 10
-25.000000000000018
 20
3.6637359812633345e-15
 30
0.0
 40
2.15
  0
ENDBLK
  0
ENDSEC
  0
SECTION
  2
ENTITIES
  0
INSERT
  2
SHAPE2DVIEW010
  8
0
 62
0
 10
0.0
 20
0.0
 30
0.0
  0
ENDSEC
  0
EOF
